%!PS-Adobe-3.0 EPSF-3.0
%%Creator: (MATLAB, The Mathworks, Inc. Version 9.0.0.341360 \(R2016a\). Operating System: Linux)
%%Title: /opt/rshukla/GMIG_Report_2017/ViscoElastic/creep.eps
%%CreationDate: 2018-06-29T18:29:58
%%Pages: (atend)
%%BoundingBox: 0 0 428 310
%%LanguageLevel: 3
%%EndComments
%%BeginProlog
%%BeginResource: procset (Apache XML Graphics Std ProcSet) 1.2 0
%%Version: 1.2 0
%%Copyright: (Copyright 2001-2003,2010 The Apache Software Foundation. License terms: http://www.apache.org/licenses/LICENSE-2.0)
/bd{bind def}bind def
/ld{load def}bd
/GR/grestore ld
/M/moveto ld
/LJ/setlinejoin ld
/C/curveto ld
/f/fill ld
/LW/setlinewidth ld
/GC/setgray ld
/t/show ld
/N/newpath ld
/CT/concat ld
/cp/closepath ld
/S/stroke ld
/L/lineto ld
/CC/setcmykcolor ld
/A/ashow ld
/GS/gsave ld
/RC/setrgbcolor ld
/RM/rmoveto ld
/ML/setmiterlimit ld
/re {4 2 roll M
1 index 0 rlineto
0 exch rlineto
neg 0 rlineto
cp } bd
/_ctm matrix def
/_tm matrix def
/BT { _ctm currentmatrix pop matrix _tm copy pop 0 0 moveto } bd
/ET { _ctm setmatrix } bd
/iTm { _ctm setmatrix _tm concat } bd
/Tm { _tm astore pop iTm 0 0 moveto } bd
/ux 0.0 def
/uy 0.0 def
/F {
  /Tp exch def
  /Tf exch def
  Tf findfont Tp scalefont setfont
  /cf Tf def  /cs Tp def
} bd
/ULS {currentpoint /uy exch def /ux exch def} bd
/ULE {
  /Tcx currentpoint pop def
  gsave
  newpath
  cf findfont cs scalefont dup
  /FontMatrix get 0 get /Ts exch def /FontInfo get dup
  /UnderlinePosition get Ts mul /To exch def
  /UnderlineThickness get Ts mul /Tt exch def
  ux uy To add moveto  Tcx uy To add lineto
  Tt setlinewidth stroke
  grestore
} bd
/OLE {
  /Tcx currentpoint pop def
  gsave
  newpath
  cf findfont cs scalefont dup
  /FontMatrix get 0 get /Ts exch def /FontInfo get dup
  /UnderlinePosition get Ts mul /To exch def
  /UnderlineThickness get Ts mul /Tt exch def
  ux uy To add cs add moveto Tcx uy To add cs add lineto
  Tt setlinewidth stroke
  grestore
} bd
/SOE {
  /Tcx currentpoint pop def
  gsave
  newpath
  cf findfont cs scalefont dup
  /FontMatrix get 0 get /Ts exch def /FontInfo get dup
  /UnderlinePosition get Ts mul /To exch def
  /UnderlineThickness get Ts mul /Tt exch def
  ux uy To add cs 10 mul 26 idiv add moveto Tcx uy To add cs 10 mul 26 idiv add lineto
  Tt setlinewidth stroke
  grestore
} bd
/QT {
/Y22 exch store
/X22 exch store
/Y21 exch store
/X21 exch store
currentpoint
/Y21 load 2 mul add 3 div exch
/X21 load 2 mul add 3 div exch
/X21 load 2 mul /X22 load add 3 div
/Y21 load 2 mul /Y22 load add 3 div
/X22 load /Y22 load curveto
} bd
/SSPD {
dup length /d exch dict def
{
/v exch def
/k exch def
currentpagedevice k known {
/cpdv currentpagedevice k get def
v cpdv ne {
/upd false def
/nullv v type /nulltype eq def
/nullcpdv cpdv type /nulltype eq def
nullv nullcpdv or
{
/upd true def
} {
/sametype v type cpdv type eq def
sametype {
v type /arraytype eq {
/vlen v length def
/cpdvlen cpdv length def
vlen cpdvlen eq {
0 1 vlen 1 sub {
/i exch def
/obj v i get def
/cpdobj cpdv i get def
obj cpdobj ne {
/upd true def
exit
} if
} for
} {
/upd true def
} ifelse
} {
v type /dicttype eq {
v {
/dv exch def
/dk exch def
/cpddv cpdv dk get def
dv cpddv ne {
/upd true def
exit
} if
} forall
} {
/upd true def
} ifelse
} ifelse
} if
} ifelse
upd true eq {
d k v put
} if
} if
} if
} forall
d length 0 gt {
d setpagedevice
} if
} bd
%%EndResource
%%BeginResource: procset (Apache XML Graphics EPS ProcSet) 1.0 0
%%Version: 1.0 0
%%Copyright: (Copyright 2002-2003 The Apache Software Foundation. License terms: http://www.apache.org/licenses/LICENSE-2.0)
/BeginEPSF { %def
/b4_Inc_state save def         % Save state for cleanup
/dict_count countdictstack def % Count objects on dict stack
/op_count count 1 sub def      % Count objects on operand stack
userdict begin                 % Push userdict on dict stack
/showpage { } def              % Redefine showpage, { } = null proc
0 setgray 0 setlinecap         % Prepare graphics state
1 setlinewidth 0 setlinejoin
10 setmiterlimit [ ] 0 setdash newpath
/languagelevel where           % If level not equal to 1 then
{pop languagelevel             % set strokeadjust and
1 ne                           % overprint to their defaults.
{false setstrokeadjust false setoverprint
} if
} if
} bd
/EndEPSF { %def
count op_count sub {pop} repeat            % Clean up stacks
countdictstack dict_count sub {end} repeat
b4_Inc_state restore
} bd
%%EndResource
%FOPBeginFontDict
%%IncludeResource: font Courier-Bold
%%IncludeResource: font Helvetica
%%IncludeResource: font Courier-BoldOblique
%%IncludeResource: font Courier-Oblique
%%IncludeResource: font Times-Roman
%%IncludeResource: font Helvetica-BoldOblique
%%IncludeResource: font Helvetica-Bold
%%IncludeResource: font Helvetica-Oblique
%%IncludeResource: font Times-BoldItalic
%%IncludeResource: font Courier
%%IncludeResource: font Times-Italic
%%IncludeResource: font Times-Bold
%%IncludeResource: font Symbol
%%IncludeResource: font ZapfDingbats
%FOPEndFontDict
%%BeginResource: encoding WinAnsiEncoding
/WinAnsiEncoding [
/.notdef /.notdef /.notdef /.notdef /.notdef
/.notdef /.notdef /.notdef /.notdef /.notdef
/.notdef /.notdef /.notdef /.notdef /.notdef
/.notdef /.notdef /.notdef /.notdef /.notdef
/.notdef /.notdef /.notdef /.notdef /.notdef
/.notdef /.notdef /.notdef /.notdef /.notdef
/.notdef /.notdef /space /exclam /quotedbl
/numbersign /dollar /percent /ampersand /quotesingle
/parenleft /parenright /asterisk /plus /comma
/hyphen /period /slash /zero /one
/two /three /four /five /six
/seven /eight /nine /colon /semicolon
/less /equal /greater /question /at
/A /B /C /D /E
/F /G /H /I /J
/K /L /M /N /O
/P /Q /R /S /T
/U /V /W /X /Y
/Z /bracketleft /backslash /bracketright /asciicircum
/underscore /quoteleft /a /b /c
/d /e /f /g /h
/i /j /k /l /m
/n /o /p /q /r
/s /t /u /v /w
/x /y /z /braceleft /bar
/braceright /asciitilde /bullet /Euro /bullet
/quotesinglbase /florin /quotedblbase /ellipsis /dagger
/daggerdbl /circumflex /perthousand /Scaron /guilsinglleft
/OE /bullet /Zcaron /bullet /bullet
/quoteleft /quoteright /quotedblleft /quotedblright /bullet
/endash /emdash /asciitilde /trademark /scaron
/guilsinglright /oe /bullet /zcaron /Ydieresis
/space /exclamdown /cent /sterling /currency
/yen /brokenbar /section /dieresis /copyright
/ordfeminine /guillemotleft /logicalnot /sfthyphen /registered
/macron /degree /plusminus /twosuperior /threesuperior
/acute /mu /paragraph /middot /cedilla
/onesuperior /ordmasculine /guillemotright /onequarter /onehalf
/threequarters /questiondown /Agrave /Aacute /Acircumflex
/Atilde /Adieresis /Aring /AE /Ccedilla
/Egrave /Eacute /Ecircumflex /Edieresis /Igrave
/Iacute /Icircumflex /Idieresis /Eth /Ntilde
/Ograve /Oacute /Ocircumflex /Otilde /Odieresis
/multiply /Oslash /Ugrave /Uacute /Ucircumflex
/Udieresis /Yacute /Thorn /germandbls /agrave
/aacute /acircumflex /atilde /adieresis /aring
/ae /ccedilla /egrave /eacute /ecircumflex
/edieresis /igrave /iacute /icircumflex /idieresis
/eth /ntilde /ograve /oacute /ocircumflex
/otilde /odieresis /divide /oslash /ugrave
/uacute /ucircumflex /udieresis /yacute /thorn
/ydieresis
] def
%%EndResource
%FOPBeginFontReencode
/Courier-Bold findfont
dup length dict begin
  {1 index /FID ne {def} {pop pop} ifelse} forall
  /Encoding WinAnsiEncoding def
  currentdict
end
/Courier-Bold exch definefont pop
/Helvetica findfont
dup length dict begin
  {1 index /FID ne {def} {pop pop} ifelse} forall
  /Encoding WinAnsiEncoding def
  currentdict
end
/Helvetica exch definefont pop
/Courier-BoldOblique findfont
dup length dict begin
  {1 index /FID ne {def} {pop pop} ifelse} forall
  /Encoding WinAnsiEncoding def
  currentdict
end
/Courier-BoldOblique exch definefont pop
/Courier-Oblique findfont
dup length dict begin
  {1 index /FID ne {def} {pop pop} ifelse} forall
  /Encoding WinAnsiEncoding def
  currentdict
end
/Courier-Oblique exch definefont pop
/Times-Roman findfont
dup length dict begin
  {1 index /FID ne {def} {pop pop} ifelse} forall
  /Encoding WinAnsiEncoding def
  currentdict
end
/Times-Roman exch definefont pop
/Helvetica-BoldOblique findfont
dup length dict begin
  {1 index /FID ne {def} {pop pop} ifelse} forall
  /Encoding WinAnsiEncoding def
  currentdict
end
/Helvetica-BoldOblique exch definefont pop
/Helvetica-Bold findfont
dup length dict begin
  {1 index /FID ne {def} {pop pop} ifelse} forall
  /Encoding WinAnsiEncoding def
  currentdict
end
/Helvetica-Bold exch definefont pop
/Helvetica-Oblique findfont
dup length dict begin
  {1 index /FID ne {def} {pop pop} ifelse} forall
  /Encoding WinAnsiEncoding def
  currentdict
end
/Helvetica-Oblique exch definefont pop
/Times-BoldItalic findfont
dup length dict begin
  {1 index /FID ne {def} {pop pop} ifelse} forall
  /Encoding WinAnsiEncoding def
  currentdict
end
/Times-BoldItalic exch definefont pop
/Courier findfont
dup length dict begin
  {1 index /FID ne {def} {pop pop} ifelse} forall
  /Encoding WinAnsiEncoding def
  currentdict
end
/Courier exch definefont pop
/Times-Italic findfont
dup length dict begin
  {1 index /FID ne {def} {pop pop} ifelse} forall
  /Encoding WinAnsiEncoding def
  currentdict
end
/Times-Italic exch definefont pop
/Times-Bold findfont
dup length dict begin
  {1 index /FID ne {def} {pop pop} ifelse} forall
  /Encoding WinAnsiEncoding def
  currentdict
end
/Times-Bold exch definefont pop
%FOPEndFontReencode
%%EndProlog
%%Page: 1 1
%%PageBoundingBox: 0 0 428 310
%%BeginPageSetup
[1 0 0 -1 0 310] CT
%%EndPageSetup
GS
[0.75 0 0 0.75 0 0.25] CT
1 GC
N
0 0 570 413 re
f
GR
GS
[0.75 0 0 0.75 0 0.25] CT
1 GC
N
0 0 570 413 re
f
GR
GS
[0.75 0 0 0.75 0 0.25] CT
1 GC
N
74 368 M
516 368 L
516 31 L
74 31 L
cp
f
GR
GS
[0.75 0 0 0.75 0 0.25] CT
0.149 GC
2 setlinecap
1 LJ
0.667 LW
N
74 368 M
516 368 L
S
GR
GS
[0.75 0 0 0.75 0 0.25] CT
0.149 GC
2 setlinecap
1 LJ
0.667 LW
N
74 31 M
516 31 L
S
GR
GS
[0.75 0 0 0.75 0 0.25] CT
0.149 GC
2 setlinecap
1 LJ
0.667 LW
N
74 368 M
74 363.58 L
S
GR
GS
[0.75 0 0 0.75 0 0.25] CT
0.149 GC
2 setlinecap
1 LJ
0.667 LW
N
147.667 368 M
147.667 363.58 L
S
GR
GS
[0.75 0 0 0.75 0 0.25] CT
0.149 GC
2 setlinecap
1 LJ
0.667 LW
N
221.333 368 M
221.333 363.58 L
S
GR
GS
[0.75 0 0 0.75 0 0.25] CT
0.149 GC
2 setlinecap
1 LJ
0.667 LW
N
295 368 M
295 363.58 L
S
GR
GS
[0.75 0 0 0.75 0 0.25] CT
0.149 GC
2 setlinecap
1 LJ
0.667 LW
N
368.667 368 M
368.667 363.58 L
S
GR
GS
[0.75 0 0 0.75 0 0.25] CT
0.149 GC
2 setlinecap
1 LJ
0.667 LW
N
442.333 368 M
442.333 363.58 L
S
GR
GS
[0.75 0 0 0.75 0 0.25] CT
0.149 GC
2 setlinecap
1 LJ
0.667 LW
N
516 368 M
516 363.58 L
S
GR
GS
[0.75 0 0 0.75 0 0.25] CT
0.149 GC
2 setlinecap
1 LJ
0.667 LW
N
74 31 M
74 35.42 L
S
GR
GS
[0.75 0 0 0.75 0 0.25] CT
0.149 GC
2 setlinecap
1 LJ
0.667 LW
N
147.667 31 M
147.667 35.42 L
S
GR
GS
[0.75 0 0 0.75 0 0.25] CT
0.149 GC
2 setlinecap
1 LJ
0.667 LW
N
221.333 31 M
221.333 35.42 L
S
GR
GS
[0.75 0 0 0.75 0 0.25] CT
0.149 GC
2 setlinecap
1 LJ
0.667 LW
N
295 31 M
295 35.42 L
S
GR
GS
[0.75 0 0 0.75 0 0.25] CT
0.149 GC
2 setlinecap
1 LJ
0.667 LW
N
368.667 31 M
368.667 35.42 L
S
GR
GS
[0.75 0 0 0.75 0 0.25] CT
0.149 GC
2 setlinecap
1 LJ
0.667 LW
N
442.333 31 M
442.333 35.42 L
S
GR
GS
[0.75 0 0 0.75 0 0.25] CT
0.149 GC
2 setlinecap
1 LJ
0.667 LW
N
516 31 M
516 35.42 L
S
GR
GS
[0.75 0 0 0.75 55.5 280.25001] CT
0.149 GC
/Helvetica 13.333 F
GS
[1 0 0 1 0 0] CT
-4.5 13 moveto 
1 -1 scale
(0) t 
GR
GR
GS
[0.75 0 0 0.75 110.75 280.25001] CT
0.149 GC
/Helvetica 13.333 F
GS
[1 0 0 1 0 0] CT
-8.5 13 moveto 
1 -1 scale
(10) t 
GR
GR
GS
[0.75 0 0 0.75 166 280.25001] CT
0.149 GC
/Helvetica 13.333 F
GS
[1 0 0 1 0 0] CT
-8.5 13 moveto 
1 -1 scale
(20) t 
GR
GR
GS
[0.75 0 0 0.75 221.25 280.25001] CT
0.149 GC
/Helvetica 13.333 F
GS
[1 0 0 1 0 0] CT
-8.5 13 moveto 
1 -1 scale
(30) t 
GR
GR
GS
[0.75 0 0 0.75 276.49999 280.25001] CT
0.149 GC
/Helvetica 13.333 F
GS
[1 0 0 1 0 0] CT
-8.5 13 moveto 
1 -1 scale
(40) t 
GR
GR
GS
[0.75 0 0 0.75 331.75001 280.25001] CT
0.149 GC
/Helvetica 13.333 F
GS
[1 0 0 1 0 0] CT
-8.5 13 moveto 
1 -1 scale
(50) t 
GR
GR
GS
[0.75 0 0 0.75 387 280.25001] CT
0.149 GC
/Helvetica 13.333 F
GS
[1 0 0 1 0 0] CT
-8.5 13 moveto 
1 -1 scale
(60) t 
GR
GR
GS
[0.75 0 0 0.75 221.25016 293.99999] CT
0.149 GC
/Helvetica 14.667 F
GS
[1 0 0 1 0 0] CT
-38.5 14 moveto 
1 -1 scale
(Time \(ms\)) t 
GR
GR
GS
[0.75 0 0 0.75 0 0.25] CT
0.149 GC
2 setlinecap
1 LJ
0.667 LW
N
74 368 M
74 31 L
S
GR
GS
[0.75 0 0 0.75 0 0.25] CT
0.149 GC
2 setlinecap
1 LJ
0.667 LW
N
516 368 M
516 31 L
S
GR
GS
[0.75 0 0 0.75 0 0.25] CT
0.149 GC
2 setlinecap
1 LJ
0.667 LW
N
74 368 M
78.42 368 L
S
GR
GS
[0.75 0 0 0.75 0 0.25] CT
0.149 GC
2 setlinecap
1 LJ
0.667 LW
N
74 319.857 M
78.42 319.857 L
S
GR
GS
[0.75 0 0 0.75 0 0.25] CT
0.149 GC
2 setlinecap
1 LJ
0.667 LW
N
74 271.714 M
78.42 271.714 L
S
GR
GS
[0.75 0 0 0.75 0 0.25] CT
0.149 GC
2 setlinecap
1 LJ
0.667 LW
N
74 223.571 M
78.42 223.571 L
S
GR
GS
[0.75 0 0 0.75 0 0.25] CT
0.149 GC
2 setlinecap
1 LJ
0.667 LW
N
74 175.429 M
78.42 175.429 L
S
GR
GS
[0.75 0 0 0.75 0 0.25] CT
0.149 GC
2 setlinecap
1 LJ
0.667 LW
N
74 127.286 M
78.42 127.286 L
S
GR
GS
[0.75 0 0 0.75 0 0.25] CT
0.149 GC
2 setlinecap
1 LJ
0.667 LW
N
74 79.143 M
78.42 79.143 L
S
GR
GS
[0.75 0 0 0.75 0 0.25] CT
0.149 GC
2 setlinecap
1 LJ
0.667 LW
N
74 31 M
78.42 31 L
S
GR
GS
[0.75 0 0 0.75 0 0.25] CT
0.149 GC
2 setlinecap
1 LJ
0.667 LW
N
516 368 M
511.58 368 L
S
GR
GS
[0.75 0 0 0.75 0 0.25] CT
0.149 GC
2 setlinecap
1 LJ
0.667 LW
N
516 319.857 M
511.58 319.857 L
S
GR
GS
[0.75 0 0 0.75 0 0.25] CT
0.149 GC
2 setlinecap
1 LJ
0.667 LW
N
516 271.714 M
511.58 271.714 L
S
GR
GS
[0.75 0 0 0.75 0 0.25] CT
0.149 GC
2 setlinecap
1 LJ
0.667 LW
N
516 223.571 M
511.58 223.571 L
S
GR
GS
[0.75 0 0 0.75 0 0.25] CT
0.149 GC
2 setlinecap
1 LJ
0.667 LW
N
516 175.429 M
511.58 175.429 L
S
GR
GS
[0.75 0 0 0.75 0 0.25] CT
0.149 GC
2 setlinecap
1 LJ
0.667 LW
N
516 127.286 M
511.58 127.286 L
S
GR
GS
[0.75 0 0 0.75 0 0.25] CT
0.149 GC
2 setlinecap
1 LJ
0.667 LW
N
516 79.143 M
511.58 79.143 L
S
GR
GS
[0.75 0 0 0.75 0 0.25] CT
0.149 GC
2 setlinecap
1 LJ
0.667 LW
N
516 31 M
511.58 31 L
S
GR
GS
[0.75 0 0 0.75 51.5 276.25] CT
0.149 GC
/Helvetica 13.333 F
GS
[1 0 0 1 0 0] CT
-9 4.5 moveto 
1 -1 scale
(0) t 
GR
GR
GS
[0.75 0 0 0.75 51.5 240.14286] CT
0.149 GC
/Helvetica 13.333 F
GS
[1 0 0 1 0 0] CT
-29 4.5 moveto 
1 -1 scale
(0.01) t 
GR
GR
GS
[0.75 0 0 0.75 51.5 204.03572] CT
0.149 GC
/Helvetica 13.333 F
GS
[1 0 0 1 0 0] CT
-29 4.5 moveto 
1 -1 scale
(0.02) t 
GR
GR
GS
[0.75 0 0 0.75 51.5 167.92857] CT
0.149 GC
/Helvetica 13.333 F
GS
[1 0 0 1 0 0] CT
-29 4.5 moveto 
1 -1 scale
(0.03) t 
GR
GR
GS
[0.75 0 0 0.75 51.5 131.82143] CT
0.149 GC
/Helvetica 13.333 F
GS
[1 0 0 1 0 0] CT
-29 4.5 moveto 
1 -1 scale
(0.04) t 
GR
GR
GS
[0.75 0 0 0.75 51.5 95.71428] CT
0.149 GC
/Helvetica 13.333 F
GS
[1 0 0 1 0 0] CT
-29 4.5 moveto 
1 -1 scale
(0.05) t 
GR
GR
GS
[0.75 0 0 0.75 51.5 59.60715] CT
0.149 GC
/Helvetica 13.333 F
GS
[1 0 0 1 0 0] CT
-29 4.5 moveto 
1 -1 scale
(0.06) t 
GR
GR
GS
[0.75 0 0 0.75 51.5 23.5] CT
0.149 GC
/Helvetica 13.333 F
GS
[1 0 0 1 0 0] CT
-29 4.5 moveto 
1 -1 scale
(0.07) t 
GR
GR
GS
[0 -0.75 0.75 0 26.75 149.87487] CT
0.149 GC
/Helvetica 14.667 F
GS
[1 0 0 1 0 0] CT
-87.5 -4 moveto 
1 -1 scale
(Creep Function \(1/GPa\)) t 
GR
GR
GS
[0.75 0 0 0.75 0 0.25] CT
1 0 0 RC
1 LJ
2 LW
N
74 204.249 M
81.367 195.653 L
88.733 188.307 L
96.1 182.029 L
103.467 176.663 L
110.833 172.077 L
118.2 168.158 L
125.567 164.809 L
132.933 161.946 L
140.3 159.5 L
147.667 157.409 L
155.033 155.622 L
162.4 154.095 L
169.767 152.79 L
177.133 151.674 L
184.5 150.721 L
191.867 149.906 L
199.233 149.21 L
206.6 148.615 L
213.967 148.106 L
221.333 147.672 L
228.7 147.3 L
236.067 146.983 L
243.433 146.712 L
250.8 146.48 L
258.167 146.281 L
265.533 146.112 L
272.9 145.967 L
280.267 145.844 L
287.633 145.738 L
295 145.648 L
302.367 145.57 L
309.733 145.504 L
317.1 145.448 L
324.467 145.4 L
331.833 145.359 L
339.2 145.323 L
346.567 145.293 L
353.933 145.268 L
361.3 145.246 L
368.667 145.227 L
376.033 145.211 L
383.4 145.197 L
390.767 145.185 L
398.133 145.175 L
405.5 145.167 L
412.867 145.159 L
420.233 145.153 L
427.6 145.148 L
434.967 145.143 L
442.333 145.139 L
S
GR
GS
[0.75 0 0 0.75 0 0.25] CT
0 0 1 RC
[8 2 4 2] 0 setdash
2 LJ
2 LW
N
74 145.116 M
81.367 145.116 L
88.733 145.116 L
96.1 145.116 L
103.467 145.116 L
110.833 145.116 L
118.2 145.116 L
125.567 145.116 L
132.933 145.116 L
140.3 145.116 L
147.667 145.116 L
155.033 145.116 L
162.4 145.116 L
169.767 145.116 L
177.133 145.116 L
184.5 145.116 L
191.867 145.116 L
199.233 145.116 L
206.6 145.116 L
213.967 145.116 L
221.333 145.116 L
228.7 145.116 L
236.067 145.116 L
243.433 145.116 L
250.8 145.116 L
258.167 145.116 L
265.533 145.116 L
272.9 145.116 L
280.267 145.116 L
287.633 145.116 L
295 145.116 L
302.367 145.116 L
309.733 145.116 L
317.1 145.116 L
324.467 145.116 L
331.833 145.116 L
339.2 145.116 L
346.567 145.116 L
353.933 145.116 L
361.3 145.116 L
368.667 145.116 L
376.033 145.116 L
383.4 145.116 L
390.767 145.116 L
398.133 145.116 L
405.5 145.116 L
412.867 145.116 L
420.233 145.116 L
427.6 145.116 L
434.967 145.116 L
442.333 145.116 L
S
GR
GS
[0.75 0 0 0.75 56.25 97.75] CT
/Helvetica 18.667 F
GS
[1 0 0 1 0 0] CT
0 0 moveto 
1 -1 scale
(1/M) t 
GR
GR
GS
[0.75 0 0 0.75 82.5 104.5] CT
/Helvetica 14.667 F
GS
[1 0 0 1 0 0] CT
0 0 moveto 
1 -1 scale
(R) t 
GR
GR
GS
[0.75 0 0 0.75 56.25 163] CT
/Helvetica 18.667 F
GS
[1 0 0 1 0 0] CT
0 0 moveto 
1 -1 scale
(1/M) t 
GR
GR
GS
[0.75 0 0 0.75 82.5 169.75] CT
/Helvetica 14.667 F
GS
[1 0 0 1 0 0] CT
0 0 moveto 
1 -1 scale
(U) t 
GR
GR
%%Trailer
%%Pages: 1
%%EOF
