\relax 
\providecommand \oddpage@label [2]{}
\@writefile{toc}{\contentsline {section}{\numberline {1}Zener Model}{1}}
\@writefile{lof}{\contentsline {figure}{\numberline {1}{\ignorespaces Single element\relax }}{1}}
\@writefile{lof}{\contentsline {figure}{\numberline {2}{\ignorespaces Genearlized Zener model\relax }}{1}}
\@writefile{toc}{\contentsline {subsection}{\numberline {1.1}Single element}{1}}
\newlabel{eq1}{{1}{1}}
\newlabel{eq2}{{2}{1}}
\newlabel{eq3}{{3}{1}}
\newlabel{eq4}{{4}{1}}
\newlabel{eq6}{{5}{1}}
\newlabel{eq7}{{6}{1}}
\newlabel{eq8}{{8}{2}}
\newlabel{eq8a}{{9}{2}}
\newlabel{Q}{{11}{2}}
\newlabel{eq12}{{15}{2}}
\@writefile{lof}{\contentsline {figure}{\numberline {3}{\ignorespaces Relaxation function\relax }}{2}}
\@writefile{lof}{\contentsline {figure}{\numberline {4}{\ignorespaces Creep function\relax }}{2}}
\@writefile{lof}{\contentsline {figure}{\numberline {5}{\ignorespaces Relaxation function\relax }}{3}}
\@writefile{lof}{\contentsline {figure}{\numberline {6}{\ignorespaces Creep function\relax }}{3}}
