\relax 
\citation{biot1956theory}
\citation{biot1962mechanics}
\citation{biot1962mechanics}
\citation{carcione1995some}
\citation{ozdenvar1997algorithms}
\citation{carcione1996wave}
\citation{johnson1987theory}
\citation{biot1962mechanics}
\citation{stern1985wave,yamamoto1988acoustic}
\citation{rosenbaum1974synthetic}
\citation{garg1974compressional}
\citation{mikhailenko1985numerical}
\citation{hassanzadeh1991acoustic}
\citation{zhu1991numerical}
\citation{dai1995wave}
\citation{carcione2002seismic}
\citation{ozdenvar1997algorithms}
\citation{virieux1986p}
\citation{carcione1995some}
\citation{carcione1996wave}
\citation{carcione1998viscoelastic}
\citation{carcione1999numerical}
\citation{de2008discontinuous}
\providecommand \oddpage@label [2]{}
\@writefile{toc}{\contentsline {section}{\numberline {1}Introduction}{1}}
\citation{johnson1987theory}
\citation{biot1956theory}
\citation{caputo1967linear}
\citation{carcione1998viscoelastic}
\citation{hesthaven2007nodal}
\citation{strang1968construction}
\citation{ye2016discontinuous,warburton2010low}
\citation{biot1956theory}
\citation{johnson1987theory}
\@writefile{toc}{\contentsline {section}{\numberline {2}Biot's System of Equations}{2}}
\citation{terzaghi1936shearing}
\@writefile{lot}{\contentsline {table}{\numberline {1}{\ignorespaces List of symbols}}{3}}
\@writefile{toc}{\contentsline {subsection}{\numberline {2.1}Constitutive Equations}{3}}
\newlabel{eq 1}{{2.1}{3}}
\newlabel{eq 2}{{2.2}{3}}
\newlabel{eq 3}{{2.3}{3}}
\citation{biot1956theory,biot1962mechanics}
\citation{carcione2007wave}
\citation{darcy1856fontaines}
\citation{johnson1987theory}
\newlabel{eq 4}{{2.4}{4}}
\newlabel{eq 5}{{2.5}{4}}
\@writefile{toc}{\contentsline {subsection}{\numberline {2.2}Equation of Motion}{4}}
\newlabel{eq 5a}{{2.6}{4}}
\newlabel{eq 6}{{2.7}{4}}
\newlabel{eq 7}{{2.8}{4}}
\@writefile{toc}{\contentsline {subsection}{\numberline {2.3}Dynamic Permeability}{4}}
\newlabel{eq 8}{{2.9}{4}}
\newlabel{eq 9}{{2.10}{4}}
\citation{podlubny1998fractional}
\newlabel{eq 10}{{2.12}{5}}
\newlabel{eq 11}{{2.13}{5}}
\newlabel{eq 12}{{2.14}{5}}
\newlabel{eq 13}{{2.15}{5}}
\newlabel{eq 14}{{2.16}{5}}
\newlabel{eq 15}{{2.17}{5}}
\newlabel{eq 16}{{2.18}{5}}
\newlabel{eq 17}{{2.19}{5}}
\citation{deresiewicz1963uniqueness}
\citation{gurevich1999interface}
\citation{deresiewicz1963uniqueness}
\citation{gurevich1999interface}
\citation{gurevich1999interface}
\newlabel{eq 18}{{2.22}{6}}
\newlabel{eq 19}{{2.23}{6}}
\newlabel{eq 20}{{2.24}{6}}
\newlabel{eq 21}{{2.25}{6}}
\@writefile{toc}{\contentsline {subsection}{\numberline {2.4}Boundary Conditions}{6}}
\newlabel{eq 22}{{2.26}{6}}
\newlabel{eq 23}{{2.27}{6}}
\newlabel{eq 24}{{2.28}{6}}
\newlabel{eq 25}{{2.29}{6}}
\newlabel{eq 26}{{2.30}{6}}
\@writefile{toc}{\contentsline {section}{\numberline {3}Broad-Band Biot's Equation: Weak and Strong Formulations}{7}}
\newlabel{eq 27}{{3.1}{7}}
\newlabel{eq 28}{{3.2}{7}}
\newlabel{eq 29}{{3.3}{7}}
\newlabel{eq 30}{{3.4}{7}}
\newlabel{eq27}{{3.5}{7}}
\newlabel{eq28}{{3.6}{7}}
\newlabel{eq29}{{3.7}{7}}
\newlabel{eq30}{{3.8}{7}}
\newlabel{eq 31}{{3.9}{7}}
\newlabel{eq 32}{{3.10}{7}}
\newlabel{eq 33}{{3.11}{7}}
\newlabel{eq 34}{{3.12}{8}}
\newlabel{eq:weak tau}{{3.13}{8}}
\newlabel{eq:weak p}{{3.14}{8}}
\newlabel{eq:weak v}{{3.15}{8}}
\newlabel{eq:weak q}{{3.16}{8}}
\@writefile{toc}{\contentsline {section}{\numberline {4}Discontinuous Galerkin Method}{8}}
\newlabel{eq 43}{{4.1}{8}}
\newlabel{eq 44}{{4.2}{8}}
\newlabel{eq 45}{{4.3}{8}}
\newlabel{eq 46}{{4.4}{9}}
\@writefile{toc}{\contentsline {subsection}{\numberline {4.1}Energy Function of the Central Flux}{9}}
\newlabel{eq 47}{{4.5}{9}}
\newlabel{eq 48}{{4.6}{9}}
\newlabel{eq:Eng v}{{4.7}{9}}
\newlabel{eq:Eng q}{{4.8}{9}}
\newlabel{eq:Eng kinatic}{{4.9}{9}}
\newlabel{eq:Eng tau}{{4.10}{10}}
\newlabel{eq:Eng p}{{4.11}{10}}
\newlabel{eq:Eng dynamic}{{4.12}{10}}
\newlabel{eq:energy}{{4.13}{11}}
\@writefile{toc}{\contentsline {section}{\numberline {5}System of Poroelastic Equations in Matrix Form}{11}}
\newlabel{eq 60}{{5.1}{11}}
\newlabel{eq 61}{{5.2}{11}}
\newlabel{eq 62}{{5.3}{11}}
\newlabel{eq 63}{{5.4}{11}}
\newlabel{eq 64}{{5.5}{11}}
\newlabel{eq 65}{{5.6}{11}}
\newlabel{eq 66}{{5.7}{12}}
\newlabel{eq 67}{{5.8}{12}}
\newlabel{eq 68}{{5.9}{12}}
\newlabel{eq 69}{{5.10}{12}}
\@writefile{toc}{\contentsline {subsection}{\numberline {5.1}Symmetric form of Poroelastic System in Low frequency regime}{13}}
\newlabel{energy:tau}{{5.18}{16}}
\newlabel{energy:velocity}{{5.19}{16}}
\@writefile{toc}{\contentsline {section}{\numberline {6}Energy stability}{17}}
\newlabel{energy:tau1}{{6.1}{17}}
\newlabel{energy:velocity1}{{6.2}{17}}
\@writefile{toc}{\contentsline {section}{\numberline {7}The semi-discrete matrix system for DG}{18}}
\newlabel{eq 7.1}{{7.1}{18}}
\newlabel{eq 7.1}{{7.3}{18}}
\@writefile{toc}{\contentsline {section}{\numberline {8}Weight-adjusted Discontinuous Galerkin method}{20}}
\@writefile{toc}{\contentsline {section}{\numberline {9}Convergence and stability in Low frequecy for Plane wave}{20}}
\newlabel{fig:Fig1a}{{1a}{20}}
\newlabel{sub@fig:Fig1a}{{(a)}{a}}
\newlabel{fig:Fig1b}{{1b}{20}}
\newlabel{sub@fig:Fig1b}{{(b)}{b}}
\newlabel{fig:Fig1c}{{1c}{20}}
\newlabel{sub@fig:Fig1c}{{(c)}{c}}
\newlabel{fig:Fig1d}{{1d}{20}}
\newlabel{sub@fig:Fig1d}{{(d)}{d}}
\newlabel{fig:Fig1b}{{1e}{20}}
\newlabel{sub@fig:Fig1b}{{(e)}{e}}
\newlabel{fig:Fig1b}{{1f}{20}}
\newlabel{sub@fig:Fig1b}{{(f)}{f}}
\@writefile{lof}{\contentsline {figure}{\numberline {1}{\ignorespaces Eigenspetra of DG opertaor and error plot for inviscid case}}{20}}
\@writefile{lof}{\contentsline {subfigure}{\numberline{(a)}{\ignorespaces {$\tau =0$}}}{20}}
\@writefile{lof}{\contentsline {subfigure}{\numberline{(b)}{\ignorespaces {$L^2$ error in ${\bm {v}}$ for $\alpha _{\bm {v}}=0$}}}{20}}
\@writefile{lof}{\contentsline {subfigure}{\numberline{(c)}{\ignorespaces {$\tau =0.5$}}}{20}}
\@writefile{lof}{\contentsline {subfigure}{\numberline{(d)}{\ignorespaces {$L^2$ error in ${\bm {v}}$ for $\alpha _{\bm {v}}=0.5$}}}{20}}
\@writefile{lof}{\contentsline {subfigure}{\numberline{(e)}{\ignorespaces {$\tau =1.0$}}}{20}}
\@writefile{lof}{\contentsline {subfigure}{\numberline{(f)}{\ignorespaces {$L^2$ error in ${\bm {v}}$ for $\alpha _{\bm {v}}=1.0$}}}{20}}
\newlabel{fig:Fig2a}{{2a}{21}}
\newlabel{sub@fig:Fig2a}{{(a)}{a}}
\newlabel{fig:Fig2a}{{2b}{21}}
\newlabel{sub@fig:Fig2a}{{(b)}{b}}
\@writefile{lof}{\contentsline {figure}{\numberline {2}{\ignorespaces Compare plot of $L^2$ erron in stress $({{\bm  {\tau }}})$ and velocity $({\bm  {v}})$ variable}}{21}}
\@writefile{lof}{\contentsline {subfigure}{\numberline{(a)}{\ignorespaces {$L^2\nobreakspace {}\text {Error in}\nobreakspace {}{\bm {v}}\nobreakspace {}\text {for}\nobreakspace {}\tau =0.0,\nobreakspace {}0.5,\nobreakspace {}1.0$}}}{21}}
\@writefile{lof}{\contentsline {subfigure}{\numberline{(b)}{\ignorespaces {$L^2\nobreakspace {}\text {Error in}\nobreakspace {}{{\bm {\tau }}}\nobreakspace {}\text {for}\nobreakspace {}\tau =0.0,\nobreakspace {}0.5,\nobreakspace {}1.0$}}}{21}}
\@writefile{lot}{\contentsline {table}{\numberline {2}{\ignorespaces Relative error in ${\bm  {v}}$ for viscid case}}{22}}
\@writefile{lot}{\contentsline {table}{\numberline {3}{\ignorespaces Relative error in ${{\bm  {\tau }}}$ for viscid case}}{23}}
\newlabel{fig:Fig1a}{{3a}{24}}
\newlabel{sub@fig:Fig1a}{{(a)}{a}}
\newlabel{fig:Fig1b}{{3b}{24}}
\newlabel{sub@fig:Fig1b}{{(b)}{b}}
\newlabel{fig:Fig1c}{{3c}{24}}
\newlabel{sub@fig:Fig1c}{{(c)}{c}}
\newlabel{fig:Fig1d}{{3d}{24}}
\newlabel{sub@fig:Fig1d}{{(d)}{d}}
\newlabel{fig:Fig1c}{{3e}{24}}
\newlabel{sub@fig:Fig1c}{{(e)}{e}}
\newlabel{fig:Fig1b}{{3f}{24}}
\newlabel{sub@fig:Fig1b}{{(f)}{f}}
\@writefile{lof}{\contentsline {figure}{\numberline {3}{\ignorespaces Convergence plot for inviscid case with unfied DG scheme (No Strang or Gudonov splitting)}}{24}}
\@writefile{lof}{\contentsline {subfigure}{\numberline{(a)}{\ignorespaces {$L^2$ error in ${\bm {v}}$ for $\alpha _{\bm {v}}=0$}}}{24}}
\@writefile{lof}{\contentsline {subfigure}{\numberline{(b)}{\ignorespaces {$L^2$ error in ${{\bm {\tau }}}$ for $\alpha _{{\bm {\tau }}}=0$}}}{24}}
\@writefile{lof}{\contentsline {subfigure}{\numberline{(c)}{\ignorespaces {$L^2$ error in ${\bm {v}}$ for $\alpha _{\bm {v}}=0.5$}}}{24}}
\@writefile{lof}{\contentsline {subfigure}{\numberline{(d)}{\ignorespaces {$L^2$ error in ${{\bm {\tau }}}$ for $\alpha _{{\bm {\tau }}}=0.5$}}}{24}}
\@writefile{lof}{\contentsline {subfigure}{\numberline{(e)}{\ignorespaces {$L^2$ error in ${\bm {v}}$ for $\alpha _{\bm {v}}==1.0$}}}{24}}
\@writefile{lof}{\contentsline {subfigure}{\numberline{(f)}{\ignorespaces {$L^2$ error in ${{\bm {\tau }}}$ for $\alpha _{{\bm {\tau }}}=1.0$}}}{24}}
\newlabel{fig:Fig1a}{{4a}{25}}
\newlabel{sub@fig:Fig1a}{{(a)}{a}}
\newlabel{fig:Fig1b}{{4b}{25}}
\newlabel{sub@fig:Fig1b}{{(b)}{b}}
\newlabel{fig:Fig1c}{{4c}{25}}
\newlabel{sub@fig:Fig1c}{{(c)}{c}}
\newlabel{fig:Fig1d}{{4d}{25}}
\newlabel{sub@fig:Fig1d}{{(d)}{d}}
\newlabel{fig:Fig1c}{{4e}{25}}
\newlabel{sub@fig:Fig1c}{{(e)}{e}}
\newlabel{fig:Fig1b}{{4f}{25}}
\newlabel{sub@fig:Fig1b}{{(f)}{f}}
\@writefile{lof}{\contentsline {figure}{\numberline {4}{\ignorespaces Convergence plot for inviscid case with unfied DG scheme (with Strang)}}{25}}
\@writefile{lof}{\contentsline {subfigure}{\numberline{(a)}{\ignorespaces {$L^2$ error in ${\bm {v}}$ for $\alpha _{\bm {v}}=0$}}}{25}}
\@writefile{lof}{\contentsline {subfigure}{\numberline{(b)}{\ignorespaces {$L^2$ error in ${{\bm {\tau }}}$ for $\alpha _{{\bm {\tau }}}=0$}}}{25}}
\@writefile{lof}{\contentsline {subfigure}{\numberline{(c)}{\ignorespaces {$L^2$ error in ${\bm {v}}$ for $\alpha _{\bm {v}}=0.5$}}}{25}}
\@writefile{lof}{\contentsline {subfigure}{\numberline{(d)}{\ignorespaces {$L^2$ error in ${{\bm {\tau }}}$ for $\alpha _{{\bm {\tau }}}=0.5$}}}{25}}
\@writefile{lof}{\contentsline {subfigure}{\numberline{(e)}{\ignorespaces {$L^2$ error in ${\bm {v}}$ for $\alpha _{\bm {v}}==1.0$}}}{25}}
\@writefile{lof}{\contentsline {subfigure}{\numberline{(f)}{\ignorespaces {$L^2$ error in ${{\bm {\tau }}}$ for $\alpha _{{\bm {\tau }}}=1.0$}}}{25}}
\@writefile{lot}{\contentsline {table}{\numberline {4}{\ignorespaces Relative error in ${\bm  {v}}$ for inviscid case}}{26}}
\@writefile{lot}{\contentsline {table}{\numberline {5}{\ignorespaces Relative error in ${{\bm  {\tau }}}$ for inviscid case}}{27}}
\newlabel{fig:Fig2a}{{5a}{28}}
\newlabel{sub@fig:Fig2a}{{(a)}{a}}
\newlabel{fig:Fig2a}{{5b}{28}}
\newlabel{sub@fig:Fig2a}{{(b)}{b}}
\newlabel{fig:Fig2a}{{5c}{28}}
\newlabel{sub@fig:Fig2a}{{(c)}{c}}
\newlabel{fig:Fig2a}{{5d}{28}}
\newlabel{sub@fig:Fig2a}{{(d)}{d}}
\@writefile{lof}{\contentsline {figure}{\numberline {5}{\ignorespaces Wavefield simulation for orthotropic sandstone at time $1.56\nobreakspace  {}\text  {ms}$}}{28}}
\@writefile{lof}{\contentsline {subfigure}{\numberline{(a)}{\ignorespaces {Orthotropic Sandstone, $b_x$ with $\eta = 0$}}}{28}}
\@writefile{lof}{\contentsline {subfigure}{\numberline{(b)}{\ignorespaces {Orthotropic Sandstone, $b_z$ with $\eta = 0$}}}{28}}
\@writefile{lof}{\contentsline {subfigure}{\numberline{(c)}{\ignorespaces {Orthotropic Sandstone, $b_x$ with $\eta \not =0$}}}{28}}
\@writefile{lof}{\contentsline {subfigure}{\numberline{(d)}{\ignorespaces {Orthotropic Sandstone, $b_z$ with $\eta \not =0$}}}{28}}
\newlabel{fig:Fig2a}{{6a}{29}}
\newlabel{sub@fig:Fig2a}{{(a)}{a}}
\newlabel{fig:Fig2a}{{6b}{29}}
\newlabel{sub@fig:Fig2a}{{(b)}{b}}
\newlabel{fig:Fig2a}{{6c}{29}}
\newlabel{sub@fig:Fig2a}{{(c)}{c}}
\newlabel{fig:Fig2a}{{6d}{29}}
\newlabel{sub@fig:Fig2a}{{(d)}{d}}
\@writefile{lof}{\contentsline {figure}{\numberline {6}{\ignorespaces Wavefield simulation for Epoxy-glass at time $1.8\nobreakspace  {}\text  {ms}$}}{29}}
\@writefile{lof}{\contentsline {subfigure}{\numberline{(a)}{\ignorespaces {Epoxy-glass, $b_x$ with $\eta = 0$}}}{29}}
\@writefile{lof}{\contentsline {subfigure}{\numberline{(b)}{\ignorespaces {Epoxy-glass, $b_z$ with $\eta = 0$}}}{29}}
\@writefile{lof}{\contentsline {subfigure}{\numberline{(c)}{\ignorespaces {Epoxy-glass, $b_x$ with $\eta \not =0$}}}{29}}
\@writefile{lof}{\contentsline {subfigure}{\numberline{(d)}{\ignorespaces {Epoxy-glass, $b_z$ with $\eta \not =0$}}}{29}}
\newlabel{fig:Fig2a}{{7a}{30}}
\newlabel{sub@fig:Fig2a}{{(a)}{a}}
\@writefile{lof}{\contentsline {figure}{\numberline {7}{\ignorespaces Wavefield simulation for heterogeneous medium at time $0.25\nobreakspace  {}\text  {s}$ for \textit  {DoF} $N_p \times K = 15 \times 32768 $ }}{30}}
\@writefile{lof}{\contentsline {subfigure}{\numberline{(a)}{\ignorespaces {Layered model $\eta = 0$}}}{30}}
\@writefile{toc}{\contentsline {section}{\numberline {10}Broad-Biot for high frequency}{31}}
\@writefile{toc}{\contentsline {section}{\numberline {11}Weights and quadrature from Modifeid Gauss-Jacobi approximation of improper integral}{35}}
\@writefile{lot}{\contentsline {table}{\numberline {6}{\ignorespaces Weight and qudrature points for Gauss-Jacobi and Modified Gauss-Jacobi}}{36}}
\@writefile{toc}{\contentsline {section}{\numberline {12}Energy matrix for high frequency}{36}}
\@writefile{toc}{\contentsline {section}{\numberline {13}Convergence and stability in High-frequecy for Plane wave:}{37}}
\@writefile{lof}{\contentsline {figure}{\numberline {8}{\ignorespaces Eigenspetra of DG opertaor and error plot for viscid and High-frequency case}}{37}}
\@writefile{toc}{\contentsline {subsection}{\numberline {13.1}Inviscid Case}{38}}
\newlabel{fig:Fig1a}{{9a}{38}}
\newlabel{sub@fig:Fig1a}{{(a)}{a}}
\newlabel{fig:Fig1b}{{9b}{38}}
\newlabel{sub@fig:Fig1b}{{(b)}{b}}
\newlabel{fig:Fig1c}{{9c}{38}}
\newlabel{sub@fig:Fig1c}{{(c)}{c}}
\newlabel{fig:Fig1d}{{9d}{38}}
\newlabel{sub@fig:Fig1d}{{(d)}{d}}
\newlabel{fig:Fig1c}{{9e}{38}}
\newlabel{sub@fig:Fig1c}{{(e)}{e}}
\newlabel{fig:Fig1b}{{9f}{38}}
\newlabel{sub@fig:Fig1b}{{(f)}{f}}
\@writefile{lof}{\contentsline {figure}{\numberline {9}{\ignorespaces Convergence plot for inviscid case with unfied DG scheme (No Strang or Gudonov splitting)}}{38}}
\@writefile{lof}{\contentsline {subfigure}{\numberline{(a)}{\ignorespaces {$L^2$ error in ${\bm {v}}$ for $\alpha _{\bm {v}}=0$}}}{38}}
\@writefile{lof}{\contentsline {subfigure}{\numberline{(b)}{\ignorespaces {$L^2$ error in ${{\bm {\tau }}}$ for $\alpha _{{\bm {\tau }}}=0$}}}{38}}
\@writefile{lof}{\contentsline {subfigure}{\numberline{(c)}{\ignorespaces {$L^2$ error in ${\bm {v}}$ for $\alpha _{\bm {v}}=0.5$}}}{38}}
\@writefile{lof}{\contentsline {subfigure}{\numberline{(d)}{\ignorespaces {$L^2$ error in ${{\bm {\tau }}}$ for $\alpha _{{\bm {\tau }}}=0.5$}}}{38}}
\@writefile{lof}{\contentsline {subfigure}{\numberline{(e)}{\ignorespaces {$L^2$ error in ${\bm {v}}$ for $\alpha _{\bm {v}}=1.0$}}}{38}}
\@writefile{lof}{\contentsline {subfigure}{\numberline{(f)}{\ignorespaces {$L^2$ error in ${{\bm {\tau }}}$ for $\alpha _{{\bm {\tau }}}=1.0$}}}{38}}
\@writefile{lot}{\contentsline {table}{\numberline {7}{\ignorespaces Relative error in ${\bm  {v}}$ for inviscid case in HF}}{39}}
\@writefile{lot}{\contentsline {table}{\numberline {8}{\ignorespaces Relative error in ${{\bm  {\tau }}}$ for inviscid case in HF}}{40}}
\@writefile{toc}{\contentsline {subsection}{\numberline {13.2}Viscid Case}{41}}
\newlabel{fig:Fig1a}{{10a}{41}}
\newlabel{sub@fig:Fig1a}{{(a)}{a}}
\newlabel{fig:Fig1b}{{10b}{41}}
\newlabel{sub@fig:Fig1b}{{(b)}{b}}
\newlabel{fig:Fig1c}{{10c}{41}}
\newlabel{sub@fig:Fig1c}{{(c)}{c}}
\newlabel{fig:Fig1d}{{10d}{41}}
\newlabel{sub@fig:Fig1d}{{(d)}{d}}
\newlabel{fig:Fig1c}{{10e}{41}}
\newlabel{sub@fig:Fig1c}{{(e)}{e}}
\newlabel{fig:Fig1b}{{10f}{41}}
\newlabel{sub@fig:Fig1b}{{(f)}{f}}
\@writefile{lof}{\contentsline {figure}{\numberline {10}{\ignorespaces Convergence plot for viscid case with unfied DG scheme (No Strang or Gudonov splitting)}}{41}}
\@writefile{lof}{\contentsline {subfigure}{\numberline{(a)}{\ignorespaces {$L^2$ error in ${\bm {v}}$ for $\alpha _{\bm {v}}=0$}}}{41}}
\@writefile{lof}{\contentsline {subfigure}{\numberline{(b)}{\ignorespaces {$L^2$ error in ${{\bm {\tau }}}$ for $\alpha _{{\bm {\tau }}}=0$}}}{41}}
\@writefile{lof}{\contentsline {subfigure}{\numberline{(c)}{\ignorespaces {$L^2$ error in ${\bm {v}}$ for $\alpha _{\bm {v}}=0.5$}}}{41}}
\@writefile{lof}{\contentsline {subfigure}{\numberline{(d)}{\ignorespaces {$L^2$ error in ${{\bm {\tau }}}$ for $\alpha _{{\bm {\tau }}}=0.5$}}}{41}}
\@writefile{lof}{\contentsline {subfigure}{\numberline{(e)}{\ignorespaces {$L^2$ error in ${\bm {v}}$ for $\alpha _{\bm {v}}==1.0$}}}{41}}
\@writefile{lof}{\contentsline {subfigure}{\numberline{(f)}{\ignorespaces {$L^2$ error in ${{\bm {\tau }}}$ for $\alpha _{{\bm {\tau }}}=1.0$}}}{41}}
\@writefile{lot}{\contentsline {table}{\numberline {9}{\ignorespaces Relative error in ${\bm  {v}}$ for viscid case in HF}}{42}}
\@writefile{lot}{\contentsline {table}{\numberline {10}{\ignorespaces Relative error in ${{\bm  {\tau }}}$ for viscid case in HF}}{43}}
\@writefile{lof}{\contentsline {figure}{\numberline {11}{\ignorespaces Wavefield simulation for heterogeneous medium at time for Broad-band}}{44}}
\citation{jain1979numerical}
\citation{strang1968construction}
\citation{ye2016discontinuous}
\citation{warburton2013low}
\citation{lemoine2013high}
\@writefile{toc}{\contentsline {subsection}{\numberline {13.3}Strang Splitting}{45}}
\newlabel{eq 70}{{13.1}{45}}
\newlabel{eq 71}{{13.3}{45}}
\newlabel{eq 72}{{13.4}{45}}
\newlabel{eq 73}{{13.5}{45}}
\newlabel{eq 74}{{13.6}{45}}
\newlabel{eq 75}{{13.7}{45}}
\citation{hesthaven2007nodal}
\@writefile{toc}{\contentsline {section}{\numberline {14}Computational Experiments}{46}}
\@writefile{toc}{\contentsline {section}{\numberline {15}Nodal DG Implementation on GPUs}{46}}
\@writefile{lof}{\contentsline {figure}{\numberline {12}{\ignorespaces Decomposition of DG scheme into subtasks. Local operations are highlighted with a bold outline.}}{47}}
\@writefile{toc}{\contentsline {section}{\numberline {16}Convergence analysis}{47}}
\@writefile{toc}{\contentsline {section}{\numberline {17}Discussion}{47}}
\@writefile{lot}{\contentsline {table}{\numberline {11}{\ignorespaces Material Parameters}}{47}}
\@writefile{lof}{\contentsline {figure}{\numberline {13}{\ignorespaces Diagram of the DG scheme on a GPGPU system.}}{48}}
\bibstyle{siam}
\bibdata{biot}
\bibcite{biot1956theory}{1}
\bibcite{biot1962mechanics}{2}
\bibcite{caputo1967linear}{3}
\bibcite{carcione1996wave}{4}
\bibcite{carcione1998viscoelastic}{5}
\bibcite{carcione2007wave}{6}
\bibcite{carcione1999numerical}{7}
\bibcite{carcione2002seismic}{8}
\bibcite{carcione1995some}{9}
\bibcite{dai1995wave}{10}
\bibcite{darcy1856fontaines}{11}
\bibcite{de2008discontinuous}{12}
\bibcite{deresiewicz1963uniqueness}{13}
\bibcite{desch1988exponential}{14}
\bibcite{garg1974compressional}{15}
\bibcite{gurevich1999interface}{16}
\bibcite{hassanzadeh1991acoustic}{17}
\bibcite{hesthaven2007nodal}{18}
\bibcite{jain1979numerical}{19}
\bibcite{johnson1987theory}{20}
\bibcite{lemoine2013high}{21}
\bibcite{mikhailenko1985numerical}{22}
\bibcite{ozdenvar1997algorithms}{23}
\bibcite{podlubny1998fractional}{24}
\bibcite{rosenbaum1974synthetic}{25}
\bibcite{stern1985wave}{26}
\bibcite{strang1968construction}{27}
\bibcite{terzaghi1936shearing}{28}
\bibcite{virieux1986p}{29}
\bibcite{warburton2010low}{30}
\bibcite{warburton2013low}{31}
\bibcite{yamamoto1988acoustic}{32}
\bibcite{ye2016discontinuous}{33}
\bibcite{zhu1991numerical}{34}
\newlabel{LastPage}{{}{50}}
\xdef\lastpage@lastpage{50}
\gdef\lastpage@lastpageHy{}
