\relax 
\providecommand \oddpage@label [2]{}
\@writefile{toc}{\contentsline {section}{\numberline {1}Weak form}{1}}
\newlabel{eq:weak v}{{1}{1}}
\newlabel{eq:weak q}{{2}{1}}
\newlabel{eq:weak tau}{{3}{1}}
\newlabel{eq:weak p}{{4}{1}}
\@writefile{toc}{\contentsline {subsection}{\numberline {1.1}Energy estimate}{1}}
\newlabel{eq:weak q1}{{5}{1}}
\newlabel{eq:weak v1}{{6}{1}}
\newlabel{eq:weak v2}{{7}{1}}
\newlabel{eq:weak q2}{{8}{2}}
\newlabel{eq:weak p1}{{9}{2}}
\newlabel{eq:weak tau1}{{10}{2}}
\newlabel{eq:weak tau2}{{11}{2}}
\newlabel{eq:weak p2}{{12}{2}}
\newlabel{eq:eng v}{{13}{2}}
\newlabel{eq:eng q}{{14}{2}}
\newlabel{eq:eng tau}{{15}{2}}
\newlabel{eq:eng p}{{16}{2}}
\newlabel{eq:weak p3}{{17}{3}}
\newlabel{eq:weak p3}{{18}{3}}
\newlabel{eq:potential energy}{{19}{3}}
\newlabel{eq:energy}{{20}{4}}
\@writefile{toc}{\contentsline {subsection}{\numberline {1.2}Energy estimate: an equivalent approach}{4}}
\newlabel{eq:Eng v}{{21}{4}}
\newlabel{eq:Eng q}{{22}{4}}
\newlabel{eq:Eng kinatic}{{23}{4}}
\newlabel{eq:Eng tau}{{24}{4}}
\newlabel{eq:Eng p}{{25}{5}}
\newlabel{eq:Eng dynamic}{{26}{5}}
\@writefile{toc}{\contentsline {section}{\numberline {2}Penalty flux}{5}}
\newlabel{eq:penalty coeff}{{28}{6}}
\newlabel{eq:penalty v}{{30}{6}}
\newlabel{eq:penalty q}{{31}{6}}
\newlabel{eq:penalty energy}{{32}{6}}
