\relax 
\citation{biot1956theory}
\citation{biot1962mechanics}
\citation{biot1962mechanics}
\citation{carcione1995some}
\citation{ozdenvar1997algorithms}
\citation{carcione1996wave}
\citation{johnson1987theory}
\citation{biot1962mechanics}
\citation{stern1985wave,yamamoto1988acoustic}
\citation{rosenbaum1974synthetic}
\citation{garg1974compressional}
\citation{mikhailenko1985numerical}
\citation{hassanzadeh1991acoustic}
\citation{zhu1991numerical}
\citation{dai1995wave}
\citation{carcione2002seismic}
\citation{ozdenvar1997algorithms}
\citation{virieux1986p}
\citation{carcione1995some}
\citation{carcione1996wave}
\citation{carcione1998viscoelastic}
\citation{carcione1999numerical}
\citation{de2008discontinuous}
\@writefile{toc}{\contentsline {section}{\numberline {1}Introduction}{1}}
\citation{johnson1987theory}
\citation{biot1956theory}
\citation{caputo1967linear}
\citation{carcione1998viscoelastic}
\citation{hesthaven2007nodal}
\citation{strang1968construction}
\citation{ye2016discontinuous,warburton2010low}
\citation{biot1956theory}
\citation{johnson1987theory}
\@writefile{toc}{\contentsline {section}{\numberline {2}Biot's System of Equations}{2}}
\citation{terzaghi1936shearing}
\@writefile{lot}{\contentsline {table}{\numberline {1}{\ignorespaces List of symbols}}{3}}
\@writefile{toc}{\contentsline {subsection}{\numberline {2.1}Constitutive Equations}{3}}
\newlabel{eq 1}{{2.1}{3}}
\newlabel{eq 2}{{2.2}{3}}
\newlabel{eq 3}{{2.3}{3}}
\citation{biot1956theory,biot1962mechanics}
\citation{carcione2007wave}
\citation{darcy1856fontaines}
\citation{johnson1987theory}
\newlabel{eq 4}{{2.4}{4}}
\newlabel{eq 5}{{2.5}{4}}
\@writefile{toc}{\contentsline {subsection}{\numberline {2.2}Equation of Motion}{4}}
\newlabel{eq 5a}{{2.6}{4}}
\newlabel{eq 6}{{2.7}{4}}
\newlabel{eq 7}{{2.8}{4}}
\@writefile{toc}{\contentsline {subsection}{\numberline {2.3}Dynamic Permeability}{4}}
\newlabel{eq 8}{{2.9}{4}}
\newlabel{eq 9}{{2.10}{4}}
\citation{podlubny1998fractional}
\newlabel{eq 10}{{2.12}{5}}
\newlabel{eq 11}{{2.13}{5}}
\newlabel{eq 12}{{2.14}{5}}
\newlabel{eq 13}{{2.15}{5}}
\newlabel{eq 14}{{2.16}{5}}
\newlabel{eq 15}{{2.17}{5}}
\newlabel{eq 16}{{2.18}{5}}
\newlabel{eq 17}{{2.19}{5}}
\citation{deresiewicz1963uniqueness}
\citation{gurevich1999interface}
\citation{deresiewicz1963uniqueness}
\citation{gurevich1999interface}
\citation{gurevich1999interface}
\newlabel{eq 18}{{2.22}{6}}
\newlabel{eq 19}{{2.23}{6}}
\newlabel{eq 20}{{2.24}{6}}
\newlabel{eq 21}{{2.25}{6}}
\@writefile{toc}{\contentsline {subsection}{\numberline {2.4}Boundary Conditions}{6}}
\newlabel{eq 22}{{2.26}{6}}
\newlabel{eq 23}{{2.27}{6}}
\newlabel{eq 24}{{2.28}{6}}
\newlabel{eq 25}{{2.29}{6}}
\newlabel{eq 26}{{2.30}{6}}
\@writefile{toc}{\contentsline {section}{\numberline {3}Broad-Band Biot's Equation: Weak and Strong Formulations}{7}}
\newlabel{eq 27}{{3.1}{7}}
\newlabel{eq 28}{{3.2}{7}}
\newlabel{eq 29}{{3.3}{7}}
\newlabel{eq 30}{{3.4}{7}}
\newlabel{eq 31}{{3.5}{7}}
\newlabel{eq 32}{{3.6}{7}}
\newlabel{eq 33}{{3.7}{7}}
\newlabel{eq 34}{{3.8}{7}}
\newlabel{eq 35}{{3.9}{7}}
\newlabel{eq 36}{{3.10}{8}}
\newlabel{eq 37}{{3.11}{8}}
\newlabel{eq 38}{{3.12}{8}}
\newlabel{eq 39}{{3.13}{8}}
\newlabel{eq 40}{{3.14}{8}}
\newlabel{eq 41}{{3.15}{8}}
\newlabel{eq 42}{{3.16}{8}}
\@writefile{toc}{\contentsline {section}{\numberline {4}Discontinuous Galerkin Method}{8}}
\newlabel{eq 43}{{4.1}{8}}
\newlabel{eq 44}{{4.2}{9}}
\newlabel{eq 45}{{4.3}{9}}
\newlabel{eq 46}{{4.4}{9}}
\@writefile{toc}{\contentsline {subsection}{\numberline {4.1}Energy Function of the Central Flux}{9}}
\newlabel{eq 47}{{4.5}{9}}
\newlabel{eq 48}{{4.6}{9}}
\newlabel{eq 49}{{4.7}{9}}
\newlabel{eq 50}{{4.8}{9}}
\newlabel{eq 51}{{4.9}{9}}
\newlabel{eq 52}{{4.10}{9}}
\citation{caputo1967linear}
\citation{desch1988exponential}
\newlabel{eq 53}{{4.11}{10}}
\newlabel{eq 54}{{4.12}{10}}
\newlabel{eq 55}{{4.13}{10}}
\newlabel{eq 56}{{4.16}{10}}
\newlabel{eq 57}{{4.19}{10}}
\newlabel{eq 58}{{4.20}{10}}
\newlabel{eq 59}{{4.21}{10}}
\@writefile{toc}{\contentsline {section}{\numberline {5}System of Poroelastic Equations in Matrix Form}{10}}
\newlabel{eq 60}{{5.1}{11}}
\newlabel{eq 61}{{5.2}{11}}
\newlabel{eq 62}{{5.3}{11}}
\newlabel{eq 63}{{5.4}{11}}
\newlabel{eq 64}{{5.5}{11}}
\newlabel{eq 65}{{5.6}{11}}
\newlabel{eq 66}{{5.7}{12}}
\newlabel{eq 67}{{5.8}{12}}
\newlabel{eq 68}{{5.9}{12}}
\newlabel{eq 69}{{5.10}{12}}
\citation{jain1979numerical}
\citation{strang1968construction}
\citation{ye2016discontinuous}
\citation{warburton2013low}
\citation{lemoine2013high}
\@writefile{toc}{\contentsline {subsection}{\numberline {5.1}Strang Splitting}{13}}
\newlabel{eq 70}{{5.13}{13}}
\newlabel{eq 71}{{5.15}{13}}
\newlabel{eq 72}{{5.16}{13}}
\newlabel{eq 73}{{5.17}{13}}
\newlabel{eq 74}{{5.18}{13}}
\newlabel{eq 75}{{5.19}{13}}
\@writefile{lof}{\contentsline {figure}{\numberline {1}{\ignorespaces Snapshot of pore pressure $p$ for 25 Hz: (a) 0.1 s; (b) 0.3 s. At 4.5 KHz: (c) 0.1 s; (d) 0.3 s. As can be seen, propagation of a slow P wave is supported at the higher frequency.}}{14}}
\@writefile{lof}{\contentsline {figure}{\numberline {2}{\ignorespaces Decomposition of DG scheme into subtasks. Local operations are highlighted with a bold outline.}}{14}}
\citation{hesthaven2007nodal}
\@writefile{toc}{\contentsline {section}{\numberline {6}Computational Experiments}{15}}
\@writefile{toc}{\contentsline {section}{\numberline {7}Nodal DG Implementation on GPUs}{15}}
\@writefile{lof}{\contentsline {figure}{\numberline {3}{\ignorespaces Diagram of the DG scheme on a GPGPU system.}}{16}}
\@writefile{toc}{\contentsline {section}{\numberline {8}Discussion}{17}}
\@writefile{lot}{\contentsline {table}{\numberline {2}{\ignorespaces Material Parameters}}{17}}
\bibstyle{siam}
\bibdata{biot}
\newlabel{LastPage}{{}{18}}
\xdef\lastpage@lastpage{18}
\gdef\lastpage@lastpageHy{}
