\relax 
\citation{biot1956theory}
\citation{biot1962mechanics}
\citation{biot1962mechanics}
\citation{carcione1995some}
\citation{ozdenvar1997algorithms}
\citation{carcione1996wave}
\citation{johnson1987theory}
\citation{biot1962mechanics}
\citation{stern1985wave}
\citation{yamamoto1988acoustic}
\citation{rosenbaum1974synthetic}
\citation{garg1974compressional}
\citation{mikhailenko1985numerical}
\citation{hassanzadeh1991acoustic}
\citation{zhu1991numerical}
\citation{dai1995wave}
\citation{carcione2002seismic}
\citation{ozdenvar1997algorithms}
\citation{virieux1986p}
\citation{carcione1995some}
\citation{carcione1996wave}
\citation{carcione1998viscoelastic}
\citation{carcione1999numerical}
\citation{de2008discontinuous}
\citation{de2008discontinuous}
\@writefile{toc}{\contentsline {section}{\numberline {1}Introduction}{1}}
\citation{johnson1987theory}
\citation{biot1956theory}
\citation{caputo1967linear}
\citation{carcione1998viscoelastic}
\citation{hesthaven2007nodal}
\citation{strang1968construction}
\citation{ye2016discontinuous}
\citation{warburton2010low}
\citation{biot1956theory}
\citation{johnson1987theory}
\citation{terzaghi1936shearing}
\@writefile{toc}{\contentsline {section}{\numberline {2}Biot's System of Equation}{2}}
\citation{biot1956theory}
\citation{biot1962mechanics}
\citation{carcione2007wave}
\@writefile{lot}{\contentsline {table}{\numberline {2.1}{\ignorespaces List of symbols}}{3}}
\@writefile{toc}{\contentsline {subsection}{\numberline {2.1}Constitutive Equations}{3}}
\newlabel{eq 1}{{2.1}{3}}
\newlabel{eq 2}{{2.2}{3}}
\newlabel{eq 3}{{2.3}{3}}
\newlabel{eq 4}{{2.4}{3}}
\citation{darcy1856fontaines}
\citation{johnson1987theory}
\newlabel{eq 5}{{2.5}{4}}
\@writefile{toc}{\contentsline {subsection}{\numberline {2.2}Equation of Motion}{4}}
\newlabel{eq 5a}{{2.6}{4}}
\newlabel{eq 6}{{2.7}{4}}
\newlabel{eq 7}{{2.8}{4}}
\@writefile{toc}{\contentsline {subsection}{\numberline {2.3}Dynamic Permeability}{4}}
\newlabel{eq 8}{{2.9}{4}}
\newlabel{eq 9}{{2.10}{4}}
\citation{podlubny1998fractional}
\newlabel{eq 10}{{2.11}{5}}
\newlabel{eq 11}{{2.12}{5}}
\newlabel{eq 12}{{2.13}{5}}
\newlabel{eq 13}{{2.14}{5}}
\newlabel{eq 14}{{2.15}{5}}
\newlabel{eq 15}{{2.16}{5}}
\newlabel{eq 16}{{2.17}{5}}
\newlabel{eq 17}{{2.18}{5}}
\citation{deresiewicz1963uniqueness}
\citation{gurevich1999interface}
\citation{deresiewicz1963uniqueness}
\citation{gurevich1999interface}
\citation{gurevich1999interface}
\newlabel{eq 18}{{2.21}{6}}
\newlabel{eq 19}{{2.22}{6}}
\newlabel{eq 20}{{2.23}{6}}
\newlabel{eq 21}{{2.24}{6}}
\@writefile{toc}{\contentsline {subsection}{\numberline {2.4}Boundary Conditions}{6}}
\newlabel{eq 22}{{2.25}{6}}
\newlabel{eq 23}{{2.26}{6}}
\newlabel{eq 24}{{2.27}{6}}
\newlabel{eq 25}{{2.28}{6}}
\newlabel{eq 26}{{2.29}{6}}
\@writefile{toc}{\contentsline {section}{\numberline {3}Broad-Band Biot's Equation: Weak and Strong Formulations}{7}}
\newlabel{eq 27}{{3.1}{7}}
\newlabel{eq 28}{{3.2}{7}}
\newlabel{eq 29}{{3.3}{7}}
\newlabel{eq 30}{{3.4}{7}}
\newlabel{eq 31}{{3.5}{7}}
\newlabel{eq 32}{{3.6}{7}}
\newlabel{eq 33}{{3.7}{7}}
\newlabel{eq 34}{{3.8}{7}}
\newlabel{eq 35}{{3.9}{7}}
\newlabel{eq 36}{{3.10}{8}}
\newlabel{eq 37}{{3.11}{8}}
\newlabel{eq 38}{{3.12}{8}}
\newlabel{eq 39}{{3.13}{8}}
\newlabel{eq 40}{{3.14}{8}}
\newlabel{eq 41}{{3.15}{8}}
\newlabel{eq 42}{{3.16}{8}}
\@writefile{toc}{\contentsline {section}{\numberline {4}Discontinuous Galerkin Method}{8}}
\newlabel{eq 43}{{4.1}{9}}
\newlabel{eq 44}{{4.2}{9}}
\newlabel{eq 45}{{4.3}{9}}
\newlabel{eq 46}{{4.4}{9}}
\@writefile{toc}{\contentsline {subsection}{\numberline {4.1}Energy Function of the Central Flux}{9}}
\newlabel{eq 47}{{4.5}{9}}
\newlabel{eq 48}{{4.6}{9}}
\newlabel{eq 49}{{4.7}{9}}
\newlabel{eq 50}{{4.8}{9}}
\newlabel{eq 51}{{4.9}{9}}
\citation{caputo1967linear}
\citation{desch1988exponential}
\newlabel{eq 52}{{4.10}{10}}
\newlabel{eq 53}{{4.11}{10}}
\newlabel{eq 54}{{4.12}{10}}
\newlabel{eq 55}{{4.13}{10}}
\newlabel{eq 56}{{4.16}{10}}
\newlabel{eq 57}{{4.19}{10}}
\newlabel{eq 58}{{4.20}{10}}
\newlabel{eq 59}{{4.21}{10}}
\@writefile{toc}{\contentsline {section}{\numberline {5}System of Poroelastic Equation in Matrix Form}{11}}
\newlabel{eq 60}{{5.1}{11}}
\newlabel{eq 61}{{5.2}{11}}
\newlabel{eq 62}{{5.3}{11}}
\newlabel{eq 63}{{5.4}{11}}
\newlabel{eq 64}{{5.5}{11}}
\newlabel{eq 65}{{5.6}{11}}
\newlabel{eq 66}{{5.7}{12}}
\newlabel{eq 67}{{5.8}{12}}
\newlabel{eq 68}{{5.9}{12}}
\newlabel{eq 69}{{5.10}{12}}
\citation{jain1979numerical}
\citation{strang1968construction}
\citation{ye2016discontinuous}
\citation{warburton2013low}
\@writefile{toc}{\contentsline {subsection}{\numberline {5.1}Strang's Splitting}{13}}
\newlabel{eq 70}{{5.1}{13}}
\newlabel{eq 71}{{5.15}{13}}
\newlabel{eq 72}{{5.16}{13}}
\newlabel{eq 73}{{5.17}{13}}
\newlabel{eq 74}{{5.18}{13}}
\newlabel{eq 75}{{5.19}{13}}
\citation{lemoine2013high}
\citation{lemoine2013high}
\@writefile{lof}{\contentsline {figure}{\numberline {1}{\ignorespaces Snapshot of pore pressure $p$ for 25 Hz (a) 0.1 sec (b) 0.3 sec, at 4.5 KHz (c) 0.1 sec (d) 0.3 sec. As it can be appreciated that propagation of \textit  {slow} P wave is supported at higher frequency.}}{14}}
\@writefile{toc}{\contentsline {section}{\numberline {6}Computational Experiments}{14}}
\@writefile{lof}{\contentsline {figure}{\numberline {2}{\ignorespaces Poroelastic simulation for a reservoir model. (a) Layer reservoir model (b) Snapshot of radial particle velocity of solid at 1 sec}}{15}}
\citation{hesthaven2007nodal}
\@writefile{lof}{\contentsline {figure}{\numberline {3}{\ignorespaces Decomposition of DG scheme in subtasks. Local operations are highlighted with bold outline}}{16}}
\@writefile{toc}{\contentsline {section}{\numberline {7}Nodal DG Implementation on GPU}{16}}
\@writefile{lof}{\contentsline {figure}{\numberline {4}{\ignorespaces Working algorithm of DG scheme on GPGPU System}}{17}}
\@writefile{toc}{\contentsline {section}{\numberline {8}Discussion}{18}}
\@writefile{lot}{\contentsline {table}{\numberline {8.1}{\ignorespaces }}{18}}
\bibstyle{siam}
\bibdata{example}
\bibcite{biot1956theory}{1}
\bibcite{biot1962mechanics}{2}
\bibcite{caputo1967linear}{3}
\bibcite{carcione1996wave}{4}
\bibcite{carcione1998viscoelastic}{5}
\bibcite{carcione2007wave}{6}
\bibcite{carcione1999numerical}{7}
\bibcite{carcione2002seismic}{8}
\bibcite{carcione1995some}{9}
\bibcite{dai1995wave}{10}
\bibcite{darcy1856fontaines}{11}
\bibcite{de2008discontinuous}{12}
\bibcite{deresiewicz1963uniqueness}{13}
\bibcite{desch1988exponential}{14}
\bibcite{garg1974compressional}{15}
\bibcite{gurevich1999interface}{16}
\bibcite{hassanzadeh1991acoustic}{17}
\bibcite{hesthaven2007nodal}{18}
\bibcite{jain1979numerical}{19}
\bibcite{johnson1987theory}{20}
\bibcite{lemoine2013high}{21}
\bibcite{mikhailenko1985numerical}{22}
\bibcite{ozdenvar1997algorithms}{23}
\bibcite{podlubny1998fractional}{24}
\bibcite{rosenbaum1974synthetic}{25}
\bibcite{stern1985wave}{26}
\bibcite{strang1968construction}{27}
\bibcite{terzaghi1936shearing}{28}
\bibcite{virieux1986p}{29}
\bibcite{warburton2010low}{30}
\bibcite{warburton2013low}{31}
\bibcite{yamamoto1988acoustic}{32}
\bibcite{ye2016discontinuous}{33}
\bibcite{zhu1991numerical}{34}
\newlabel{LastPage}{{}{20}}
\xdef\lastpage@lastpage{20}
\gdef\lastpage@lastpageHy{}
