%!PS-Adobe-2.0 EPSF-1.2
%%Creator: MATLAB, The Mathworks, Inc. Version 7.10.0.499 (R2010a). Operating System: Darwin 12.6.0 Darwin Kernel Version 12.6.0: Wed Dec 17 19:11:40 PST 2014; root:xnu-2050.48.15~1/RELEASE_X86_64 x86_64.
%%Title: ../figs/equi_gll_1D.eps
%%CreationDate: 03/14/2015  21:29:23
%%DocumentNeededFonts: Helvetica
%%DocumentProcessColors: Cyan Magenta Yellow Black
%%Extensions: CMYK
%%Pages: 1
%%BoundingBox:    62   190   559   591
%%EndComments

%%BeginProlog
% MathWorks dictionary
/MathWorks 160 dict begin
% definition operators
/bdef {bind def} bind def
/ldef {load def} bind def
/xdef {exch def} bdef
/xstore {exch store} bdef
% operator abbreviations
/c  /clip ldef
/cc /concat ldef
/cp /closepath ldef
/gr /grestore ldef
/gs /gsave ldef
/mt /moveto ldef
/np /newpath ldef
/cm /currentmatrix ldef
/sm /setmatrix ldef
/rm /rmoveto ldef
/rl /rlineto ldef
/s {show newpath} bdef
/sc {setcmykcolor} bdef
/sr /setrgbcolor ldef
/sg /setgray ldef
/w /setlinewidth ldef
/j /setlinejoin ldef
/cap /setlinecap ldef
/rc {rectclip} bdef
/rf {rectfill} bdef
% page state control
/pgsv () def
/bpage {/pgsv save def} bdef
/epage {pgsv restore} bdef
/bplot /gsave ldef
/eplot {stroke grestore} bdef
% orientation switch
/portraitMode 0 def /landscapeMode 1 def /rotateMode 2 def
% coordinate system mappings
/dpi2point 0 def
% font control
/FontSize 0 def
/FMS {/FontSize xstore findfont [FontSize 0 0 FontSize neg 0 0]
  makefont setfont} bdef
/reencode {exch dup where {pop load} {pop StandardEncoding} ifelse
  exch dup 3 1 roll findfont dup length dict begin
  { 1 index /FID ne {def}{pop pop} ifelse } forall
  /Encoding exch def currentdict end definefont pop} bdef
/isroman {findfont /CharStrings get /Agrave known} bdef
/FMSR {3 1 roll 1 index dup isroman {reencode} {pop pop} ifelse
  exch FMS} bdef
/csm {1 dpi2point div -1 dpi2point div scale neg translate
 dup landscapeMode eq {pop -90 rotate}
  {rotateMode eq {90 rotate} if} ifelse} bdef
% line types: solid, dotted, dashed, dotdash
/SO { [] 0 setdash } bdef
/DO { [.5 dpi2point mul 4 dpi2point mul] 0 setdash } bdef
/DA { [6 dpi2point mul] 0 setdash } bdef
/DD { [.5 dpi2point mul 4 dpi2point mul 6 dpi2point mul 4
  dpi2point mul] 0 setdash } bdef
% macros for lines and objects
/L {lineto stroke} bdef
/MP {3 1 roll moveto 1 sub {rlineto} repeat} bdef
/AP {{rlineto} repeat} bdef
/PDlw -1 def
/W {/PDlw currentlinewidth def setlinewidth} def
/PP {closepath eofill} bdef
/DP {closepath stroke} bdef
/MR {4 -2 roll moveto dup  0 exch rlineto exch 0 rlineto
  neg 0 exch rlineto closepath} bdef
/FR {MR stroke} bdef
/PR {MR fill} bdef
/L1i {{currentfile picstr readhexstring pop} image} bdef
/tMatrix matrix def
/MakeOval {newpath tMatrix currentmatrix pop translate scale
0 0 1 0 360 arc tMatrix setmatrix} bdef
/FO {MakeOval stroke} bdef
/PO {MakeOval fill} bdef
/PD {currentlinewidth 2 div 0 360 arc fill
   PDlw -1 eq not {PDlw w /PDlw -1 def} if} def
/FA {newpath tMatrix currentmatrix pop translate scale
  0 0 1 5 -2 roll arc tMatrix setmatrix stroke} bdef
/PA {newpath tMatrix currentmatrix pop	translate 0 0 moveto scale
  0 0 1 5 -2 roll arc closepath tMatrix setmatrix fill} bdef
/FAn {newpath tMatrix currentmatrix pop translate scale
  0 0 1 5 -2 roll arcn tMatrix setmatrix stroke} bdef
/PAn {newpath tMatrix currentmatrix pop translate 0 0 moveto scale
  0 0 1 5 -2 roll arcn closepath tMatrix setmatrix fill} bdef
/vradius 0 def /hradius 0 def /lry 0 def
/lrx 0 def /uly 0 def /ulx 0 def /rad 0 def
/MRR {/vradius xdef /hradius xdef /lry xdef /lrx xdef /uly xdef
  /ulx xdef newpath tMatrix currentmatrix pop ulx hradius add uly
  vradius add translate hradius vradius scale 0 0 1 180 270 arc 
  tMatrix setmatrix lrx hradius sub uly vradius add translate
  hradius vradius scale 0 0 1 270 360 arc tMatrix setmatrix
  lrx hradius sub lry vradius sub translate hradius vradius scale
  0 0 1 0 90 arc tMatrix setmatrix ulx hradius add lry vradius sub
  translate hradius vradius scale 0 0 1 90 180 arc tMatrix setmatrix
  closepath} bdef
/FRR {MRR stroke } bdef
/PRR {MRR fill } bdef
/MlrRR {/lry xdef /lrx xdef /uly xdef /ulx xdef /rad lry uly sub 2 div def
  newpath tMatrix currentmatrix pop ulx rad add uly rad add translate
  rad rad scale 0 0 1 90 270 arc tMatrix setmatrix lrx rad sub lry rad
  sub translate rad rad scale 0 0 1 270 90 arc tMatrix setmatrix
  closepath} bdef
/FlrRR {MlrRR stroke } bdef
/PlrRR {MlrRR fill } bdef
/MtbRR {/lry xdef /lrx xdef /uly xdef /ulx xdef /rad lrx ulx sub 2 div def
  newpath tMatrix currentmatrix pop ulx rad add uly rad add translate
  rad rad scale 0 0 1 180 360 arc tMatrix setmatrix lrx rad sub lry rad
  sub translate rad rad scale 0 0 1 0 180 arc tMatrix setmatrix
  closepath} bdef
/FtbRR {MtbRR stroke } bdef
/PtbRR {MtbRR fill } bdef
/stri 6 array def /dtri 6 array def
/smat 6 array def /dmat 6 array def
/tmat1 6 array def /tmat2 6 array def /dif 3 array def
/asub {/ind2 exch def /ind1 exch def dup dup
  ind1 get exch ind2 get sub exch } bdef
/tri_to_matrix {
  2 0 asub 3 1 asub 4 0 asub 5 1 asub
  dup 0 get exch 1 get 7 -1 roll astore } bdef
/compute_transform {
  dmat dtri tri_to_matrix tmat1 invertmatrix 
  smat stri tri_to_matrix tmat2 concatmatrix } bdef
/ds {stri astore pop} bdef
/dt {dtri astore pop} bdef
/db {2 copy /cols xdef /rows xdef mul dup 3 mul string
  currentfile exch readhexstring pop
  dup 0 3 index getinterval /rbmap xdef
  dup 2 index dup getinterval /gbmap xdef
  1 index dup 2 mul exch getinterval /bbmap xdef pop pop}bdef
/it {gs np dtri aload pop moveto lineto lineto cp c
  cols rows 8 compute_transform 
  rbmap gbmap bbmap true 3 colorimage gr}bdef
/il {newpath moveto lineto stroke}bdef
currentdict end def
%%EndProlog

%%BeginSetup
MathWorks begin

0 cap

end
%%EndSetup

%%Page: 1 1
%%BeginPageSetup
%%PageBoundingBox:    62   190   559   591
MathWorks begin
bpage
%%EndPageSetup

%%BeginObject: obj1
bplot

/dpi2point 12 def
portraitMode 0216 7344 csm

  533   247  5962  4810 MR c np
85 dict begin %Colortable dictionary
/c0 { 0.000000 0.000000 0.000000 sr} bdef
/c1 { 1.000000 1.000000 1.000000 sr} bdef
/c2 { 0.900000 0.000000 0.000000 sr} bdef
/c3 { 0.000000 0.820000 0.000000 sr} bdef
/c4 { 0.000000 0.000000 0.800000 sr} bdef
/c5 { 0.910000 0.820000 0.320000 sr} bdef
/c6 { 1.000000 0.260000 0.820000 sr} bdef
/c7 { 0.000000 0.820000 0.820000 sr} bdef
c0
1 j
1 sg
   0    0 6913 5186 PR
6 w
0 4226 5356 0 0 -4226 899 4615 4 MP
PP
-5356 0 0 4226 5356 0 0 -4226 899 4615 5 MP stroke
4 w
DO
SO
6 w
0 sg
 899 4615 mt 6255 4615 L
 899  389 mt 6255  389 L
 899 4615 mt  899  389 L
6255 4615 mt 6255  389 L
 899 4615 mt 6255 4615 L
 899 4615 mt  899  389 L
 899 4615 mt  899 4561 L
 899  389 mt  899  442 L
%%IncludeResource: font Helvetica
/Helvetica /ISOLatin1Encoding 168 FMSR

 755 4805 mt 
(-1) s
2238 4615 mt 2238 4561 L
2238  389 mt 2238  442 L
2024 4805 mt 
(-0.5) s
3577 4615 mt 3577 4561 L
3577  389 mt 3577  442 L
3531 4805 mt 
(0) s
4916 4615 mt 4916 4561 L
4916  389 mt 4916  442 L
4800 4805 mt 
(0.5) s
6255 4615 mt 6255 4561 L
6255  389 mt 6255  442 L
6209 4805 mt 
(1) s
 899 4615 mt  952 4615 L
6255 4615 mt 6201 4615 L
 673 4677 mt 
(-1) s
 899 4192 mt  952 4192 L
6255 4192 mt 6201 4192 L
 533 4254 mt 
(-0.8) s
 899 3769 mt  952 3769 L
6255 3769 mt 6201 3769 L
 533 3831 mt 
(-0.6) s
 899 3347 mt  952 3347 L
6255 3347 mt 6201 3347 L
 533 3409 mt 
(-0.4) s
 899 2924 mt  952 2924 L
6255 2924 mt 6201 2924 L
 533 2986 mt 
(-0.2) s
 899 2502 mt  952 2502 L
6255 2502 mt 6201 2502 L
 771 2564 mt 
(0) s
 899 2079 mt  952 2079 L
6255 2079 mt 6201 2079 L
 631 2141 mt 
(0.2) s
 899 1656 mt  952 1656 L
6255 1656 mt 6201 1656 L
 631 1718 mt 
(0.4) s
 899 1234 mt  952 1234 L
6255 1234 mt 6201 1234 L
 631 1296 mt 
(0.6) s
 899  811 mt  952  811 L
6255  811 mt 6201  811 L
 631  873 mt 
(0.8) s
 899  389 mt  952  389 L
6255  389 mt 6201  389 L
 771  451 mt 
(1) s
 899 4615 mt 6255 4615 L
 899  389 mt 6255  389 L
 899 4615 mt  899  389 L
6255 4615 mt 6255  389 L
gs 899 389 5357 4227 MR c np
gr

96 W
/c8 { 0.000000 0.000000 1.000000 sr} bdef
c8
899 2502 PD
96 W
1791 2502 PD
96 W
2684 2502 PD
96 W
3577 2502 PD
96 W
4469 2502 PD
96 W
5362 2502 PD
96 W
6255 2502 PD
gs 899 389 5357 4227 MR c np
gr

0 j
0 -226 -226 0 0 226 226 0 786 2389 5 MP
/c9 { 1.000000 0.000000 0.000000 sr} bdef
c9
DP
0 -226 -226 0 0 226 226 0 1240 2389 5 MP
DP
0 -226 -226 0 0 226 226 0 2208 2389 5 MP
DP
0 -226 -226 0 0 226 226 0 3464 2389 5 MP
DP
0 -226 -226 0 0 226 226 0 4719 2389 5 MP
DP
0 -226 -226 0 0 226 226 0 5687 2389 5 MP
DP
0 -226 -226 0 0 226 226 0 6142 2389 5 MP
DP
gs 899 389 5357 4227 MR c np
gr

0 sg
%%IncludeResource: font Helvetica
/Helvetica /ISOLatin1Encoding 180 FMSR

3546 4992 mt 
(r) s
%%IncludeResource: font Helvetica
/Helvetica /ISOLatin1Encoding 120 FMSR

 882 4658 mt 
( ) s
6239  431 mt 
( ) s
1 sg
0 444 1383 0 0 -444 4812 893 4 MP
PP
-1383 0 0 444 1383 0 0 -444 4812 893 5 MP stroke
4 w
DO
SO
6 w
0 sg
4812  893 mt 6195  893 L
4812  449 mt 6195  449 L
4812  893 mt 4812  449 L
6195  893 mt 6195  449 L
4812  893 mt 6195  893 L
4812  893 mt 4812  449 L
4812  893 mt 6195  893 L
4812  449 mt 6195  449 L
4812  893 mt 4812  449 L
6195  893 mt 6195  449 L
%%IncludeResource: font Helvetica
/Helvetica /ISOLatin1Encoding 168 FMSR

5285  630 mt 
(Equispaced) s
gs 4812 449 1384 445 MR c np
gr

gs 4777 280 579 579 MR c np
96 W
c8
5066 569 PD
gr

c8
gs 4812 449 1384 445 MR c np
gr

0 sg
5285  833 mt 
(GLL) s
gs 4812 449 1384 445 MR c np
gr

gs 4777 483 579 579 MR c np
0 -226 -226 0 0 226 226 0 4953 659 5 MP
c9
DP
gr

c9
gs 4812 449 1384 445 MR c np
gr


end %%Color Dict

eplot
%%EndObject

epage
end

showpage

%%Trailer
%%EOF
