%!PS-Adobe-2.0 EPSF-1.2
%%Creator: MATLAB, The Mathworks, Inc. Version 7.10.0.499 (R2010a). Operating System: Darwin 12.6.0 Darwin Kernel Version 12.6.0: Wed Dec 17 19:11:40 PST 2014; root:xnu-2050.48.15~1/RELEASE_X86_64 x86_64.
%%Title: ../figs/map_1D.eps
%%CreationDate: 03/14/2015  21:30:01
%%DocumentNeededFonts: Helvetica
%%DocumentProcessColors: Cyan Magenta Yellow Black
%%Extensions: CMYK
%%Pages: 1
%%BoundingBox:    58   196   555   595
%%EndComments

%%BeginProlog
% MathWorks dictionary
/MathWorks 160 dict begin
% definition operators
/bdef {bind def} bind def
/ldef {load def} bind def
/xdef {exch def} bdef
/xstore {exch store} bdef
% operator abbreviations
/c  /clip ldef
/cc /concat ldef
/cp /closepath ldef
/gr /grestore ldef
/gs /gsave ldef
/mt /moveto ldef
/np /newpath ldef
/cm /currentmatrix ldef
/sm /setmatrix ldef
/rm /rmoveto ldef
/rl /rlineto ldef
/s {show newpath} bdef
/sc {setcmykcolor} bdef
/sr /setrgbcolor ldef
/sg /setgray ldef
/w /setlinewidth ldef
/j /setlinejoin ldef
/cap /setlinecap ldef
/rc {rectclip} bdef
/rf {rectfill} bdef
% page state control
/pgsv () def
/bpage {/pgsv save def} bdef
/epage {pgsv restore} bdef
/bplot /gsave ldef
/eplot {stroke grestore} bdef
% orientation switch
/portraitMode 0 def /landscapeMode 1 def /rotateMode 2 def
% coordinate system mappings
/dpi2point 0 def
% font control
/FontSize 0 def
/FMS {/FontSize xstore findfont [FontSize 0 0 FontSize neg 0 0]
  makefont setfont} bdef
/reencode {exch dup where {pop load} {pop StandardEncoding} ifelse
  exch dup 3 1 roll findfont dup length dict begin
  { 1 index /FID ne {def}{pop pop} ifelse } forall
  /Encoding exch def currentdict end definefont pop} bdef
/isroman {findfont /CharStrings get /Agrave known} bdef
/FMSR {3 1 roll 1 index dup isroman {reencode} {pop pop} ifelse
  exch FMS} bdef
/csm {1 dpi2point div -1 dpi2point div scale neg translate
 dup landscapeMode eq {pop -90 rotate}
  {rotateMode eq {90 rotate} if} ifelse} bdef
% line types: solid, dotted, dashed, dotdash
/SO { [] 0 setdash } bdef
/DO { [.5 dpi2point mul 4 dpi2point mul] 0 setdash } bdef
/DA { [6 dpi2point mul] 0 setdash } bdef
/DD { [.5 dpi2point mul 4 dpi2point mul 6 dpi2point mul 4
  dpi2point mul] 0 setdash } bdef
% macros for lines and objects
/L {lineto stroke} bdef
/MP {3 1 roll moveto 1 sub {rlineto} repeat} bdef
/AP {{rlineto} repeat} bdef
/PDlw -1 def
/W {/PDlw currentlinewidth def setlinewidth} def
/PP {closepath eofill} bdef
/DP {closepath stroke} bdef
/MR {4 -2 roll moveto dup  0 exch rlineto exch 0 rlineto
  neg 0 exch rlineto closepath} bdef
/FR {MR stroke} bdef
/PR {MR fill} bdef
/L1i {{currentfile picstr readhexstring pop} image} bdef
/tMatrix matrix def
/MakeOval {newpath tMatrix currentmatrix pop translate scale
0 0 1 0 360 arc tMatrix setmatrix} bdef
/FO {MakeOval stroke} bdef
/PO {MakeOval fill} bdef
/PD {currentlinewidth 2 div 0 360 arc fill
   PDlw -1 eq not {PDlw w /PDlw -1 def} if} def
/FA {newpath tMatrix currentmatrix pop translate scale
  0 0 1 5 -2 roll arc tMatrix setmatrix stroke} bdef
/PA {newpath tMatrix currentmatrix pop	translate 0 0 moveto scale
  0 0 1 5 -2 roll arc closepath tMatrix setmatrix fill} bdef
/FAn {newpath tMatrix currentmatrix pop translate scale
  0 0 1 5 -2 roll arcn tMatrix setmatrix stroke} bdef
/PAn {newpath tMatrix currentmatrix pop translate 0 0 moveto scale
  0 0 1 5 -2 roll arcn closepath tMatrix setmatrix fill} bdef
/vradius 0 def /hradius 0 def /lry 0 def
/lrx 0 def /uly 0 def /ulx 0 def /rad 0 def
/MRR {/vradius xdef /hradius xdef /lry xdef /lrx xdef /uly xdef
  /ulx xdef newpath tMatrix currentmatrix pop ulx hradius add uly
  vradius add translate hradius vradius scale 0 0 1 180 270 arc 
  tMatrix setmatrix lrx hradius sub uly vradius add translate
  hradius vradius scale 0 0 1 270 360 arc tMatrix setmatrix
  lrx hradius sub lry vradius sub translate hradius vradius scale
  0 0 1 0 90 arc tMatrix setmatrix ulx hradius add lry vradius sub
  translate hradius vradius scale 0 0 1 90 180 arc tMatrix setmatrix
  closepath} bdef
/FRR {MRR stroke } bdef
/PRR {MRR fill } bdef
/MlrRR {/lry xdef /lrx xdef /uly xdef /ulx xdef /rad lry uly sub 2 div def
  newpath tMatrix currentmatrix pop ulx rad add uly rad add translate
  rad rad scale 0 0 1 90 270 arc tMatrix setmatrix lrx rad sub lry rad
  sub translate rad rad scale 0 0 1 270 90 arc tMatrix setmatrix
  closepath} bdef
/FlrRR {MlrRR stroke } bdef
/PlrRR {MlrRR fill } bdef
/MtbRR {/lry xdef /lrx xdef /uly xdef /ulx xdef /rad lrx ulx sub 2 div def
  newpath tMatrix currentmatrix pop ulx rad add uly rad add translate
  rad rad scale 0 0 1 180 360 arc tMatrix setmatrix lrx rad sub lry rad
  sub translate rad rad scale 0 0 1 0 180 arc tMatrix setmatrix
  closepath} bdef
/FtbRR {MtbRR stroke } bdef
/PtbRR {MtbRR fill } bdef
/stri 6 array def /dtri 6 array def
/smat 6 array def /dmat 6 array def
/tmat1 6 array def /tmat2 6 array def /dif 3 array def
/asub {/ind2 exch def /ind1 exch def dup dup
  ind1 get exch ind2 get sub exch } bdef
/tri_to_matrix {
  2 0 asub 3 1 asub 4 0 asub 5 1 asub
  dup 0 get exch 1 get 7 -1 roll astore } bdef
/compute_transform {
  dmat dtri tri_to_matrix tmat1 invertmatrix 
  smat stri tri_to_matrix tmat2 concatmatrix } bdef
/ds {stri astore pop} bdef
/dt {dtri astore pop} bdef
/db {2 copy /cols xdef /rows xdef mul dup 3 mul string
  currentfile exch readhexstring pop
  dup 0 3 index getinterval /rbmap xdef
  dup 2 index dup getinterval /gbmap xdef
  1 index dup 2 mul exch getinterval /bbmap xdef pop pop}bdef
/it {gs np dtri aload pop moveto lineto lineto cp c
  cols rows 8 compute_transform 
  rbmap gbmap bbmap true 3 colorimage gr}bdef
/il {newpath moveto lineto stroke}bdef
currentdict end def
%%EndProlog

%%BeginSetup
MathWorks begin

0 cap

end
%%EndSetup

%%Page: 1 1
%%BeginPageSetup
%%PageBoundingBox:    58   196   555   595
MathWorks begin
bpage
%%EndPageSetup

%%BeginObject: obj1
bplot

/dpi2point 12 def
portraitMode 0216 7344 csm

  480   197  5969  4785 MR c np
85 dict begin %Colortable dictionary
/c0 { 0.000000 0.000000 0.000000 sr} bdef
/c1 { 1.000000 1.000000 1.000000 sr} bdef
/c2 { 0.900000 0.000000 0.000000 sr} bdef
/c3 { 0.000000 0.820000 0.000000 sr} bdef
/c4 { 0.000000 0.000000 0.800000 sr} bdef
/c5 { 0.910000 0.820000 0.320000 sr} bdef
/c6 { 1.000000 0.260000 0.820000 sr} bdef
/c7 { 0.000000 0.820000 0.820000 sr} bdef
c0
1 j
1 sg
   0    0 6913 5186 PR
6 w
0 4226 5356 0 0 -4226 899 4615 4 MP
PP
-5356 0 0 4226 5356 0 0 -4226 899 4615 5 MP stroke
4 w
DO
SO
6 w
0 sg
 899 4615 mt 6255 4615 L
 899  389 mt 6255  389 L
 899 4615 mt  899  389 L
6255 4615 mt 6255  389 L
 899 4615 mt 6255 4615 L
 899 4615 mt  899  389 L
 925 4615 mt  925 4561 L
 925  389 mt  925  442 L
2251 4615 mt 2251 4561 L
2251  389 mt 2251  442 L
3577 4615 mt 3577 4561 L
3577  389 mt 3577  442 L
4902 4615 mt 4902 4561 L
4902  389 mt 4902  442 L
6228 4615 mt 6228 4561 L
6228  389 mt 6228  442 L
 899 4594 mt  952 4594 L
6255 4594 mt 6201 4594 L
 899 4175 mt  952 4175 L
6255 4175 mt 6201 4175 L
 899 3757 mt  952 3757 L
6255 3757 mt 6201 3757 L
 899 3338 mt  952 3338 L
6255 3338 mt 6201 3338 L
 899 2920 mt  952 2920 L
6255 2920 mt 6201 2920 L
 899 2502 mt  952 2502 L
6255 2502 mt 6201 2502 L
 899 2083 mt  952 2083 L
6255 2083 mt 6201 2083 L
 899 1665 mt  952 1665 L
6255 1665 mt 6201 1665 L
 899 1246 mt  952 1246 L
6255 1246 mt 6201 1246 L
 899  828 mt  952  828 L
6255  828 mt 6201  828 L
 899  409 mt  952  409 L
6255  409 mt 6201  409 L
 899 4615 mt 6255 4615 L
 899  389 mt 6255  389 L
 899 4615 mt  899  389 L
6255 4615 mt 6255  389 L
gs 899 389 5357 4227 MR c np
36 w
/c8 { 0.000000 0.000000 1.000000 sr} bdef
c8
36 -6 35 -6 36 -6 35 -8 36 -8 36 -9 35 -10 36 -11 
35 -11 36 -12 36 -13 35 -14 36 -15 35 -15 36 -16 35 -17 
36 -17 36 -18 35 -19 36 -20 35 -20 36 -21 36 -22 35 -22 
36 -23 35 -24 36 -25 36 -25 35 -25 36 -27 35 -26 36 -28 
35 -28 36 -29 36 -29 35 -30 36 -30 35 -31 36 -31 36 -32 
35 -33 36 -33 35 -33 36 -34 36 -34 35 -35 36 -35 35 -36 
36 -35 36 -37 35 -36 36 -38 35 -37 36 -38 35 -38 36 -38 
36 -38 35 -39 36 -39 35 -40 36 -39 36 -40 35 -40 36 -40 
35 -41 36 -40 36 -41 35 -40 36 -41 35 -41 36 -41 36 -41 
35 -41 36 -41 35 -41 36 -41 35 -41 36 -41 36 -41 35 -41 
36 -41 35 -40 36 -41 36 -40 35 -41 36 -40 35 -40 36 -40 
36 -39 35 -40 36 -39 35 -39 36 -38 36 -38 35 -38 36 -38 
35 -37 36 -38 35 -36 2705 3470 100 MP stroke
36 -37 36 -35 35 -36 36 -35 35 -35 36 -34 36 -34 35 -33 
36 -33 35 -33 36 -32 36 -31 35 -31 36 -30 35 -30 36 -29 
36 -29 35 -28 36 -28 35 -26 36 -27 35 -25 36 -25 36 -25 
35 -24 36 -23 35 -22 36 -22 36 -21 35 -20 36 -20 35 -19 
36 -18 36 -17 35 -17 36 -16 35 -15 36 -15 35 -14 36 -13 
36 -12 35 -11 36 -11 35 -10 36 -9 36 -8 35 -8 36 -6 
35 -6 36 -6 925 4594 51 MP stroke
6 w
gr

c8
96 W
0 sg
925 4594 PD
96 W
1809 4238 PD
96 W
2693 3482 PD
96 W
3577 2502 PD
96 W
4460 1521 PD
96 W
5344 765 PD
96 W
6228 409 PD
gs 899 389 5357 4227 MR c np
gr

96 W
c8
925 4594 PD
96 W
1809 4594 PD
96 W
2693 4594 PD
96 W
3577 4594 PD
96 W
4460 4594 PD
96 W
5344 4594 PD
96 W
6228 4594 PD
gs 899 389 5357 4227 MR c np
gr

0 j
0 -226 -226 0 0 226 226 0 812 4481 5 MP
/c9 { 1.000000 0.000000 0.000000 sr} bdef
c9
DP
0 -226 -226 0 0 226 226 0 812 4125 5 MP
DP
0 -226 -226 0 0 226 226 0 812 3369 5 MP
DP
0 -226 -226 0 0 226 226 0 812 2389 5 MP
DP
0 -226 -226 0 0 226 226 0 812 1408 5 MP
DP
0 -226 -226 0 0 226 226 0 812 652 5 MP
DP
0 -226 -226 0 0 226 226 0 812 296 5 MP
DP
gs 899 389 5357 4227 MR c np
DA
36 w
c8
925 4594 PD
c9
925 4594 PD
c8
0 -356 1809 4594 2 MP stroke
c9
884 0 925 4238 2 MP stroke
c8
0 -1112 2693 4594 2 MP stroke
c9
1768 0 925 3482 2 MP stroke
c8
0 -2092 3577 4594 2 MP stroke
c9
2652 0 925 2502 2 MP stroke
c8
0 -3073 4460 4594 2 MP stroke
c9
3535 0 925 1521 2 MP stroke
c8
0 -3829 5344 4594 2 MP stroke
c9
4419 0 925 765 2 MP stroke
c8
0 -4185 6228 4594 2 MP stroke
c9
5303 0 925 409 2 MP stroke
gr

36 w
DA
0 sg
%%IncludeResource: font Helvetica
/Helvetica /ISOLatin1Encoding 264 FMSR

2490 4898 mt 
(Equispaced nodes) s
 750 3149 mt  -90 rotate
(GLL nodes) s
90 rotate
SO
6 w

end %%Color Dict

eplot
%%EndObject

epage
end

showpage

%%Trailer
%%EOF
