%!PS-Adobe-3.0 EPSF-3.0
%%Creator: (MATLAB, The Mathworks, Inc. Version 8.6.0.267246 \(R2015b\). Operating System: Mac OS X)
%%Title: ../../nodal1D.eps
%%CreationDate: 2016-02-07T21:18:04
%%Pages: (atend)
%%BoundingBox:    45    28   526   409
%%LanguageLevel: 3
%%EndComments
%%BeginProlog
%%BeginResource: procset (Apache XML Graphics Std ProcSet) 1.2 0
%%Version: 1.2 0
%%Copyright: (Copyright 2001-2003,2010 The Apache Software Foundation. License terms: http://www.apache.org/licenses/LICENSE-2.0)
/bd{bind def}bind def
/ld{load def}bd
/GR/grestore ld
/M/moveto ld
/LJ/setlinejoin ld
/C/curveto ld
/f/fill ld
/LW/setlinewidth ld
/GC/setgray ld
/t/show ld
/N/newpath ld
/CT/concat ld
/cp/closepath ld
/S/stroke ld
/L/lineto ld
/CC/setcmykcolor ld
/A/ashow ld
/GS/gsave ld
/RC/setrgbcolor ld
/RM/rmoveto ld
/ML/setmiterlimit ld
/re {4 2 roll M
1 index 0 rlineto
0 exch rlineto
neg 0 rlineto
cp } bd
/_ctm matrix def
/_tm matrix def
/BT { _ctm currentmatrix pop matrix _tm copy pop 0 0 moveto } bd
/ET { _ctm setmatrix } bd
/iTm { _ctm setmatrix _tm concat } bd
/Tm { _tm astore pop iTm 0 0 moveto } bd
/ux 0.0 def
/uy 0.0 def
/F {
  /Tp exch def
  /Tf exch def
  Tf findfont Tp scalefont setfont
  /cf Tf def  /cs Tp def
} bd
/ULS {currentpoint /uy exch def /ux exch def} bd
/ULE {
  /Tcx currentpoint pop def
  gsave
  newpath
  cf findfont cs scalefont dup
  /FontMatrix get 0 get /Ts exch def /FontInfo get dup
  /UnderlinePosition get Ts mul /To exch def
  /UnderlineThickness get Ts mul /Tt exch def
  ux uy To add moveto  Tcx uy To add lineto
  Tt setlinewidth stroke
  grestore
} bd
/OLE {
  /Tcx currentpoint pop def
  gsave
  newpath
  cf findfont cs scalefont dup
  /FontMatrix get 0 get /Ts exch def /FontInfo get dup
  /UnderlinePosition get Ts mul /To exch def
  /UnderlineThickness get Ts mul /Tt exch def
  ux uy To add cs add moveto Tcx uy To add cs add lineto
  Tt setlinewidth stroke
  grestore
} bd
/SOE {
  /Tcx currentpoint pop def
  gsave
  newpath
  cf findfont cs scalefont dup
  /FontMatrix get 0 get /Ts exch def /FontInfo get dup
  /UnderlinePosition get Ts mul /To exch def
  /UnderlineThickness get Ts mul /Tt exch def
  ux uy To add cs 10 mul 26 idiv add moveto Tcx uy To add cs 10 mul 26 idiv add lineto
  Tt setlinewidth stroke
  grestore
} bd
/QT {
/Y22 exch store
/X22 exch store
/Y21 exch store
/X21 exch store
currentpoint
/Y21 load 2 mul add 3 div exch
/X21 load 2 mul add 3 div exch
/X21 load 2 mul /X22 load add 3 div
/Y21 load 2 mul /Y22 load add 3 div
/X22 load /Y22 load curveto
} bd
/SSPD {
dup length /d exch dict def
{
/v exch def
/k exch def
currentpagedevice k known {
/cpdv currentpagedevice k get def
v cpdv ne {
/upd false def
/nullv v type /nulltype eq def
/nullcpdv cpdv type /nulltype eq def
nullv nullcpdv or
{
/upd true def
} {
/sametype v type cpdv type eq def
sametype {
v type /arraytype eq {
/vlen v length def
/cpdvlen cpdv length def
vlen cpdvlen eq {
0 1 vlen 1 sub {
/i exch def
/obj v i get def
/cpdobj cpdv i get def
obj cpdobj ne {
/upd true def
exit
} if
} for
} {
/upd true def
} ifelse
} {
v type /dicttype eq {
v {
/dv exch def
/dk exch def
/cpddv cpdv dk get def
dv cpddv ne {
/upd true def
exit
} if
} forall
} {
/upd true def
} ifelse
} ifelse
} if
} ifelse
upd true eq {
d k v put
} if
} if
} if
} forall
d length 0 gt {
d setpagedevice
} if
} bd
%%EndResource
%%BeginResource: procset (Apache XML Graphics EPS ProcSet) 1.0 0
%%Version: 1.0 0
%%Copyright: (Copyright 2002-2003 The Apache Software Foundation. License terms: http://www.apache.org/licenses/LICENSE-2.0)
/BeginEPSF { %def
/b4_Inc_state save def         % Save state for cleanup
/dict_count countdictstack def % Count objects on dict stack
/op_count count 1 sub def      % Count objects on operand stack
userdict begin                 % Push userdict on dict stack
/showpage { } def              % Redefine showpage, { } = null proc
0 setgray 0 setlinecap         % Prepare graphics state
1 setlinewidth 0 setlinejoin
10 setmiterlimit [ ] 0 setdash newpath
/languagelevel where           % If level not equal to 1 then
{pop languagelevel             % set strokeadjust and
1 ne                           % overprint to their defaults.
{false setstrokeadjust false setoverprint
} if
} if
} bd
/EndEPSF { %def
count op_count sub {pop} repeat            % Clean up stacks
countdictstack dict_count sub {end} repeat
b4_Inc_state restore
} bd
%%EndResource
%FOPBeginFontDict
%%IncludeResource: font Courier-Bold
%%IncludeResource: font Helvetica
%%IncludeResource: font Courier-BoldOblique
%%IncludeResource: font Courier-Oblique
%%IncludeResource: font Times-Roman
%%IncludeResource: font Helvetica-BoldOblique
%%IncludeResource: font Helvetica-Bold
%%IncludeResource: font Helvetica-Oblique
%%IncludeResource: font Times-BoldItalic
%%IncludeResource: font Courier
%%IncludeResource: font Times-Italic
%%IncludeResource: font Times-Bold
%%IncludeResource: font Symbol
%%IncludeResource: font ZapfDingbats
%FOPEndFontDict
%%BeginResource: encoding WinAnsiEncoding
/WinAnsiEncoding [
/.notdef /.notdef /.notdef /.notdef /.notdef
/.notdef /.notdef /.notdef /.notdef /.notdef
/.notdef /.notdef /.notdef /.notdef /.notdef
/.notdef /.notdef /.notdef /.notdef /.notdef
/.notdef /.notdef /.notdef /.notdef /.notdef
/.notdef /.notdef /.notdef /.notdef /.notdef
/.notdef /.notdef /space /exclam /quotedbl
/numbersign /dollar /percent /ampersand /quotesingle
/parenleft /parenright /asterisk /plus /comma
/hyphen /period /slash /zero /one
/two /three /four /five /six
/seven /eight /nine /colon /semicolon
/less /equal /greater /question /at
/A /B /C /D /E
/F /G /H /I /J
/K /L /M /N /O
/P /Q /R /S /T
/U /V /W /X /Y
/Z /bracketleft /backslash /bracketright /asciicircum
/underscore /quoteleft /a /b /c
/d /e /f /g /h
/i /j /k /l /m
/n /o /p /q /r
/s /t /u /v /w
/x /y /z /braceleft /bar
/braceright /asciitilde /bullet /Euro /bullet
/quotesinglbase /florin /quotedblbase /ellipsis /dagger
/daggerdbl /circumflex /perthousand /Scaron /guilsinglleft
/OE /bullet /Zcaron /bullet /bullet
/quoteleft /quoteright /quotedblleft /quotedblright /bullet
/endash /emdash /asciitilde /trademark /scaron
/guilsinglright /oe /bullet /zcaron /Ydieresis
/space /exclamdown /cent /sterling /currency
/yen /brokenbar /section /dieresis /copyright
/ordfeminine /guillemotleft /logicalnot /sfthyphen /registered
/macron /degree /plusminus /twosuperior /threesuperior
/acute /mu /paragraph /middot /cedilla
/onesuperior /ordmasculine /guillemotright /onequarter /onehalf
/threequarters /questiondown /Agrave /Aacute /Acircumflex
/Atilde /Adieresis /Aring /AE /Ccedilla
/Egrave /Eacute /Ecircumflex /Edieresis /Igrave
/Iacute /Icircumflex /Idieresis /Eth /Ntilde
/Ograve /Oacute /Ocircumflex /Otilde /Odieresis
/multiply /Oslash /Ugrave /Uacute /Ucircumflex
/Udieresis /Yacute /Thorn /germandbls /agrave
/aacute /acircumflex /atilde /adieresis /aring
/ae /ccedilla /egrave /eacute /ecircumflex
/edieresis /igrave /iacute /icircumflex /idieresis
/eth /ntilde /ograve /oacute /ocircumflex
/otilde /odieresis /divide /oslash /ugrave
/uacute /ucircumflex /udieresis /yacute /thorn
/ydieresis
] def
%%EndResource
%FOPBeginFontReencode
/Courier-Bold findfont
dup length dict begin
  {1 index /FID ne {def} {pop pop} ifelse} forall
  /Encoding WinAnsiEncoding def
  currentdict
end
/Courier-Bold exch definefont pop
/Helvetica findfont
dup length dict begin
  {1 index /FID ne {def} {pop pop} ifelse} forall
  /Encoding WinAnsiEncoding def
  currentdict
end
/Helvetica exch definefont pop
/Courier-BoldOblique findfont
dup length dict begin
  {1 index /FID ne {def} {pop pop} ifelse} forall
  /Encoding WinAnsiEncoding def
  currentdict
end
/Courier-BoldOblique exch definefont pop
/Courier-Oblique findfont
dup length dict begin
  {1 index /FID ne {def} {pop pop} ifelse} forall
  /Encoding WinAnsiEncoding def
  currentdict
end
/Courier-Oblique exch definefont pop
/Times-Roman findfont
dup length dict begin
  {1 index /FID ne {def} {pop pop} ifelse} forall
  /Encoding WinAnsiEncoding def
  currentdict
end
/Times-Roman exch definefont pop
/Helvetica-BoldOblique findfont
dup length dict begin
  {1 index /FID ne {def} {pop pop} ifelse} forall
  /Encoding WinAnsiEncoding def
  currentdict
end
/Helvetica-BoldOblique exch definefont pop
/Helvetica-Bold findfont
dup length dict begin
  {1 index /FID ne {def} {pop pop} ifelse} forall
  /Encoding WinAnsiEncoding def
  currentdict
end
/Helvetica-Bold exch definefont pop
/Helvetica-Oblique findfont
dup length dict begin
  {1 index /FID ne {def} {pop pop} ifelse} forall
  /Encoding WinAnsiEncoding def
  currentdict
end
/Helvetica-Oblique exch definefont pop
/Times-BoldItalic findfont
dup length dict begin
  {1 index /FID ne {def} {pop pop} ifelse} forall
  /Encoding WinAnsiEncoding def
  currentdict
end
/Times-BoldItalic exch definefont pop
/Courier findfont
dup length dict begin
  {1 index /FID ne {def} {pop pop} ifelse} forall
  /Encoding WinAnsiEncoding def
  currentdict
end
/Courier exch definefont pop
/Times-Italic findfont
dup length dict begin
  {1 index /FID ne {def} {pop pop} ifelse} forall
  /Encoding WinAnsiEncoding def
  currentdict
end
/Times-Italic exch definefont pop
/Times-Bold findfont
dup length dict begin
  {1 index /FID ne {def} {pop pop} ifelse} forall
  /Encoding WinAnsiEncoding def
  currentdict
end
/Times-Bold exch definefont pop
%FOPEndFontReencode
%%EndProlog
%%Page: 1 1
%%PageBoundingBox: 0 0 576 432
%%BeginPageSetup
[1 0 0 -1 0 432] CT
%%EndPageSetup
GS
1 GC
N
0 0 576 432 re
f
GR
GS
1 GC
N
0 0 576 432 re
f
GR
GS
1 GC
N
75 384.5 M
521.5 384.5 L
521.5 32.5 L
75 32.5 L
cp
f
GR
GS
0.873 GC
1 LJ
0.5 LW
N
80.445 384.5 M
80.445 32.5 L
S
GR
GS
0.873 GC
1 LJ
0.5 LW
N
189.348 384.5 M
189.348 32.5 L
S
GR
GS
0.873 GC
1 LJ
0.5 LW
N
298.25 384.5 M
298.25 32.5 L
S
GR
GS
0.873 GC
1 LJ
0.5 LW
N
407.152 384.5 M
407.152 32.5 L
S
GR
GS
0.873 GC
1 LJ
0.5 LW
N
516.055 384.5 M
516.055 32.5 L
S
GR
GS
0.873 GC
1 LJ
0.5 LW
N
521.5 384.5 M
75 384.5 L
S
GR
GS
0.873 GC
1 LJ
0.5 LW
N
521.5 325.833 M
75 325.833 L
S
GR
GS
0.873 GC
1 LJ
0.5 LW
N
521.5 267.167 M
75 267.167 L
S
GR
GS
0.873 GC
1 LJ
0.5 LW
N
521.5 208.5 M
75 208.5 L
S
GR
GS
0.873 GC
1 LJ
0.5 LW
N
521.5 149.833 M
75 149.833 L
S
GR
GS
0.873 GC
1 LJ
0.5 LW
N
521.5 91.167 M
75 91.167 L
S
GR
GS
0.873 GC
1 LJ
0.5 LW
N
521.5 32.5 M
75 32.5 L
S
GR
GS
0.149 GC
2 setlinecap
1 LJ
0.5 LW
N
75 384.5 M
521.5 384.5 L
S
GR
GS
0.149 GC
2 setlinecap
1 LJ
0.5 LW
N
80.445 384.5 M
80.445 380.035 L
S
GR
GS
0.149 GC
2 setlinecap
1 LJ
0.5 LW
N
189.348 384.5 M
189.348 380.035 L
S
GR
GS
0.149 GC
2 setlinecap
1 LJ
0.5 LW
N
298.25 384.5 M
298.25 380.035 L
S
GR
GS
0.149 GC
2 setlinecap
1 LJ
0.5 LW
N
407.152 384.5 M
407.152 380.035 L
S
GR
GS
0.149 GC
2 setlinecap
1 LJ
0.5 LW
N
516.055 384.5 M
516.055 380.035 L
S
GR
GS
[1 0 0 1 80.44512 389.29999] CT
0.149 GC
/Helvetica 14 F
GS
[1 0 0 1 0 0] CT
-6.5 11 moveto 
1 -1 scale
(-1) t 
GR
GR
GS
[1 0 0 1 189.34756 389.29999] CT
0.149 GC
/Helvetica 14 F
GS
[1 0 0 1 0 0] CT
-12.5 11 moveto 
1 -1 scale
(-0.5) t 
GR
GR
GS
[1 0 0 1 298.25 389.29999] CT
0.149 GC
/Helvetica 14 F
GS
[1 0 0 1 0 0] CT
-4 11 moveto 
1 -1 scale
(0) t 
GR
GR
GS
[1 0 0 1 407.15244 389.29999] CT
0.149 GC
/Helvetica 14 F
GS
[1 0 0 1 0 0] CT
-10 11 moveto 
1 -1 scale
(0.5) t 
GR
GR
GS
[1 0 0 1 516.05487 389.29999] CT
0.149 GC
/Helvetica 14 F
GS
[1 0 0 1 0 0] CT
-4 11 moveto 
1 -1 scale
(1) t 
GR
GR
GS
0.149 GC
2 setlinecap
1 LJ
0.5 LW
N
75 384.5 M
75 32.5 L
S
GR
GS
0.149 GC
2 setlinecap
1 LJ
0.5 LW
N
75 384.5 M
79.465 384.5 L
S
GR
GS
0.149 GC
2 setlinecap
1 LJ
0.5 LW
N
75 325.833 M
79.465 325.833 L
S
GR
GS
0.149 GC
2 setlinecap
1 LJ
0.5 LW
N
75 267.167 M
79.465 267.167 L
S
GR
GS
0.149 GC
2 setlinecap
1 LJ
0.5 LW
N
75 208.5 M
79.465 208.5 L
S
GR
GS
0.149 GC
2 setlinecap
1 LJ
0.5 LW
N
75 149.833 M
79.465 149.833 L
S
GR
GS
0.149 GC
2 setlinecap
1 LJ
0.5 LW
N
75 91.167 M
79.465 91.167 L
S
GR
GS
0.149 GC
2 setlinecap
1 LJ
0.5 LW
N
75 32.5 M
79.465 32.5 L
S
GR
GS
[1 0 0 1 70.2 384.5] CT
0.149 GC
/Helvetica 14 F
GS
[1 0 0 1 0 0] CT
-25 3.5 moveto 
1 -1 scale
(-0.2) t 
GR
GR
GS
[1 0 0 1 70.2 325.83334] CT
0.149 GC
/Helvetica 14 F
GS
[1 0 0 1 0 0] CT
-8 3.5 moveto 
1 -1 scale
(0) t 
GR
GR
GS
[1 0 0 1 70.2 267.16666] CT
0.149 GC
/Helvetica 14 F
GS
[1 0 0 1 0 0] CT
-20 3.5 moveto 
1 -1 scale
(0.2) t 
GR
GR
GS
[1 0 0 1 70.2 208.5] CT
0.149 GC
/Helvetica 14 F
GS
[1 0 0 1 0 0] CT
-20 3.5 moveto 
1 -1 scale
(0.4) t 
GR
GR
GS
[1 0 0 1 70.2 149.83333] CT
0.149 GC
/Helvetica 14 F
GS
[1 0 0 1 0 0] CT
-20 3.5 moveto 
1 -1 scale
(0.6) t 
GR
GR
GS
[1 0 0 1 70.2 91.16666] CT
0.149 GC
/Helvetica 14 F
GS
[1 0 0 1 0 0] CT
-20 3.5 moveto 
1 -1 scale
(0.8) t 
GR
GR
GS
[1 0 0 1 70.2 32.5] CT
0.149 GC
/Helvetica 14 F
GS
[1 0 0 1 0 0] CT
-8 3.5 moveto 
1 -1 scale
(1) t 
GR
GR
GS
0 0.447 0.741 RC
1 LJ
2 LW
N
80.445 32.5 M
81.318 38.343 L
82.191 44.116 L
83.064 49.819 L
83.937 55.454 L
84.81 61.019 L
85.683 66.516 L
86.556 71.945 L
87.429 77.308 L
88.302 82.603 L
89.175 87.832 L
90.048 92.995 L
90.921 98.093 L
91.794 103.126 L
92.667 108.095 L
93.54 113 L
94.413 117.842 L
95.286 122.62 L
96.158 127.336 L
97.031 131.99 L
97.904 136.582 L
98.777 141.114 L
99.65 145.584 L
100.523 149.995 L
101.396 154.346 L
102.269 158.638 L
103.142 162.87 L
104.015 167.045 L
104.888 171.161 L
105.761 175.221 L
106.634 179.223 L
107.507 183.169 L
108.38 187.058 L
109.253 190.892 L
110.126 194.671 L
110.999 198.395 L
111.872 202.065 L
112.745 205.681 L
113.618 209.243 L
114.491 212.753 L
115.364 216.21 L
116.237 219.614 L
117.11 222.968 L
117.983 226.269 L
118.856 229.52 L
119.729 232.721 L
120.602 235.872 L
121.474 238.973 L
122.347 242.025 L
123.22 245.028 L
S
GR
GS
0 0.447 0.741 RC
1 LJ
2 LW
N
122.347 242.025 M
123.22 245.028 L
124.093 247.983 L
124.966 250.89 L
125.839 253.749 L
126.712 256.562 L
127.585 259.328 L
128.458 262.047 L
129.331 264.721 L
130.204 267.349 L
131.077 269.933 L
131.95 272.472 L
132.823 274.966 L
133.696 277.417 L
134.569 279.824 L
135.442 282.189 L
136.315 284.511 L
137.188 286.79 L
138.061 289.028 L
138.934 291.224 L
139.807 293.38 L
140.68 295.494 L
141.553 297.569 L
142.426 299.603 L
143.299 301.598 L
144.172 303.554 L
145.045 305.472 L
145.918 307.35 L
146.79 309.191 L
147.663 310.995 L
148.536 312.761 L
149.409 314.49 L
150.282 316.183 L
151.155 317.839 L
152.028 319.46 L
152.901 321.046 L
153.774 322.596 L
154.647 324.112 L
155.52 325.594 L
156.393 327.041 L
157.266 328.456 L
158.139 329.836 L
159.012 331.184 L
159.885 332.5 L
160.758 333.783 L
161.631 335.035 L
162.504 336.255 L
163.377 337.444 L
164.25 338.602 L
165.123 339.73 L
165.996 340.828 L
166.869 341.896 L
S
GR
GS
0 0.447 0.741 RC
1 LJ
2 LW
N
165.996 340.828 M
166.869 341.896 L
167.742 342.935 L
168.615 343.944 L
169.488 344.925 L
170.361 345.878 L
171.234 346.802 L
172.106 347.699 L
172.979 348.568 L
173.852 349.411 L
174.725 350.226 L
175.598 351.015 L
176.471 351.778 L
177.344 352.516 L
178.217 353.227 L
179.09 353.914 L
179.963 354.576 L
180.836 355.214 L
181.709 355.827 L
182.582 356.416 L
183.455 356.982 L
184.328 357.524 L
185.201 358.044 L
186.074 358.541 L
186.947 359.016 L
187.82 359.468 L
188.693 359.899 L
189.566 360.309 L
190.439 360.697 L
191.312 361.065 L
192.185 361.411 L
193.058 361.738 L
193.931 362.045 L
194.804 362.332 L
195.677 362.6 L
196.55 362.848 L
197.422 363.078 L
198.295 363.29 L
199.168 363.483 L
200.041 363.658 L
200.914 363.815 L
201.787 363.955 L
202.66 364.078 L
203.533 364.184 L
204.406 364.274 L
205.279 364.347 L
206.152 364.404 L
207.025 364.445 L
207.898 364.471 L
208.771 364.482 L
209.644 364.477 L
210.517 364.458 L
S
GR
GS
0 0.447 0.741 RC
1 LJ
2 LW
N
209.644 364.477 M
210.517 364.458 L
211.39 364.424 L
212.263 364.377 L
213.136 364.315 L
214.009 364.24 L
214.882 364.151 L
215.755 364.049 L
216.628 363.934 L
217.501 363.806 L
218.374 363.666 L
219.247 363.514 L
220.12 363.349 L
220.993 363.173 L
221.866 362.986 L
222.738 362.787 L
223.611 362.578 L
224.484 362.357 L
225.357 362.127 L
226.23 361.885 L
227.103 361.634 L
227.976 361.373 L
228.849 361.102 L
229.722 360.822 L
230.595 360.533 L
231.468 360.235 L
232.341 359.928 L
233.214 359.613 L
234.087 359.289 L
234.96 358.958 L
235.833 358.618 L
236.706 358.271 L
237.579 357.917 L
238.452 357.555 L
239.325 357.187 L
240.198 356.811 L
241.071 356.429 L
241.944 356.041 L
242.817 355.646 L
243.69 355.246 L
244.563 354.84 L
245.436 354.428 L
246.309 354.01 L
247.182 353.588 L
248.054 353.161 L
248.927 352.728 L
249.8 352.292 L
250.673 351.85 L
251.546 351.405 L
252.419 350.956 L
253.292 350.502 L
254.165 350.045 L
S
GR
GS
0 0.447 0.741 RC
1 LJ
2 LW
N
253.292 350.502 M
254.165 350.045 L
255.038 349.585 L
255.911 349.121 L
256.784 348.654 L
257.657 348.184 L
258.53 347.711 L
259.403 347.236 L
260.276 346.758 L
261.149 346.278 L
262.022 345.796 L
262.895 345.311 L
263.768 344.826 L
264.641 344.338 L
265.514 343.849 L
266.387 343.359 L
267.26 342.867 L
268.133 342.375 L
269.006 341.881 L
269.879 341.387 L
270.752 340.893 L
271.625 340.398 L
272.498 339.903 L
273.37 339.408 L
274.243 338.912 L
275.116 338.417 L
275.989 337.923 L
276.862 337.429 L
277.735 336.935 L
278.608 336.443 L
279.481 335.951 L
280.354 335.46 L
281.227 334.97 L
282.1 334.482 L
282.973 333.995 L
283.846 333.51 L
284.719 333.026 L
285.592 332.544 L
286.465 332.064 L
287.338 331.587 L
288.211 331.111 L
289.084 330.637 L
289.957 330.166 L
290.83 329.698 L
291.703 329.232 L
292.576 328.769 L
293.449 328.309 L
294.322 327.852 L
295.195 327.397 L
296.068 326.946 L
296.941 326.499 L
297.814 326.054 L
S
GR
GS
0 0.447 0.741 RC
1 LJ
2 LW
N
296.941 326.499 M
297.814 326.054 L
298.686 325.613 L
299.559 325.176 L
300.432 324.742 L
301.305 324.313 L
302.178 323.887 L
303.051 323.465 L
303.924 323.047 L
304.797 322.633 L
305.67 322.223 L
306.543 321.818 L
307.416 321.417 L
308.289 321.021 L
309.162 320.629 L
310.035 320.242 L
310.908 319.86 L
311.781 319.482 L
312.654 319.109 L
313.527 318.741 L
314.4 318.379 L
315.273 318.021 L
316.146 317.669 L
317.019 317.321 L
317.892 316.979 L
318.765 316.643 L
319.638 316.312 L
320.511 315.986 L
321.384 315.666 L
322.257 315.351 L
323.13 315.042 L
324.002 314.739 L
324.875 314.442 L
325.748 314.15 L
326.621 313.865 L
327.494 313.585 L
328.367 313.311 L
329.24 313.043 L
330.113 312.781 L
330.986 312.526 L
331.859 312.276 L
332.732 312.033 L
333.605 311.796 L
334.478 311.565 L
335.351 311.34 L
336.224 311.122 L
337.097 310.91 L
337.97 310.704 L
338.843 310.505 L
339.716 310.312 L
340.589 310.126 L
341.462 309.946 L
S
GR
GS
0 0.447 0.741 RC
1 LJ
2 LW
N
340.589 310.126 M
341.462 309.946 L
342.335 309.773 L
343.208 309.606 L
344.081 309.446 L
344.954 309.292 L
345.827 309.145 L
346.7 309.004 L
347.573 308.87 L
348.446 308.743 L
349.318 308.622 L
350.191 308.508 L
351.064 308.4 L
351.937 308.299 L
352.81 308.205 L
353.683 308.117 L
354.556 308.036 L
355.429 307.961 L
356.302 307.894 L
357.175 307.832 L
358.048 307.778 L
358.921 307.73 L
359.794 307.688 L
360.667 307.653 L
361.54 307.625 L
362.413 307.603 L
363.286 307.588 L
364.159 307.579 L
365.032 307.577 L
365.905 307.581 L
366.778 307.592 L
367.651 307.609 L
368.524 307.633 L
369.397 307.663 L
370.27 307.699 L
371.143 307.741 L
372.016 307.79 L
372.889 307.845 L
373.762 307.906 L
374.634 307.974 L
375.507 308.047 L
376.38 308.127 L
377.253 308.212 L
378.126 308.304 L
378.999 308.401 L
379.872 308.505 L
380.745 308.614 L
381.618 308.729 L
382.491 308.85 L
383.364 308.977 L
384.237 309.109 L
385.11 309.247 L
S
GR
GS
0 0.447 0.741 RC
1 LJ
2 LW
N
384.237 309.109 M
385.11 309.247 L
385.983 309.39 L
386.856 309.539 L
387.729 309.693 L
388.602 309.853 L
389.475 310.018 L
390.348 310.188 L
391.221 310.363 L
392.094 310.543 L
392.967 310.729 L
393.84 310.919 L
394.713 311.114 L
395.586 311.314 L
396.459 311.519 L
397.332 311.728 L
398.205 311.942 L
399.078 312.16 L
399.95 312.383 L
400.823 312.609 L
401.696 312.841 L
402.569 313.076 L
403.442 313.315 L
404.315 313.558 L
405.188 313.805 L
406.061 314.056 L
406.934 314.311 L
407.807 314.569 L
408.68 314.83 L
409.553 315.095 L
410.426 315.363 L
411.299 315.635 L
412.172 315.909 L
413.045 316.186 L
413.918 316.466 L
414.791 316.749 L
415.664 317.035 L
416.537 317.322 L
417.41 317.613 L
418.283 317.905 L
419.156 318.2 L
420.029 318.497 L
420.902 318.795 L
421.775 319.096 L
422.648 319.398 L
423.521 319.701 L
424.393 320.006 L
425.266 320.312 L
426.139 320.62 L
427.012 320.928 L
427.885 321.237 L
428.758 321.547 L
S
GR
GS
0 0.447 0.741 RC
1 LJ
2 LW
N
427.885 321.237 M
428.758 321.547 L
429.631 321.858 L
430.504 322.169 L
431.377 322.48 L
432.25 322.792 L
433.123 323.103 L
433.996 323.414 L
434.869 323.726 L
435.742 324.036 L
436.615 324.346 L
437.488 324.656 L
438.361 324.964 L
439.234 325.272 L
440.107 325.578 L
440.98 325.883 L
441.853 326.187 L
442.726 326.489 L
443.599 326.789 L
444.472 327.087 L
445.345 327.382 L
446.218 327.676 L
447.091 327.967 L
447.964 328.255 L
448.837 328.541 L
449.71 328.823 L
450.582 329.103 L
451.455 329.379 L
452.328 329.651 L
453.201 329.92 L
454.074 330.185 L
454.947 330.445 L
455.82 330.702 L
456.693 330.954 L
457.566 331.201 L
458.439 331.443 L
459.312 331.681 L
460.185 331.913 L
461.058 332.14 L
461.931 332.361 L
462.804 332.576 L
463.677 332.786 L
464.55 332.989 L
465.423 333.185 L
466.296 333.375 L
467.169 333.559 L
468.042 333.735 L
468.915 333.904 L
469.788 334.065 L
470.661 334.219 L
471.534 334.365 L
472.407 334.503 L
S
GR
GS
0 0.447 0.741 RC
1 LJ
2 LW
N
471.534 334.365 M
472.407 334.503 L
473.28 334.632 L
474.153 334.753 L
475.026 334.865 L
475.898 334.969 L
476.771 335.063 L
477.644 335.147 L
478.517 335.222 L
479.39 335.287 L
480.263 335.342 L
481.136 335.387 L
482.009 335.421 L
482.882 335.444 L
483.755 335.456 L
484.628 335.457 L
485.501 335.446 L
486.374 335.424 L
487.247 335.389 L
488.12 335.343 L
488.993 335.283 L
489.866 335.211 L
490.739 335.126 L
491.612 335.028 L
492.485 334.917 L
493.358 334.791 L
494.231 334.652 L
495.104 334.498 L
495.977 334.33 L
496.85 334.147 L
497.723 333.949 L
498.596 333.735 L
499.469 333.506 L
500.341 333.262 L
501.214 333.001 L
502.087 332.723 L
502.96 332.429 L
503.833 332.119 L
504.706 331.791 L
505.579 331.445 L
506.452 331.082 L
507.325 330.7 L
508.198 330.301 L
509.071 329.883 L
509.944 329.446 L
510.817 328.989 L
511.69 328.514 L
512.563 328.018 L
513.436 327.503 L
514.309 326.967 L
515.182 326.411 L
516.055 325.833 L
S
GR
GS
0 0.447 0.741 RC
1 LJ
2 LW
N
515.182 326.411 M
516.055 325.833 L
S
GR
GS
0.851 0.325 0.098 RC
1 LJ
2 LW
N
80.445 325.833 M
81.318 317.957 L
82.191 310.213 L
83.064 302.601 L
83.937 295.12 L
84.81 287.768 L
85.683 280.546 L
86.556 273.45 L
87.429 266.482 L
88.302 259.639 L
89.175 252.92 L
90.048 246.325 L
90.921 239.852 L
91.794 233.5 L
92.667 227.269 L
93.54 221.157 L
94.413 215.164 L
95.286 209.287 L
96.158 203.527 L
97.031 197.882 L
97.904 192.351 L
98.777 186.933 L
99.65 181.628 L
100.523 176.434 L
101.396 171.35 L
102.269 166.375 L
103.142 161.509 L
104.015 156.749 L
104.888 152.096 L
105.761 147.549 L
106.634 143.105 L
107.507 138.765 L
108.38 134.527 L
109.253 130.391 L
110.126 126.356 L
110.999 122.419 L
111.872 118.582 L
112.745 114.842 L
113.618 111.198 L
114.491 107.651 L
115.364 104.198 L
116.237 100.839 L
117.11 97.573 L
117.983 94.4 L
118.856 91.317 L
119.729 88.324 L
120.602 85.421 L
121.474 82.606 L
122.347 79.879 L
123.22 77.238 L
S
GR
GS
0.851 0.325 0.098 RC
1 LJ
2 LW
N
122.347 79.879 M
123.22 77.238 L
124.093 74.683 L
124.966 72.213 L
125.839 69.826 L
126.712 67.523 L
127.585 65.302 L
128.458 63.162 L
129.331 61.102 L
130.204 59.122 L
131.077 57.22 L
131.95 55.396 L
132.823 53.65 L
133.696 51.979 L
134.569 50.383 L
135.442 48.862 L
136.315 47.415 L
137.188 46.039 L
138.061 44.736 L
138.934 43.504 L
139.807 42.342 L
140.68 41.249 L
141.553 40.225 L
142.426 39.269 L
143.299 38.379 L
144.172 37.556 L
145.045 36.798 L
145.918 36.104 L
146.79 35.474 L
147.663 34.907 L
148.536 34.401 L
149.409 33.958 L
150.282 33.574 L
151.155 33.25 L
152.028 32.986 L
152.901 32.779 L
153.774 32.63 L
154.647 32.537 L
155.52 32.501 L
156.393 32.519 L
157.266 32.592 L
158.139 32.718 L
159.012 32.897 L
159.885 33.129 L
160.758 33.411 L
161.631 33.745 L
162.504 34.128 L
163.377 34.56 L
164.25 35.041 L
165.123 35.569 L
165.996 36.145 L
166.869 36.766 L
S
GR
GS
0.851 0.325 0.098 RC
1 LJ
2 LW
N
165.996 36.145 M
166.869 36.766 L
167.742 37.434 L
168.615 38.146 L
169.488 38.902 L
170.361 39.702 L
171.234 40.544 L
172.106 41.429 L
172.979 42.354 L
173.852 43.321 L
174.725 44.328 L
175.598 45.373 L
176.471 46.458 L
177.344 47.58 L
178.217 48.74 L
179.09 49.937 L
179.963 51.169 L
180.836 52.437 L
181.709 53.739 L
182.582 55.076 L
183.455 56.446 L
184.328 57.848 L
185.201 59.283 L
186.074 60.749 L
186.947 62.246 L
187.82 63.774 L
188.693 65.331 L
189.566 66.917 L
190.439 68.531 L
191.312 70.173 L
192.185 71.842 L
193.058 73.537 L
193.931 75.259 L
194.804 77.006 L
195.677 78.778 L
196.55 80.573 L
197.422 82.393 L
198.295 84.235 L
199.168 86.1 L
200.041 87.987 L
200.914 89.895 L
201.787 91.823 L
202.66 93.772 L
203.533 95.741 L
204.406 97.728 L
205.279 99.734 L
206.152 101.758 L
207.025 103.799 L
207.898 105.857 L
208.771 107.931 L
209.644 110.021 L
210.517 112.126 L
S
GR
GS
0.851 0.325 0.098 RC
1 LJ
2 LW
N
209.644 110.021 M
210.517 112.126 L
211.39 114.246 L
212.263 116.381 L
213.136 118.529 L
214.009 120.69 L
214.882 122.863 L
215.755 125.049 L
216.628 127.247 L
217.501 129.455 L
218.374 131.674 L
219.247 133.904 L
220.12 136.143 L
220.993 138.391 L
221.866 140.648 L
222.738 142.913 L
223.611 145.186 L
224.484 147.466 L
225.357 149.753 L
226.23 152.046 L
227.103 154.345 L
227.976 156.65 L
228.849 158.959 L
229.722 161.273 L
230.595 163.591 L
231.468 165.913 L
232.341 168.238 L
233.214 170.566 L
234.087 172.896 L
234.96 175.228 L
235.833 177.561 L
236.706 179.896 L
237.579 182.231 L
238.452 184.566 L
239.325 186.901 L
240.198 189.236 L
241.071 191.57 L
241.944 193.902 L
242.817 196.233 L
243.69 198.561 L
244.563 200.887 L
245.436 203.21 L
246.309 205.53 L
247.182 207.846 L
248.054 210.158 L
248.927 212.465 L
249.8 214.768 L
250.673 217.066 L
251.546 219.358 L
252.419 221.645 L
253.292 223.925 L
254.165 226.199 L
S
GR
GS
0.851 0.325 0.098 RC
1 LJ
2 LW
N
253.292 223.925 M
254.165 226.199 L
255.038 228.465 L
255.911 230.725 L
256.784 232.977 L
257.657 235.221 L
258.53 237.458 L
259.403 239.685 L
260.276 241.904 L
261.149 244.113 L
262.022 246.314 L
262.895 248.504 L
263.768 250.684 L
264.641 252.854 L
265.514 255.014 L
266.387 257.162 L
267.26 259.299 L
268.133 261.424 L
269.006 263.538 L
269.879 265.64 L
270.752 267.729 L
271.625 269.806 L
272.498 271.87 L
273.37 273.92 L
274.243 275.958 L
275.116 277.981 L
275.989 279.991 L
276.862 281.986 L
277.735 283.967 L
278.608 285.933 L
279.481 287.885 L
280.354 289.821 L
281.227 291.742 L
282.1 293.648 L
282.973 295.537 L
283.846 297.411 L
284.719 299.268 L
285.592 301.109 L
286.465 302.933 L
287.338 304.741 L
288.211 306.531 L
289.084 308.304 L
289.957 310.06 L
290.83 311.798 L
291.703 313.518 L
292.576 315.22 L
293.449 316.904 L
294.322 318.57 L
295.195 320.217 L
296.068 321.845 L
296.941 323.455 L
297.814 325.045 L
S
GR
GS
0.851 0.325 0.098 RC
1 LJ
2 LW
N
296.941 323.455 M
297.814 325.045 L
298.686 326.617 L
299.559 328.169 L
300.432 329.701 L
301.305 331.214 L
302.178 332.708 L
303.051 334.181 L
303.924 335.634 L
304.797 337.068 L
305.67 338.48 L
306.543 339.873 L
307.416 341.245 L
308.289 342.596 L
309.162 343.927 L
310.035 345.237 L
310.908 346.526 L
311.781 347.794 L
312.654 349.04 L
313.527 350.266 L
314.4 351.47 L
315.273 352.653 L
316.146 353.814 L
317.019 354.953 L
317.892 356.072 L
318.765 357.168 L
319.638 358.242 L
320.511 359.295 L
321.384 360.326 L
322.257 361.335 L
323.13 362.322 L
324.002 363.286 L
324.875 364.229 L
325.748 365.15 L
326.621 366.048 L
327.494 366.924 L
328.367 367.778 L
329.24 368.61 L
330.113 369.419 L
330.986 370.206 L
331.859 370.971 L
332.732 371.714 L
333.605 372.434 L
334.478 373.132 L
335.351 373.807 L
336.224 374.46 L
337.097 375.091 L
337.97 375.699 L
338.843 376.286 L
339.716 376.85 L
340.589 377.391 L
341.462 377.911 L
S
GR
GS
0.851 0.325 0.098 RC
1 LJ
2 LW
N
340.589 377.391 M
341.462 377.911 L
342.335 378.408 L
343.208 378.883 L
344.081 379.336 L
344.954 379.767 L
345.827 380.176 L
346.7 380.563 L
347.573 380.928 L
348.446 381.271 L
349.318 381.592 L
350.191 381.892 L
351.064 382.17 L
351.937 382.426 L
352.81 382.661 L
353.683 382.874 L
354.556 383.066 L
355.429 383.236 L
356.302 383.385 L
357.175 383.514 L
358.048 383.621 L
358.921 383.707 L
359.794 383.773 L
360.667 383.817 L
361.54 383.842 L
362.413 383.845 L
363.286 383.829 L
364.159 383.792 L
365.032 383.735 L
365.905 383.658 L
366.778 383.561 L
367.651 383.445 L
368.524 383.309 L
369.397 383.153 L
370.27 382.978 L
371.143 382.784 L
372.016 382.572 L
372.889 382.34 L
373.762 382.09 L
374.634 381.821 L
375.507 381.534 L
376.38 381.229 L
377.253 380.906 L
378.126 380.565 L
378.999 380.207 L
379.872 379.831 L
380.745 379.438 L
381.618 379.028 L
382.491 378.601 L
383.364 378.158 L
384.237 377.698 L
385.11 377.222 L
S
GR
GS
0.851 0.325 0.098 RC
1 LJ
2 LW
N
384.237 377.698 M
385.11 377.222 L
385.983 376.73 L
386.856 376.223 L
387.729 375.7 L
388.602 375.162 L
389.475 374.608 L
390.348 374.04 L
391.221 373.457 L
392.094 372.86 L
392.967 372.249 L
393.84 371.624 L
394.713 370.985 L
395.586 370.333 L
396.459 369.668 L
397.332 368.99 L
398.205 368.3 L
399.078 367.597 L
399.95 366.882 L
400.823 366.156 L
401.696 365.418 L
402.569 364.669 L
403.442 363.909 L
404.315 363.139 L
405.188 362.358 L
406.061 361.568 L
406.934 360.768 L
407.807 359.958 L
408.68 359.139 L
409.553 358.312 L
410.426 357.476 L
411.299 356.632 L
412.172 355.781 L
413.045 354.922 L
413.918 354.055 L
414.791 353.182 L
415.664 352.303 L
416.537 351.418 L
417.41 350.527 L
418.283 349.63 L
419.156 348.729 L
420.029 347.823 L
420.902 346.912 L
421.775 345.998 L
422.648 345.08 L
423.521 344.159 L
424.393 343.236 L
425.266 342.31 L
426.139 341.381 L
427.012 340.452 L
427.885 339.521 L
428.758 338.589 L
S
GR
GS
0.851 0.325 0.098 RC
1 LJ
2 LW
N
427.885 339.521 M
428.758 338.589 L
429.631 337.656 L
430.504 336.724 L
431.377 335.792 L
432.25 334.861 L
433.123 333.931 L
433.996 333.003 L
434.869 332.076 L
435.742 331.153 L
436.615 330.232 L
437.488 329.314 L
438.361 328.4 L
439.234 327.491 L
440.107 326.586 L
440.98 325.686 L
441.853 324.792 L
442.726 323.904 L
443.599 323.022 L
444.472 322.148 L
445.345 321.28 L
446.218 320.421 L
447.091 319.57 L
447.964 318.728 L
448.837 317.895 L
449.71 317.072 L
450.582 316.259 L
451.455 315.457 L
452.328 314.667 L
453.201 313.888 L
454.074 313.121 L
454.947 312.368 L
455.82 311.627 L
456.693 310.901 L
457.566 310.189 L
458.439 309.491 L
459.312 308.809 L
460.185 308.143 L
461.058 307.494 L
461.931 306.862 L
462.804 306.247 L
463.677 305.65 L
464.55 305.072 L
465.423 304.513 L
466.296 303.974 L
467.169 303.455 L
468.042 302.957 L
468.915 302.481 L
469.788 302.026 L
470.661 301.595 L
471.534 301.186 L
472.407 300.801 L
S
GR
GS
0.851 0.325 0.098 RC
1 LJ
2 LW
N
471.534 301.186 M
472.407 300.801 L
473.28 300.441 L
474.153 300.105 L
475.026 299.795 L
475.898 299.511 L
476.771 299.254 L
477.644 299.024 L
478.517 298.822 L
479.39 298.649 L
480.263 298.505 L
481.136 298.391 L
482.009 298.307 L
482.882 298.254 L
483.755 298.233 L
484.628 298.244 L
485.501 298.288 L
486.374 298.366 L
487.247 298.478 L
488.12 298.625 L
488.993 298.808 L
489.866 299.026 L
490.739 299.282 L
491.612 299.575 L
492.485 299.906 L
493.358 300.276 L
494.231 300.686 L
495.104 301.136 L
495.977 301.627 L
496.85 302.159 L
497.723 302.734 L
498.596 303.351 L
499.469 304.013 L
500.341 304.719 L
501.214 305.469 L
502.087 306.266 L
502.96 307.109 L
503.833 308 L
504.706 308.938 L
505.579 309.925 L
506.452 310.961 L
507.325 312.048 L
508.198 313.185 L
509.071 314.374 L
509.944 315.615 L
510.817 316.91 L
511.69 318.258 L
512.563 319.661 L
513.436 321.119 L
514.309 322.633 L
515.182 324.204 L
516.055 325.833 L
S
GR
GS
0.851 0.325 0.098 RC
1 LJ
2 LW
N
515.182 324.204 M
516.055 325.833 L
S
GR
GS
0.929 0.694 0.125 RC
1 LJ
2 LW
N
80.445 325.833 M
81.318 328.918 L
82.191 331.904 L
83.064 334.791 L
83.937 337.581 L
84.81 340.274 L
85.683 342.873 L
86.556 345.377 L
87.429 347.787 L
88.302 350.106 L
89.175 352.333 L
90.048 354.47 L
90.921 356.518 L
91.794 358.478 L
92.667 360.351 L
93.54 362.138 L
94.413 363.839 L
95.286 365.456 L
96.158 366.99 L
97.031 368.442 L
97.904 369.813 L
98.777 371.104 L
99.65 372.315 L
100.523 373.448 L
101.396 374.504 L
102.269 375.483 L
103.142 376.387 L
104.015 377.217 L
104.888 377.973 L
105.761 378.656 L
106.634 379.268 L
107.507 379.809 L
108.38 380.28 L
109.253 380.682 L
110.126 381.017 L
110.999 381.284 L
111.872 381.486 L
112.745 381.622 L
113.618 381.694 L
114.491 381.702 L
115.364 381.648 L
116.237 381.532 L
117.11 381.356 L
117.983 381.12 L
118.856 380.825 L
119.729 380.471 L
120.602 380.061 L
121.474 379.594 L
122.347 379.072 L
123.22 378.495 L
S
GR
GS
0.929 0.694 0.125 RC
1 LJ
2 LW
N
122.347 379.072 M
123.22 378.495 L
124.093 377.864 L
124.966 377.18 L
125.839 376.444 L
126.712 375.657 L
127.585 374.82 L
128.458 373.933 L
129.331 372.997 L
130.204 372.013 L
131.077 370.982 L
131.95 369.905 L
132.823 368.782 L
133.696 367.614 L
134.569 366.403 L
135.442 365.148 L
136.315 363.852 L
137.188 362.513 L
138.061 361.134 L
138.934 359.715 L
139.807 358.257 L
140.68 356.761 L
141.553 355.226 L
142.426 353.655 L
143.299 352.048 L
144.172 350.405 L
145.045 348.728 L
145.918 347.017 L
146.79 345.273 L
147.663 343.496 L
148.536 341.688 L
149.409 339.849 L
150.282 337.98 L
151.155 336.081 L
152.028 334.153 L
152.901 332.198 L
153.774 330.215 L
154.647 328.205 L
155.52 326.169 L
156.393 324.109 L
157.266 322.023 L
158.139 319.914 L
159.012 317.782 L
159.885 315.627 L
160.758 313.45 L
161.631 311.252 L
162.504 309.033 L
163.377 306.795 L
164.25 304.538 L
165.123 302.262 L
165.996 299.968 L
166.869 297.657 L
S
GR
GS
0.929 0.694 0.125 RC
1 LJ
2 LW
N
165.996 299.968 M
166.869 297.657 L
167.742 295.329 L
168.615 292.986 L
169.488 290.627 L
170.361 288.253 L
171.234 285.865 L
172.106 283.464 L
172.979 281.05 L
173.852 278.624 L
174.725 276.186 L
175.598 273.737 L
176.471 271.278 L
177.344 268.808 L
178.217 266.33 L
179.09 263.843 L
179.963 261.348 L
180.836 258.845 L
181.709 256.335 L
182.582 253.82 L
183.455 251.298 L
184.328 248.771 L
185.201 246.239 L
186.074 243.703 L
186.947 241.164 L
187.82 238.622 L
188.693 236.077 L
189.566 233.53 L
190.439 230.981 L
191.312 228.432 L
192.185 225.883 L
193.058 223.333 L
193.931 220.784 L
194.804 218.237 L
195.677 215.69 L
196.55 213.147 L
197.422 210.605 L
198.295 208.067 L
199.168 205.533 L
200.041 203.002 L
200.914 200.476 L
201.787 197.956 L
202.66 195.44 L
203.533 192.931 L
204.406 190.429 L
205.279 187.933 L
206.152 185.444 L
207.025 182.964 L
207.898 180.491 L
208.771 178.028 L
209.644 175.573 L
210.517 173.128 L
S
GR
GS
0.929 0.694 0.125 RC
1 LJ
2 LW
N
209.644 175.573 M
210.517 173.128 L
211.39 170.693 L
212.263 168.269 L
213.136 165.855 L
214.009 163.453 L
214.882 161.062 L
215.755 158.683 L
216.628 156.317 L
217.501 153.964 L
218.374 151.624 L
219.247 149.298 L
220.12 146.986 L
220.993 144.688 L
221.866 142.405 L
222.738 140.137 L
223.611 137.885 L
224.484 135.648 L
225.357 133.428 L
226.23 131.225 L
227.103 129.039 L
227.976 126.869 L
228.849 124.718 L
229.722 122.585 L
230.595 120.47 L
231.468 118.373 L
232.341 116.296 L
233.214 114.238 L
234.087 112.2 L
234.96 110.181 L
235.833 108.183 L
236.706 106.205 L
237.579 104.249 L
238.452 102.313 L
239.325 100.399 L
240.198 98.507 L
241.071 96.637 L
241.944 94.789 L
242.817 92.964 L
243.69 91.161 L
244.563 89.382 L
245.436 87.626 L
246.309 85.894 L
247.182 84.185 L
248.054 82.501 L
248.927 80.841 L
249.8 79.206 L
250.673 77.596 L
251.546 76.011 L
252.419 74.451 L
253.292 72.917 L
254.165 71.409 L
S
GR
GS
0.929 0.694 0.125 RC
1 LJ
2 LW
N
253.292 72.917 M
254.165 71.409 L
255.038 69.926 L
255.911 68.47 L
256.784 67.04 L
257.657 65.637 L
258.53 64.261 L
259.403 62.912 L
260.276 61.59 L
261.149 60.295 L
262.022 59.028 L
262.895 57.789 L
263.768 56.577 L
264.641 55.394 L
265.514 54.239 L
266.387 53.112 L
267.26 52.014 L
268.133 50.945 L
269.006 49.905 L
269.879 48.894 L
270.752 47.912 L
271.625 46.959 L
272.498 46.035 L
273.37 45.142 L
274.243 44.278 L
275.116 43.443 L
275.989 42.639 L
276.862 41.865 L
277.735 41.12 L
278.608 40.407 L
279.481 39.723 L
280.354 39.07 L
281.227 38.447 L
282.1 37.855 L
282.973 37.294 L
283.846 36.763 L
284.719 36.263 L
285.592 35.795 L
286.465 35.357 L
287.338 34.95 L
288.211 34.574 L
289.084 34.23 L
289.957 33.916 L
290.83 33.634 L
291.703 33.383 L
292.576 33.163 L
293.449 32.975 L
294.322 32.818 L
295.195 32.692 L
296.068 32.598 L
296.941 32.535 L
297.814 32.504 L
S
GR
GS
0.929 0.694 0.125 RC
1 LJ
2 LW
N
296.941 32.535 M
297.814 32.504 L
298.686 32.504 L
299.559 32.535 L
300.432 32.598 L
301.305 32.692 L
302.178 32.818 L
303.051 32.975 L
303.924 33.163 L
304.797 33.383 L
305.67 33.634 L
306.543 33.916 L
307.416 34.23 L
308.289 34.574 L
309.162 34.95 L
310.035 35.357 L
310.908 35.795 L
311.781 36.263 L
312.654 36.763 L
313.527 37.294 L
314.4 37.855 L
315.273 38.447 L
316.146 39.07 L
317.019 39.723 L
317.892 40.407 L
318.765 41.12 L
319.638 41.865 L
320.511 42.639 L
321.384 43.443 L
322.257 44.278 L
323.13 45.142 L
324.002 46.035 L
324.875 46.959 L
325.748 47.912 L
326.621 48.894 L
327.494 49.905 L
328.367 50.945 L
329.24 52.014 L
330.113 53.112 L
330.986 54.239 L
331.859 55.394 L
332.732 56.577 L
333.605 57.789 L
334.478 59.028 L
335.351 60.295 L
336.224 61.59 L
337.097 62.912 L
337.97 64.261 L
338.843 65.637 L
339.716 67.04 L
340.589 68.47 L
341.462 69.926 L
S
GR
GS
0.929 0.694 0.125 RC
1 LJ
2 LW
N
340.589 68.47 M
341.462 69.926 L
342.335 71.409 L
343.208 72.917 L
344.081 74.451 L
344.954 76.011 L
345.827 77.596 L
346.7 79.206 L
347.573 80.841 L
348.446 82.501 L
349.318 84.185 L
350.191 85.894 L
351.064 87.626 L
351.937 89.382 L
352.81 91.161 L
353.683 92.964 L
354.556 94.789 L
355.429 96.637 L
356.302 98.507 L
357.175 100.399 L
358.048 102.313 L
358.921 104.249 L
359.794 106.205 L
360.667 108.183 L
361.54 110.181 L
362.413 112.2 L
363.286 114.238 L
364.159 116.296 L
365.032 118.373 L
365.905 120.47 L
366.778 122.585 L
367.651 124.718 L
368.524 126.869 L
369.397 129.039 L
370.27 131.225 L
371.143 133.428 L
372.016 135.648 L
372.889 137.885 L
373.762 140.137 L
374.634 142.405 L
375.507 144.688 L
376.38 146.986 L
377.253 149.298 L
378.126 151.624 L
378.999 153.964 L
379.872 156.317 L
380.745 158.683 L
381.618 161.062 L
382.491 163.453 L
383.364 165.855 L
384.237 168.269 L
385.11 170.693 L
S
GR
GS
0.929 0.694 0.125 RC
1 LJ
2 LW
N
384.237 168.269 M
385.11 170.693 L
385.983 173.128 L
386.856 175.573 L
387.729 178.028 L
388.602 180.491 L
389.475 182.964 L
390.348 185.444 L
391.221 187.933 L
392.094 190.429 L
392.967 192.931 L
393.84 195.44 L
394.713 197.956 L
395.586 200.476 L
396.459 203.002 L
397.332 205.533 L
398.205 208.067 L
399.078 210.605 L
399.95 213.147 L
400.823 215.69 L
401.696 218.237 L
402.569 220.784 L
403.442 223.333 L
404.315 225.883 L
405.188 228.432 L
406.061 230.981 L
406.934 233.53 L
407.807 236.077 L
408.68 238.622 L
409.553 241.164 L
410.426 243.703 L
411.299 246.239 L
412.172 248.771 L
413.045 251.298 L
413.918 253.82 L
414.791 256.335 L
415.664 258.845 L
416.537 261.348 L
417.41 263.843 L
418.283 266.33 L
419.156 268.808 L
420.029 271.278 L
420.902 273.737 L
421.775 276.186 L
422.648 278.624 L
423.521 281.05 L
424.393 283.464 L
425.266 285.865 L
426.139 288.253 L
427.012 290.627 L
427.885 292.986 L
428.758 295.329 L
S
GR
GS
0.929 0.694 0.125 RC
1 LJ
2 LW
N
427.885 292.986 M
428.758 295.329 L
429.631 297.657 L
430.504 299.968 L
431.377 302.262 L
432.25 304.538 L
433.123 306.795 L
433.996 309.033 L
434.869 311.252 L
435.742 313.45 L
436.615 315.627 L
437.488 317.782 L
438.361 319.914 L
439.234 322.023 L
440.107 324.109 L
440.98 326.169 L
441.853 328.205 L
442.726 330.215 L
443.599 332.198 L
444.472 334.153 L
445.345 336.081 L
446.218 337.98 L
447.091 339.849 L
447.964 341.688 L
448.837 343.496 L
449.71 345.273 L
450.582 347.017 L
451.455 348.728 L
452.328 350.405 L
453.201 352.048 L
454.074 353.655 L
454.947 355.226 L
455.82 356.761 L
456.693 358.257 L
457.566 359.715 L
458.439 361.134 L
459.312 362.513 L
460.185 363.852 L
461.058 365.148 L
461.931 366.403 L
462.804 367.614 L
463.677 368.782 L
464.55 369.905 L
465.423 370.982 L
466.296 372.013 L
467.169 372.997 L
468.042 373.933 L
468.915 374.82 L
469.788 375.657 L
470.661 376.444 L
471.534 377.18 L
472.407 377.864 L
S
GR
GS
0.929 0.694 0.125 RC
1 LJ
2 LW
N
471.534 377.18 M
472.407 377.864 L
473.28 378.495 L
474.153 379.072 L
475.026 379.594 L
475.898 380.061 L
476.771 380.471 L
477.644 380.825 L
478.517 381.12 L
479.39 381.356 L
480.263 381.532 L
481.136 381.648 L
482.009 381.702 L
482.882 381.694 L
483.755 381.622 L
484.628 381.486 L
485.501 381.284 L
486.374 381.017 L
487.247 380.682 L
488.12 380.28 L
488.993 379.809 L
489.866 379.268 L
490.739 378.656 L
491.612 377.973 L
492.485 377.217 L
493.358 376.387 L
494.231 375.483 L
495.104 374.504 L
495.977 373.448 L
496.85 372.315 L
497.723 371.104 L
498.596 369.813 L
499.469 368.442 L
500.341 366.99 L
501.214 365.456 L
502.087 363.839 L
502.96 362.138 L
503.833 360.351 L
504.706 358.478 L
505.579 356.518 L
506.452 354.47 L
507.325 352.333 L
508.198 350.106 L
509.071 347.787 L
509.944 345.377 L
510.817 342.873 L
511.69 340.274 L
512.563 337.581 L
513.436 334.791 L
514.309 331.904 L
515.182 328.918 L
516.055 325.833 L
S
GR
GS
0.929 0.694 0.125 RC
1 LJ
2 LW
N
515.182 328.918 M
516.055 325.833 L
S
GR
GS
0.494 0.184 0.557 RC
1 LJ
2 LW
N
80.445 325.833 M
81.318 324.204 L
82.191 322.633 L
83.064 321.119 L
83.937 319.661 L
84.81 318.258 L
85.683 316.91 L
86.556 315.615 L
87.429 314.374 L
88.302 313.185 L
89.175 312.048 L
90.048 310.961 L
90.921 309.925 L
91.794 308.938 L
92.667 308 L
93.54 307.109 L
94.413 306.266 L
95.286 305.469 L
96.158 304.719 L
97.031 304.013 L
97.904 303.351 L
98.777 302.734 L
99.65 302.159 L
100.523 301.627 L
101.396 301.136 L
102.269 300.686 L
103.142 300.276 L
104.015 299.906 L
104.888 299.575 L
105.761 299.282 L
106.634 299.026 L
107.507 298.808 L
108.38 298.625 L
109.253 298.478 L
110.126 298.366 L
110.999 298.288 L
111.872 298.244 L
112.745 298.233 L
113.618 298.254 L
114.491 298.307 L
115.364 298.391 L
116.237 298.505 L
117.11 298.649 L
117.983 298.822 L
118.856 299.024 L
119.729 299.254 L
120.602 299.511 L
121.474 299.795 L
122.347 300.105 L
123.22 300.441 L
S
GR
GS
0.494 0.184 0.557 RC
1 LJ
2 LW
N
122.347 300.105 M
123.22 300.441 L
124.093 300.801 L
124.966 301.186 L
125.839 301.595 L
126.712 302.026 L
127.585 302.481 L
128.458 302.957 L
129.331 303.455 L
130.204 303.974 L
131.077 304.513 L
131.95 305.072 L
132.823 305.65 L
133.696 306.247 L
134.569 306.862 L
135.442 307.494 L
136.315 308.143 L
137.188 308.809 L
138.061 309.491 L
138.934 310.189 L
139.807 310.901 L
140.68 311.627 L
141.553 312.368 L
142.426 313.121 L
143.299 313.888 L
144.172 314.667 L
145.045 315.457 L
145.918 316.259 L
146.79 317.072 L
147.663 317.895 L
148.536 318.728 L
149.409 319.57 L
150.282 320.421 L
151.155 321.28 L
152.028 322.148 L
152.901 323.022 L
153.774 323.904 L
154.647 324.792 L
155.52 325.686 L
156.393 326.586 L
157.266 327.491 L
158.139 328.4 L
159.012 329.314 L
159.885 330.232 L
160.758 331.153 L
161.631 332.076 L
162.504 333.003 L
163.377 333.931 L
164.25 334.861 L
165.123 335.792 L
165.996 336.724 L
166.869 337.656 L
S
GR
GS
0.494 0.184 0.557 RC
1 LJ
2 LW
N
165.996 336.724 M
166.869 337.656 L
167.742 338.589 L
168.615 339.521 L
169.488 340.452 L
170.361 341.381 L
171.234 342.31 L
172.106 343.236 L
172.979 344.159 L
173.852 345.08 L
174.725 345.998 L
175.598 346.912 L
176.471 347.823 L
177.344 348.729 L
178.217 349.63 L
179.09 350.527 L
179.963 351.418 L
180.836 352.303 L
181.709 353.182 L
182.582 354.055 L
183.455 354.922 L
184.328 355.781 L
185.201 356.632 L
186.074 357.476 L
186.947 358.312 L
187.82 359.139 L
188.693 359.958 L
189.566 360.768 L
190.439 361.568 L
191.312 362.358 L
192.185 363.139 L
193.058 363.909 L
193.931 364.669 L
194.804 365.418 L
195.677 366.156 L
196.55 366.882 L
197.422 367.597 L
198.295 368.3 L
199.168 368.99 L
200.041 369.668 L
200.914 370.333 L
201.787 370.985 L
202.66 371.624 L
203.533 372.249 L
204.406 372.86 L
205.279 373.457 L
206.152 374.04 L
207.025 374.608 L
207.898 375.162 L
208.771 375.7 L
209.644 376.223 L
210.517 376.73 L
S
GR
GS
0.494 0.184 0.557 RC
1 LJ
2 LW
N
209.644 376.223 M
210.517 376.73 L
211.39 377.222 L
212.263 377.698 L
213.136 378.158 L
214.009 378.601 L
214.882 379.028 L
215.755 379.438 L
216.628 379.831 L
217.501 380.207 L
218.374 380.565 L
219.247 380.906 L
220.12 381.229 L
220.993 381.534 L
221.866 381.821 L
222.738 382.09 L
223.611 382.34 L
224.484 382.572 L
225.357 382.784 L
226.23 382.978 L
227.103 383.153 L
227.976 383.309 L
228.849 383.445 L
229.722 383.561 L
230.595 383.658 L
231.468 383.735 L
232.341 383.792 L
233.214 383.829 L
234.087 383.845 L
234.96 383.842 L
235.833 383.817 L
236.706 383.773 L
237.579 383.707 L
238.452 383.621 L
239.325 383.514 L
240.198 383.385 L
241.071 383.236 L
241.944 383.066 L
242.817 382.874 L
243.69 382.661 L
244.563 382.426 L
245.436 382.17 L
246.309 381.892 L
247.182 381.592 L
248.054 381.271 L
248.927 380.928 L
249.8 380.563 L
250.673 380.176 L
251.546 379.767 L
252.419 379.336 L
253.292 378.883 L
254.165 378.408 L
S
GR
GS
0.494 0.184 0.557 RC
1 LJ
2 LW
N
253.292 378.883 M
254.165 378.408 L
255.038 377.911 L
255.911 377.391 L
256.784 376.85 L
257.657 376.286 L
258.53 375.699 L
259.403 375.091 L
260.276 374.46 L
261.149 373.807 L
262.022 373.132 L
262.895 372.434 L
263.768 371.714 L
264.641 370.971 L
265.514 370.206 L
266.387 369.419 L
267.26 368.61 L
268.133 367.778 L
269.006 366.924 L
269.879 366.048 L
270.752 365.15 L
271.625 364.229 L
272.498 363.286 L
273.37 362.322 L
274.243 361.335 L
275.116 360.326 L
275.989 359.295 L
276.862 358.242 L
277.735 357.168 L
278.608 356.072 L
279.481 354.953 L
280.354 353.814 L
281.227 352.653 L
282.1 351.47 L
282.973 350.266 L
283.846 349.04 L
284.719 347.794 L
285.592 346.526 L
286.465 345.237 L
287.338 343.927 L
288.211 342.596 L
289.084 341.245 L
289.957 339.873 L
290.83 338.48 L
291.703 337.068 L
292.576 335.634 L
293.449 334.181 L
294.322 332.708 L
295.195 331.214 L
296.068 329.701 L
296.941 328.169 L
297.814 326.617 L
S
GR
GS
0.494 0.184 0.557 RC
1 LJ
2 LW
N
296.941 328.169 M
297.814 326.617 L
298.686 325.045 L
299.559 323.455 L
300.432 321.845 L
301.305 320.217 L
302.178 318.57 L
303.051 316.904 L
303.924 315.22 L
304.797 313.518 L
305.67 311.798 L
306.543 310.06 L
307.416 308.304 L
308.289 306.531 L
309.162 304.741 L
310.035 302.933 L
310.908 301.109 L
311.781 299.268 L
312.654 297.411 L
313.527 295.537 L
314.4 293.648 L
315.273 291.742 L
316.146 289.821 L
317.019 287.885 L
317.892 285.933 L
318.765 283.967 L
319.638 281.986 L
320.511 279.991 L
321.384 277.981 L
322.257 275.958 L
323.13 273.92 L
324.002 271.87 L
324.875 269.806 L
325.748 267.729 L
326.621 265.64 L
327.494 263.538 L
328.367 261.424 L
329.24 259.299 L
330.113 257.162 L
330.986 255.014 L
331.859 252.854 L
332.732 250.684 L
333.605 248.504 L
334.478 246.314 L
335.351 244.113 L
336.224 241.904 L
337.097 239.685 L
337.97 237.458 L
338.843 235.221 L
339.716 232.977 L
340.589 230.725 L
341.462 228.465 L
S
GR
GS
0.494 0.184 0.557 RC
1 LJ
2 LW
N
340.589 230.725 M
341.462 228.465 L
342.335 226.199 L
343.208 223.925 L
344.081 221.645 L
344.954 219.358 L
345.827 217.066 L
346.7 214.768 L
347.573 212.465 L
348.446 210.158 L
349.318 207.846 L
350.191 205.53 L
351.064 203.21 L
351.937 200.887 L
352.81 198.561 L
353.683 196.233 L
354.556 193.902 L
355.429 191.57 L
356.302 189.236 L
357.175 186.901 L
358.048 184.566 L
358.921 182.231 L
359.794 179.896 L
360.667 177.561 L
361.54 175.228 L
362.413 172.896 L
363.286 170.566 L
364.159 168.238 L
365.032 165.913 L
365.905 163.591 L
366.778 161.273 L
367.651 158.959 L
368.524 156.65 L
369.397 154.345 L
370.27 152.046 L
371.143 149.753 L
372.016 147.466 L
372.889 145.186 L
373.762 142.913 L
374.634 140.648 L
375.507 138.391 L
376.38 136.143 L
377.253 133.904 L
378.126 131.674 L
378.999 129.455 L
379.872 127.247 L
380.745 125.049 L
381.618 122.863 L
382.491 120.69 L
383.364 118.529 L
384.237 116.381 L
385.11 114.246 L
S
GR
GS
0.494 0.184 0.557 RC
1 LJ
2 LW
N
384.237 116.381 M
385.11 114.246 L
385.983 112.126 L
386.856 110.021 L
387.729 107.931 L
388.602 105.857 L
389.475 103.799 L
390.348 101.758 L
391.221 99.734 L
392.094 97.728 L
392.967 95.741 L
393.84 93.772 L
394.713 91.823 L
395.586 89.895 L
396.459 87.987 L
397.332 86.1 L
398.205 84.235 L
399.078 82.393 L
399.95 80.573 L
400.823 78.778 L
401.696 77.006 L
402.569 75.259 L
403.442 73.537 L
404.315 71.842 L
405.188 70.173 L
406.061 68.531 L
406.934 66.917 L
407.807 65.331 L
408.68 63.774 L
409.553 62.246 L
410.426 60.749 L
411.299 59.283 L
412.172 57.848 L
413.045 56.446 L
413.918 55.076 L
414.791 53.739 L
415.664 52.437 L
416.537 51.169 L
417.41 49.937 L
418.283 48.74 L
419.156 47.58 L
420.029 46.458 L
420.902 45.373 L
421.775 44.328 L
422.648 43.321 L
423.521 42.354 L
424.393 41.429 L
425.266 40.544 L
426.139 39.702 L
427.012 38.902 L
427.885 38.146 L
428.758 37.434 L
S
GR
GS
0.494 0.184 0.557 RC
1 LJ
2 LW
N
427.885 38.146 M
428.758 37.434 L
429.631 36.766 L
430.504 36.145 L
431.377 35.569 L
432.25 35.041 L
433.123 34.56 L
433.996 34.128 L
434.869 33.745 L
435.742 33.411 L
436.615 33.129 L
437.488 32.897 L
438.361 32.718 L
439.234 32.592 L
440.107 32.519 L
440.98 32.501 L
441.853 32.537 L
442.726 32.63 L
443.599 32.779 L
444.472 32.986 L
445.345 33.25 L
446.218 33.574 L
447.091 33.958 L
447.964 34.401 L
448.837 34.907 L
449.71 35.474 L
450.582 36.104 L
451.455 36.798 L
452.328 37.556 L
453.201 38.379 L
454.074 39.269 L
454.947 40.225 L
455.82 41.249 L
456.693 42.342 L
457.566 43.504 L
458.439 44.736 L
459.312 46.039 L
460.185 47.415 L
461.058 48.862 L
461.931 50.383 L
462.804 51.979 L
463.677 53.65 L
464.55 55.396 L
465.423 57.22 L
466.296 59.122 L
467.169 61.102 L
468.042 63.162 L
468.915 65.302 L
469.788 67.523 L
470.661 69.826 L
471.534 72.213 L
472.407 74.683 L
S
GR
GS
0.494 0.184 0.557 RC
1 LJ
2 LW
N
471.534 72.213 M
472.407 74.683 L
473.28 77.238 L
474.153 79.879 L
475.026 82.606 L
475.898 85.421 L
476.771 88.324 L
477.644 91.317 L
478.517 94.4 L
479.39 97.573 L
480.263 100.839 L
481.136 104.198 L
482.009 107.651 L
482.882 111.198 L
483.755 114.842 L
484.628 118.582 L
485.501 122.419 L
486.374 126.356 L
487.247 130.391 L
488.12 134.527 L
488.993 138.765 L
489.866 143.105 L
490.739 147.549 L
491.612 152.096 L
492.485 156.749 L
493.358 161.509 L
494.231 166.375 L
495.104 171.35 L
495.977 176.434 L
496.85 181.628 L
497.723 186.933 L
498.596 192.351 L
499.469 197.882 L
500.341 203.527 L
501.214 209.287 L
502.087 215.164 L
502.96 221.157 L
503.833 227.269 L
504.706 233.5 L
505.579 239.852 L
506.452 246.325 L
507.325 252.92 L
508.198 259.639 L
509.071 266.482 L
509.944 273.45 L
510.817 280.546 L
511.69 287.768 L
512.563 295.12 L
513.436 302.601 L
514.309 310.213 L
515.182 317.957 L
516.055 325.833 L
S
GR
GS
0.494 0.184 0.557 RC
1 LJ
2 LW
N
515.182 317.957 M
516.055 325.833 L
S
GR
GS
0.467 0.675 0.188 RC
1 LJ
2 LW
N
80.445 325.833 M
81.318 326.411 L
82.191 326.967 L
83.064 327.503 L
83.937 328.018 L
84.81 328.514 L
85.683 328.989 L
86.556 329.446 L
87.429 329.883 L
88.302 330.301 L
89.175 330.7 L
90.048 331.082 L
90.921 331.445 L
91.794 331.791 L
92.667 332.119 L
93.54 332.429 L
94.413 332.723 L
95.286 333.001 L
96.158 333.262 L
97.031 333.506 L
97.904 333.735 L
98.777 333.949 L
99.65 334.147 L
100.523 334.33 L
101.396 334.498 L
102.269 334.652 L
103.142 334.791 L
104.015 334.917 L
104.888 335.028 L
105.761 335.126 L
106.634 335.211 L
107.507 335.283 L
108.38 335.343 L
109.253 335.389 L
110.126 335.424 L
110.999 335.446 L
111.872 335.457 L
112.745 335.456 L
113.618 335.444 L
114.491 335.421 L
115.364 335.387 L
116.237 335.342 L
117.11 335.287 L
117.983 335.222 L
118.856 335.147 L
119.729 335.063 L
120.602 334.969 L
121.474 334.865 L
122.347 334.753 L
123.22 334.632 L
S
GR
GS
0.467 0.675 0.188 RC
1 LJ
2 LW
N
122.347 334.753 M
123.22 334.632 L
124.093 334.503 L
124.966 334.365 L
125.839 334.219 L
126.712 334.065 L
127.585 333.904 L
128.458 333.735 L
129.331 333.559 L
130.204 333.375 L
131.077 333.185 L
131.95 332.989 L
132.823 332.786 L
133.696 332.576 L
134.569 332.361 L
135.442 332.14 L
136.315 331.913 L
137.188 331.681 L
138.061 331.443 L
138.934 331.201 L
139.807 330.954 L
140.68 330.702 L
141.553 330.445 L
142.426 330.185 L
143.299 329.92 L
144.172 329.651 L
145.045 329.379 L
145.918 329.103 L
146.79 328.823 L
147.663 328.541 L
148.536 328.255 L
149.409 327.967 L
150.282 327.676 L
151.155 327.382 L
152.028 327.087 L
152.901 326.789 L
153.774 326.489 L
154.647 326.187 L
155.52 325.883 L
156.393 325.578 L
157.266 325.272 L
158.139 324.964 L
159.012 324.656 L
159.885 324.346 L
160.758 324.036 L
161.631 323.726 L
162.504 323.414 L
163.377 323.103 L
164.25 322.792 L
165.123 322.48 L
165.996 322.169 L
166.869 321.858 L
S
GR
GS
0.467 0.675 0.188 RC
1 LJ
2 LW
N
165.996 322.169 M
166.869 321.858 L
167.742 321.547 L
168.615 321.237 L
169.488 320.928 L
170.361 320.62 L
171.234 320.312 L
172.106 320.006 L
172.979 319.701 L
173.852 319.398 L
174.725 319.096 L
175.598 318.795 L
176.471 318.497 L
177.344 318.2 L
178.217 317.905 L
179.09 317.613 L
179.963 317.322 L
180.836 317.035 L
181.709 316.749 L
182.582 316.466 L
183.455 316.186 L
184.328 315.909 L
185.201 315.635 L
186.074 315.363 L
186.947 315.095 L
187.82 314.83 L
188.693 314.569 L
189.566 314.311 L
190.439 314.056 L
191.312 313.805 L
192.185 313.558 L
193.058 313.315 L
193.931 313.076 L
194.804 312.841 L
195.677 312.609 L
196.55 312.383 L
197.422 312.16 L
198.295 311.942 L
199.168 311.728 L
200.041 311.519 L
200.914 311.314 L
201.787 311.114 L
202.66 310.919 L
203.533 310.729 L
204.406 310.543 L
205.279 310.363 L
206.152 310.188 L
207.025 310.018 L
207.898 309.853 L
208.771 309.693 L
209.644 309.539 L
210.517 309.39 L
S
GR
GS
0.467 0.675 0.188 RC
1 LJ
2 LW
N
209.644 309.539 M
210.517 309.39 L
211.39 309.247 L
212.263 309.109 L
213.136 308.977 L
214.009 308.85 L
214.882 308.729 L
215.755 308.614 L
216.628 308.505 L
217.501 308.401 L
218.374 308.304 L
219.247 308.212 L
220.12 308.127 L
220.993 308.047 L
221.866 307.974 L
222.738 307.906 L
223.611 307.845 L
224.484 307.79 L
225.357 307.741 L
226.23 307.699 L
227.103 307.663 L
227.976 307.633 L
228.849 307.609 L
229.722 307.592 L
230.595 307.581 L
231.468 307.577 L
232.341 307.579 L
233.214 307.588 L
234.087 307.603 L
234.96 307.625 L
235.833 307.653 L
236.706 307.688 L
237.579 307.73 L
238.452 307.778 L
239.325 307.832 L
240.198 307.894 L
241.071 307.961 L
241.944 308.036 L
242.817 308.117 L
243.69 308.205 L
244.563 308.299 L
245.436 308.4 L
246.309 308.508 L
247.182 308.622 L
248.054 308.743 L
248.927 308.87 L
249.8 309.004 L
250.673 309.145 L
251.546 309.292 L
252.419 309.446 L
253.292 309.606 L
254.165 309.773 L
S
GR
GS
0.467 0.675 0.188 RC
1 LJ
2 LW
N
253.292 309.606 M
254.165 309.773 L
255.038 309.946 L
255.911 310.126 L
256.784 310.312 L
257.657 310.505 L
258.53 310.704 L
259.403 310.91 L
260.276 311.122 L
261.149 311.34 L
262.022 311.565 L
262.895 311.796 L
263.768 312.033 L
264.641 312.276 L
265.514 312.526 L
266.387 312.781 L
267.26 313.043 L
268.133 313.311 L
269.006 313.585 L
269.879 313.865 L
270.752 314.15 L
271.625 314.442 L
272.498 314.739 L
273.37 315.042 L
274.243 315.351 L
275.116 315.666 L
275.989 315.986 L
276.862 316.312 L
277.735 316.643 L
278.608 316.979 L
279.481 317.321 L
280.354 317.669 L
281.227 318.021 L
282.1 318.379 L
282.973 318.741 L
283.846 319.109 L
284.719 319.482 L
285.592 319.86 L
286.465 320.242 L
287.338 320.629 L
288.211 321.021 L
289.084 321.417 L
289.957 321.818 L
290.83 322.223 L
291.703 322.633 L
292.576 323.047 L
293.449 323.465 L
294.322 323.887 L
295.195 324.313 L
296.068 324.742 L
296.941 325.176 L
297.814 325.613 L
S
GR
GS
0.467 0.675 0.188 RC
1 LJ
2 LW
N
296.941 325.176 M
297.814 325.613 L
298.686 326.054 L
299.559 326.499 L
300.432 326.946 L
301.305 327.397 L
302.178 327.852 L
303.051 328.309 L
303.924 328.769 L
304.797 329.232 L
305.67 329.698 L
306.543 330.166 L
307.416 330.637 L
308.289 331.111 L
309.162 331.587 L
310.035 332.064 L
310.908 332.544 L
311.781 333.026 L
312.654 333.51 L
313.527 333.995 L
314.4 334.482 L
315.273 334.97 L
316.146 335.46 L
317.019 335.951 L
317.892 336.443 L
318.765 336.935 L
319.638 337.429 L
320.511 337.923 L
321.384 338.417 L
322.257 338.912 L
323.13 339.408 L
324.002 339.903 L
324.875 340.398 L
325.748 340.893 L
326.621 341.387 L
327.494 341.881 L
328.367 342.375 L
329.24 342.867 L
330.113 343.359 L
330.986 343.849 L
331.859 344.338 L
332.732 344.826 L
333.605 345.311 L
334.478 345.796 L
335.351 346.278 L
336.224 346.758 L
337.097 347.236 L
337.97 347.711 L
338.843 348.184 L
339.716 348.654 L
340.589 349.121 L
341.462 349.585 L
S
GR
GS
0.467 0.675 0.188 RC
1 LJ
2 LW
N
340.589 349.121 M
341.462 349.585 L
342.335 350.045 L
343.208 350.502 L
344.081 350.956 L
344.954 351.405 L
345.827 351.85 L
346.7 352.292 L
347.573 352.728 L
348.446 353.161 L
349.318 353.588 L
350.191 354.01 L
351.064 354.428 L
351.937 354.84 L
352.81 355.246 L
353.683 355.646 L
354.556 356.041 L
355.429 356.429 L
356.302 356.811 L
357.175 357.187 L
358.048 357.555 L
358.921 357.917 L
359.794 358.271 L
360.667 358.618 L
361.54 358.958 L
362.413 359.289 L
363.286 359.613 L
364.159 359.928 L
365.032 360.235 L
365.905 360.533 L
366.778 360.822 L
367.651 361.102 L
368.524 361.373 L
369.397 361.634 L
370.27 361.885 L
371.143 362.127 L
372.016 362.357 L
372.889 362.578 L
373.762 362.787 L
374.634 362.986 L
375.507 363.173 L
376.38 363.349 L
377.253 363.514 L
378.126 363.666 L
378.999 363.806 L
379.872 363.934 L
380.745 364.049 L
381.618 364.151 L
382.491 364.24 L
383.364 364.315 L
384.237 364.377 L
385.11 364.424 L
S
GR
GS
0.467 0.675 0.188 RC
1 LJ
2 LW
N
384.237 364.377 M
385.11 364.424 L
385.983 364.458 L
386.856 364.477 L
387.729 364.482 L
388.602 364.471 L
389.475 364.445 L
390.348 364.404 L
391.221 364.347 L
392.094 364.274 L
392.967 364.184 L
393.84 364.078 L
394.713 363.955 L
395.586 363.815 L
396.459 363.658 L
397.332 363.483 L
398.205 363.29 L
399.078 363.078 L
399.95 362.848 L
400.823 362.6 L
401.696 362.332 L
402.569 362.045 L
403.442 361.738 L
404.315 361.411 L
405.188 361.065 L
406.061 360.697 L
406.934 360.309 L
407.807 359.899 L
408.68 359.468 L
409.553 359.016 L
410.426 358.541 L
411.299 358.044 L
412.172 357.524 L
413.045 356.982 L
413.918 356.416 L
414.791 355.827 L
415.664 355.214 L
416.537 354.576 L
417.41 353.914 L
418.283 353.227 L
419.156 352.516 L
420.029 351.778 L
420.902 351.015 L
421.775 350.226 L
422.648 349.411 L
423.521 348.568 L
424.393 347.699 L
425.266 346.802 L
426.139 345.878 L
427.012 344.925 L
427.885 343.944 L
428.758 342.935 L
S
GR
GS
0.467 0.675 0.188 RC
1 LJ
2 LW
N
427.885 343.944 M
428.758 342.935 L
429.631 341.896 L
430.504 340.828 L
431.377 339.73 L
432.25 338.602 L
433.123 337.444 L
433.996 336.255 L
434.869 335.035 L
435.742 333.783 L
436.615 332.5 L
437.488 331.184 L
438.361 329.836 L
439.234 328.456 L
440.107 327.041 L
440.98 325.594 L
441.853 324.112 L
442.726 322.596 L
443.599 321.046 L
444.472 319.46 L
445.345 317.839 L
446.218 316.183 L
447.091 314.49 L
447.964 312.761 L
448.837 310.995 L
449.71 309.191 L
450.582 307.35 L
451.455 305.472 L
452.328 303.554 L
453.201 301.598 L
454.074 299.603 L
454.947 297.569 L
455.82 295.494 L
456.693 293.38 L
457.566 291.224 L
458.439 289.028 L
459.312 286.79 L
460.185 284.511 L
461.058 282.189 L
461.931 279.824 L
462.804 277.417 L
463.677 274.966 L
464.55 272.472 L
465.423 269.933 L
466.296 267.349 L
467.169 264.721 L
468.042 262.047 L
468.915 259.328 L
469.788 256.562 L
470.661 253.749 L
471.534 250.89 L
472.407 247.983 L
S
GR
GS
0.467 0.675 0.188 RC
1 LJ
2 LW
N
471.534 250.89 M
472.407 247.983 L
473.28 245.028 L
474.153 242.025 L
475.026 238.973 L
475.898 235.872 L
476.771 232.721 L
477.644 229.52 L
478.517 226.269 L
479.39 222.968 L
480.263 219.614 L
481.136 216.21 L
482.009 212.753 L
482.882 209.243 L
483.755 205.681 L
484.628 202.065 L
485.501 198.395 L
486.374 194.671 L
487.247 190.892 L
488.12 187.058 L
488.993 183.169 L
489.866 179.223 L
490.739 175.221 L
491.612 171.161 L
492.485 167.045 L
493.358 162.87 L
494.231 158.638 L
495.104 154.346 L
495.977 149.995 L
496.85 145.584 L
497.723 141.114 L
498.596 136.582 L
499.469 131.99 L
500.341 127.336 L
501.214 122.62 L
502.087 117.842 L
502.96 113 L
503.833 108.095 L
504.706 103.126 L
505.579 98.093 L
506.452 92.995 L
507.325 87.832 L
508.198 82.603 L
509.071 77.308 L
509.944 71.945 L
510.817 66.516 L
511.69 61.019 L
512.563 55.454 L
513.436 49.819 L
514.309 44.116 L
515.182 38.343 L
516.055 32.5 L
S
GR
GS
0.467 0.675 0.188 RC
1 LJ
2 LW
N
515.182 38.343 M
516.055 32.5 L
S
GR
GS
0.49 1 0.631 RC
N
88.5 32.5 M
87.428 28.5 L
84.5 25.572 L
80.5 24.5 L
76.5 25.572 L
73.572 28.5 L
72.5 32.5 L
73.572 36.5 L
76.5 39.428 L
80.5 40.5 L
84.5 39.428 L
87.428 36.5 L
88.5 32.5 L
cp
f
GR
GS
1 LJ
2 LW
N
88.5 32.5 M
87.708 29.029 L
85.488 26.245 L
82.28 24.701 L
78.72 24.701 L
75.512 26.245 L
73.292 29.029 L
72.5 32.5 L
73.292 35.971 L
75.512 38.755 L
78.72 40.299 L
82.28 40.299 L
85.488 38.755 L
87.708 35.971 L
cp
S
GR
GS
0.49 1 0.631 RC
N
163.5 32.5 M
162.428 28.5 L
159.5 25.572 L
155.5 24.5 L
151.5 25.572 L
148.572 28.5 L
147.5 32.5 L
148.572 36.5 L
151.5 39.428 L
155.5 40.5 L
159.5 39.428 L
162.428 36.5 L
163.5 32.5 L
cp
f
GR
GS
1 LJ
2 LW
N
163.5 32.5 M
162.708 29.029 L
160.488 26.245 L
157.28 24.701 L
153.72 24.701 L
150.512 26.245 L
148.292 29.029 L
147.5 32.5 L
148.292 35.971 L
150.512 38.755 L
153.72 40.299 L
157.28 40.299 L
160.488 38.755 L
162.708 35.971 L
cp
S
GR
GS
0.49 1 0.631 RC
N
306.5 32.5 M
305.428 28.5 L
302.5 25.572 L
298.5 24.5 L
294.5 25.572 L
291.572 28.5 L
290.5 32.5 L
291.572 36.5 L
294.5 39.428 L
298.5 40.5 L
302.5 39.428 L
305.428 36.5 L
306.5 32.5 L
cp
f
GR
GS
1 LJ
2 LW
N
306.5 32.5 M
305.708 29.029 L
303.488 26.245 L
300.28 24.701 L
296.72 24.701 L
293.512 26.245 L
291.292 29.029 L
290.5 32.5 L
291.292 35.971 L
293.512 38.755 L
296.72 40.299 L
300.28 40.299 L
303.488 38.755 L
305.708 35.971 L
cp
S
GR
GS
0.49 1 0.631 RC
N
448.5 32.5 M
447.428 28.5 L
444.5 25.572 L
440.5 24.5 L
436.5 25.572 L
433.572 28.5 L
432.5 32.5 L
433.572 36.5 L
436.5 39.428 L
440.5 40.5 L
444.5 39.428 L
447.428 36.5 L
448.5 32.5 L
cp
f
GR
GS
1 LJ
2 LW
N
448.5 32.5 M
447.708 29.029 L
445.488 26.245 L
442.28 24.701 L
438.72 24.701 L
435.512 26.245 L
433.292 29.029 L
432.5 32.5 L
433.292 35.971 L
435.512 38.755 L
438.72 40.299 L
442.28 40.299 L
445.488 38.755 L
447.708 35.971 L
cp
S
GR
GS
0.49 1 0.631 RC
N
524.5 32.5 M
523.428 28.5 L
520.5 25.572 L
516.5 24.5 L
512.5 25.572 L
509.572 28.5 L
508.5 32.5 L
509.572 36.5 L
512.5 39.428 L
516.5 40.5 L
520.5 39.428 L
523.428 36.5 L
524.5 32.5 L
cp
f
GR
GS
1 LJ
2 LW
N
524.5 32.5 M
523.708 29.029 L
521.488 26.245 L
518.28 24.701 L
514.72 24.701 L
511.512 26.245 L
509.292 29.029 L
508.5 32.5 L
509.292 35.971 L
511.512 38.755 L
514.72 40.299 L
518.28 40.299 L
521.488 38.755 L
523.708 35.971 L
cp
S
GR
%%Trailer
%%Pages: 1
%%EOF
