\relax 
\providecommand\hyper@newdestlabel[2]{}
\providecommand\HyperFirstAtBeginDocument{\AtBeginDocument}
\HyperFirstAtBeginDocument{\ifx\hyper@anchor\@undefined
\global\let\oldcontentsline\contentsline
\gdef\contentsline#1#2#3#4{\oldcontentsline{#1}{#2}{#3}}
\global\let\oldnewlabel\newlabel
\gdef\newlabel#1#2{\newlabelxx{#1}#2}
\gdef\newlabelxx#1#2#3#4#5#6{\oldnewlabel{#1}{{#2}{#3}}}
\AtEndDocument{\ifx\hyper@anchor\@undefined
\let\contentsline\oldcontentsline
\let\newlabel\oldnewlabel
\fi}
\fi}
\global\let\hyper@last\relax 
\gdef\HyperFirstAtBeginDocument#1{#1}
\providecommand\HyField@AuxAddToFields[1]{}
\providecommand\HyField@AuxAddToCoFields[2]{}
\emailauthor{ks81@rice.edu}{Khemraj Shukla\corref {cor}}
\emailauthor{jesse.chan@rice.edu}{Jesse Chan \corref {}}
\emailauthor{mdehoop@rice.edu}{Maarten V. de Hoop \corref {}}
\emailauthor{ruichao.ye@gmail.com}{Ruichao Ye \corref {}}
\citation{lemoine2013,lemoine2016}
\citation{chan2017IV}
\citation{morency2008}
\Newlabel{cor}{1}
\citation{biot1956,biot1962}
\citation{biot1962,carcione1995,ozdenvar1997}
\citation{carcione1996}
\citation{johnson1987}
\@writefile{toc}{\contentsline {section}{\numberline {1}Introduction}{1}{section.1}}
\citation{stern1985,yamamoto1988}
\citation{rosenbaum1974}
\citation{carcione2010}
\citation{carcione2010}
\citation{carcione1995,carcione1996}
\citation{ozdenvar1997}
\citation{garg1974,dai1995}
\citation{santos1986}
\citation{lemoine2013}
\citation{hesthaven2007,klockner2009}
\citation{ainsworth2004}
\citation{hesthaven2007,wilcox2010}
\citation{kaser2007,de2007,ye2016}
\citation{de2008}
\citation{ward2017}
\citation{ye2016}
\citation{chan2017I}
\citation{mercerat2015}
\citation{chan2017I}
\citation{biot1956I,biot1956II,biot1962}
\citation{carcione2014}
\citation{biot1956I,biot1956II,biot1962}
\citation{carcione2014}
\citation{biot1956I,biot1956II,biot1962}
\@writefile{toc}{\contentsline {section}{\numberline {2}System of equations describing porelastic waves}{3}{section.2}}
\newlabel{sec:intro}{{2}{3}{System of equations describing porelastic waves}{section.2}{}}
\@writefile{toc}{\contentsline {subsection}{\numberline {2.1}Constitutive Equations}{3}{subsection.2.1}}
\newlabel{eq 1}{{1}{3}{Constitutive Equations}{equation.2.1}{}}
\newlabel{eq 2}{{2}{3}{Constitutive Equations}{equation.2.2}{}}
\@writefile{toc}{\contentsline {subsection}{\numberline {2.2}Dynamical equations and Darcy's law}{3}{subsection.2.2}}
\newlabel{eq 3}{{3}{3}{Dynamical equations and Darcy's law}{equation.2.3}{}}
\newlabel{eq 4}{{4}{4}{Dynamical equations and Darcy's law}{equation.2.4}{}}
\newlabel{eq 5}{{5}{4}{Dynamical equations and Darcy's law}{equation.2.5}{}}
\newlabel{eq 6}{{6}{4}{Dynamical equations and Darcy's law}{equation.2.6}{}}
\@writefile{toc}{\contentsline {subsection}{\numberline {2.3}The system of equations in matrix form}{4}{subsection.2.3}}
\newlabel{eq 7}{{7}{4}{The system of equations in matrix form}{equation.2.7}{}}
\@writefile{toc}{\contentsline {subsection}{\numberline {2.4}Symmetric form of system of poroelastic wave equations}{5}{subsection.2.4}}
\newlabel{eq8}{{8}{5}{Symmetric form of system of poroelastic wave equations}{equation.2.8}{}}
\newlabel{eq9}{{9}{5}{Symmetric form of system of poroelastic wave equations}{equation.2.9}{}}
\citation{carcione1996}
\citation{deresiewicz1963}
\citation{gurevich1999}
\citation{deresiewicz1963}
\citation{gurevich1999}
\citation{gurevich1999}
\citation{chan2017I}
\newlabel{eq 10}{{10}{7}{Symmetric form of system of poroelastic wave equations}{equation.2.10}{}}
\@writefile{toc}{\contentsline {subsection}{\numberline {2.5}Interface conditions}{7}{subsection.2.5}}
\newlabel{eq11}{{11}{7}{Interface conditions}{equation.2.11}{}}
\newlabel{eq12}{{12}{7}{Interface conditions}{equation.2.12}{}}
\newlabel{eq13}{{13}{7}{Interface conditions}{equation.2.13}{}}
\newlabel{eq14}{{14}{7}{Interface conditions}{equation.2.14}{}}
\citation{chan2017II,chan2017I}
\@writefile{toc}{\contentsline {section}{\numberline {3}An energy stable discontinuous Galerkin formulation for poroelastic wave propgation}{8}{section.3}}
\newlabel{sec:ESdG}{{3}{8}{An energy stable discontinuous Galerkin formulation for poroelastic wave propgation}{section.3}{}}
\citation{hesthaven2007}
\newlabel{eq17}{{15}{9}{An energy stable discontinuous Galerkin formulation for poroelastic wave propgation}{equation.3.15}{}}
\@writefile{toc}{\contentsline {subsection}{\numberline {3.1}Variational crime}{9}{subsection.3.1}}
\@writefile{toc}{\contentsline {subsection}{\numberline {3.2}Boundary conditions}{9}{subsection.3.2}}
\citation{zeng2001}
\citation{hagstrom2004,modave2017}
\citation{zeng2001}
\@writefile{toc}{\contentsline {subsection}{\numberline {3.3}Energy stability}{10}{subsection.3.3}}
\newlabel{eq18}{{16}{10}{Energy stability}{equation.3.16}{}}
\citation{hesthaven2007}
\newlabel{eq:th1}{{16}{11}{}{equation.3.16}{}}
\@writefile{toc}{\contentsline {subsection}{\numberline {3.4}The semi-discrete matrix system for DG}{11}{subsection.3.4}}
\newlabel{eq19}{{17}{11}{The semi-discrete matrix system for DG}{equation.3.17}{}}
\newlabel{eq21}{{17}{12}{The semi-discrete matrix system for DG}{equation.3.17}{}}
\newlabel{eq22}{{18}{12}{The semi-discrete matrix system for DG}{equation.3.18}{}}
\citation{chan2017I}
\citation{chan2017III}
\citation{chan2017III}
\newlabel{eq 17}{{3.4}{13}{The semi-discrete matrix system for DG}{equation.3.20}{}}
\@writefile{toc}{\contentsline {section}{\numberline {4}Weight-adjusted discontinuous Galerkin (WADG) formulation for poroelastic wave propagation}{13}{section.4}}
\newlabel{sec:WADGForm}{{4}{13}{Weight-adjusted discontinuous Galerkin (WADG) formulation for poroelastic wave propagation}{section.4}{}}
\@writefile{toc}{\contentsline {subsection}{\numberline {4.1}Matrix weight-adjusted inner products}{13}{subsection.4.1}}
\citation{chan2017I}
\citation{chan2017I}
\@writefile{toc}{\contentsline {subsection}{\numberline {4.2}Weight-adjusted approximations with matrix weights}{14}{subsection.4.2}}
\newlabel{lem:1}{{1}{14}{}{lemma.1}{}}
\@writefile{toc}{\contentsline {subsection}{\numberline {4.3}Approximation of weighted mass matrix inverses}{14}{subsection.4.3}}
\citation{carcione1996}
\citation{carcione1996}
\citation{chan2017IV}
\citation{carpenter1994}
\@writefile{toc}{\contentsline {section}{\numberline {5}Numerical experiments}{15}{section.5}}
\newlabel{sec:results}{{5}{15}{Numerical experiments}{section.5}{}}
\newlabel{sec:num}{{5}{15}{Numerical experiments}{section.5}{}}
\citation{chan2016I}
\citation{chan2017II}
\@writefile{lot}{\contentsline {table}{\numberline {1}{\ignorespaces Material properties for several poroelastic media used in the examples \cite  {carcione1996}\relax }}{16}{table.caption.1}}
\newlabel{eqdt}{{21}{16}{Numerical experiments}{equation.5.21}{}}
\@writefile{toc}{\contentsline {subsection}{\numberline {5.1}Spectra and choice of penalty parameter}{16}{subsection.5.1}}
\citation{toro1999,de2008}
\providecommand*\caption@xref[2]{\@setref\relax\@undefined{#1}}
\newlabel{subfig:central flux}{{1a}{17}{Subfigure 1a}{subfigure.1.1}{}}
\newlabel{sub@subfig:central flux}{{(a)}{a}{Subfigure 1a\relax }{subfigure.1.1}{}}
\newlabel{subfig:penalty flux}{{1b}{17}{Subfigure 1b}{subfigure.1.2}{}}
\newlabel{sub@subfig:penalty flux}{{(b)}{b}{Subfigure 1b\relax }{subfigure.1.2}{}}
\@writefile{lof}{\contentsline {figure}{\numberline {1}{\ignorespaces Spectra for $N=3$ and $h=1/2$ with a material property of isotropic Sandstone (Table 1). For $\alpha _{\bm  {\tau }}$ = $\alpha _{\bm  {v}}=0$ and $\alpha _{\bm  {\tau }}$ = $\alpha _{\bm  {v}}=1$, the largest real part of spectra are 1.6431e-14 and 6.3412e-15, respectively.\relax }}{17}{figure.caption.2}}
\newlabel{fig:DG spectra}{{1}{17}{Spectra for $N=3$ and $h=1/2$ with a material property of isotropic Sandstone (Table 1). For $\alpha _{\bm {\tau }}$ = $\alpha _{\bm {v}}=0$ and $\alpha _{\bm {\tau }}$ = $\alpha _{\bm {v}}=1$, the largest real part of spectra are 1.6431e-14 and 6.3412e-15, respectively.\relax }{figure.caption.2}{}}
\@writefile{lof}{\contentsline {subfigure}{\numberline{(a)}{\ignorespaces {$\alpha _{\bm {\tau }}=\alpha _{\bm {v}}=0$}}}{17}{subfigure.1.1}}
\@writefile{lof}{\contentsline {subfigure}{\numberline{(b)}{\ignorespaces {$\alpha _{\bm {\tau }}=\alpha _{\bm {v}}=1$}}}{17}{subfigure.1.2}}
\@writefile{toc}{\contentsline {subsection}{\numberline {5.2}Analytic solution}{17}{subsection.5.2}}
\@writefile{toc}{\contentsline {subsection}{\numberline {5.3}Plane wave in a poroelastic medium}{17}{subsection.5.3}}
\newlabel{eq31}{{22}{17}{Plane wave in a poroelastic medium}{equation.5.22}{}}
\newlabel{eq32}{{23}{17}{Plane wave in a poroelastic medium}{equation.5.23}{}}
\newlabel{eq33}{{24}{17}{Plane wave in a poroelastic medium}{equation.5.24}{}}
\citation{strang1968}
\@writefile{lof}{\contentsline {figure}{\numberline {2}{\ignorespaces Convergence of $L^2$ error for plane wave in porolastic media with $\eta =0$-inviscid case \relax }}{18}{figure.caption.3}}
\@writefile{lof}{\contentsline {subfigure}{\numberline{(a)}{\ignorespaces {$\tau _v=\tau _\sigma =0$ (central flux)}}}{18}{subfigure.2.1}}
\@writefile{lof}{\contentsline {subfigure}{\numberline{(b)}{\ignorespaces {$\tau _v=\tau _\sigma =1$ (penalty flux)}}}{18}{subfigure.2.2}}
\@writefile{toc}{\contentsline {subsubsection}{\numberline {5.3.1}Inviscid case ($\eta =0$)}{18}{subsubsection.5.3.1}}
\@writefile{toc}{\contentsline {subsubsection}{\numberline {5.3.2}Viscid case ($\eta \not =0$)}{18}{subsubsection.5.3.2}}
\newlabel{eq34}{{25}{18}{Viscid case ($\eta \ne 0$)}{equation.5.25}{}}
\@writefile{lof}{\contentsline {figure}{\numberline {3}{\ignorespaces Convergence of $L^2$ error for plane wave in porolastic media for viscid case ($\eta \not =0$) with unified DG scheme\relax }}{19}{figure.caption.4}}
\@writefile{lof}{\contentsline {subfigure}{\numberline{(a)}{\ignorespaces {$\tau _v=\tau _\sigma =0$ (central flux)}}}{19}{subfigure.3.1}}
\@writefile{lof}{\contentsline {subfigure}{\numberline{(b)}{\ignorespaces {$\tau _v=\tau _\sigma =1$ (penalty flux)}}}{19}{subfigure.3.2}}
\newlabel{eq35}{{26}{19}{Viscid case ($\eta \ne 0$)}{equation.5.26}{}}
\newlabel{eq38}{{29}{19}{Viscid case ($\eta \ne 0$)}{equation.5.29}{}}
\newlabel{eq39}{{30}{19}{Viscid case ($\eta \ne 0$)}{equation.5.30}{}}
\citation{hesthaven2007,mercerat2015}
\citation{sahay1994}
\@writefile{lof}{\contentsline {figure}{\numberline {4}{\ignorespaces Convergence of $L^2$ error for plane wave in porolastic media for viscid case ($\eta \not =0$) with paired DG and Strang splitting approach \relax }}{20}{figure.caption.5}}
\@writefile{lof}{\contentsline {subfigure}{\numberline{(a)}{\ignorespaces {$\tau _v=\tau _\sigma =0$ (central flux)}}}{20}{subfigure.4.1}}
\@writefile{lof}{\contentsline {subfigure}{\numberline{(b)}{\ignorespaces {$\tau _v=\tau _\sigma =1$ (penalty flux)}}}{20}{subfigure.4.2}}
\@writefile{toc}{\contentsline {subsection}{\numberline {5.4}Application examples}{20}{subsection.5.4}}
\newlabel{com}{{31}{20}{Application examples}{equation.5.31}{}}
\newlabel{Ricker}{{32}{20}{Application examples}{equation.5.32}{}}
\citation{carcione1996}
\@writefile{toc}{\contentsline {subsubsection}{\numberline {5.4.1}Orthotropic sandstone}{21}{subsubsection.5.4.1}}
\@writefile{toc}{\contentsline {subsubsection}{\numberline {5.4.2}Epoxy-glass material}{21}{subsubsection.5.4.2}}
\@writefile{toc}{\contentsline {subsubsection}{\numberline {5.4.3}Isotropic-isotropic and isotropic-anisotropic layered model}{21}{subsubsection.5.4.3}}
\@writefile{toc}{\contentsline {subsubsection}{\numberline {5.4.4}Viscid-inviscid layered model}{21}{subsubsection.5.4.4}}
\@writefile{lof}{\contentsline {figure}{\numberline {5}{\ignorespaces Snapshots of the centre of mass particle velocity in orthotropic sandstone, computed at $t=1.56\nobreakspace  {}\text  {ms}$, where (a) and (b) corresponds to $\eta =0$, and (c) and (d) corresponds to $\eta \not =0$. The central frequency of the forcing function is 3730 Hz. The solution is computed using polynomials of degree $N=4$. \relax }}{22}{figure.caption.6}}
\@writefile{lof}{\contentsline {subfigure}{\numberline{(a)}{\ignorespaces {Orthotropic Sandstone, $b_x$ with $\eta = 0$}}}{22}{subfigure.5.1}}
\@writefile{lof}{\contentsline {subfigure}{\numberline{(b)}{\ignorespaces {Orthotropic Sandstone, $b_z$ with $\eta = 0$}}}{22}{subfigure.5.2}}
\@writefile{lof}{\contentsline {subfigure}{\numberline{(c)}{\ignorespaces {Orthotropic Sandstone, $b_x$ with $\eta \not =0$}}}{22}{subfigure.5.3}}
\@writefile{lof}{\contentsline {subfigure}{\numberline{(d)}{\ignorespaces {Orthotropic Sandstone, $b_z$ with $\eta \not =0$}}}{22}{subfigure.5.4}}
\@writefile{lof}{\contentsline {figure}{\numberline {6}{\ignorespaces Snapshots of the centre of mass particle velocity in epoxy-glass, computed at $t=1.8\nobreakspace  {}\text  {ms}$, where (a) and (b) corresponds to $\eta =0$, and (c) and (d) corresponds to $\eta \not =0$. The central frequency of the forcing function is 3135 Hz. The solution is computed using polynomials of degree $N=4$. \relax }}{23}{figure.caption.7}}
\@writefile{lof}{\contentsline {subfigure}{\numberline{(a)}{\ignorespaces {Epoxy-glass, $b_x$ with $\eta = 0$}}}{23}{subfigure.6.1}}
\@writefile{lof}{\contentsline {subfigure}{\numberline{(b)}{\ignorespaces {Epoxy-glass, $b_z$ with $\eta = 0$}}}{23}{subfigure.6.2}}
\@writefile{lof}{\contentsline {subfigure}{\numberline{(c)}{\ignorespaces {Epoxy-glass, $b_x$ with $\eta \not =0$}}}{23}{subfigure.6.3}}
\@writefile{lof}{\contentsline {subfigure}{\numberline{(d)}{\ignorespaces {Epoxy-glass, $b_z$ with $\eta \not =0$}}}{23}{subfigure.6.4}}
\@writefile{lof}{\contentsline {figure}{\numberline {7}{\ignorespaces Snapshots of the $z-$ component of centre of mass particle velocity in (a) isotropic layered model computed at $t=0.25\nobreakspace  {}\text  {s}$ (b) anisotropic layered model computed at $t=0.22\nobreakspace  {}\text  {s}$. The central frequency of the forcing function is 45 Hz. The solution is computed using polynomials of degree $N=4$.\relax }}{24}{figure.caption.8}}
\@writefile{lof}{\contentsline {subfigure}{\numberline{(a)}{\ignorespaces {Isotropic layered model, $b_z$ }}}{24}{subfigure.7.1}}
\@writefile{lof}{\contentsline {subfigure}{\numberline{(b)}{\ignorespaces {Anisotropic layered model, $b_z$}}}{24}{subfigure.7.2}}
\@writefile{lof}{\contentsline {figure}{\numberline {8}{\ignorespaces Snapshots of the $z-$ component of centre of mass particle velocity in (a) viscid-viscid layered model (b) viscid-inviscid layered model, computed at $t=0.25\nobreakspace  {}\text  {s}$. The central frequency of the forcing function is 45 Hz for a viscid case $(\eta =0)$. TThe solution is computed using polynomials of degree $N=4$ and at $t=0.25\nobreakspace  {}\text  {s}$.\relax }}{24}{figure.caption.9}}
\@writefile{lof}{\contentsline {subfigure}{\numberline{(a)}{\ignorespaces {viscid-viscid layered model, $b_z$ }}}{24}{subfigure.8.1}}
\@writefile{lof}{\contentsline {subfigure}{\numberline{(b)}{\ignorespaces {viscid-inviscid layered model, $b_z$}}}{24}{subfigure.8.2}}
\citation{morency2008}
\citation{morency2008}
\citation{morency2008}
\citation{morency2008}
\citation{morency2008}
\citation{morency2008}
\citation{morency2008}
\@writefile{lof}{\contentsline {figure}{\numberline {9}{\ignorespaces Heterogeneous model of bulk density $(\rho )$ (a) obtained from piecewise approximation, used for non-WADG solution (b) actual arbitrary heterogeneous distribution, used for WADG solution.\relax }}{25}{figure.caption.10}}
\@writefile{lof}{\contentsline {subfigure}{\numberline{(a)}{\ignorespaces {Piecewise smooth bulk-density $\bm {\rho }$ }}}{25}{subfigure.9.1}}
\@writefile{lof}{\contentsline {subfigure}{\numberline{(b)}{\ignorespaces {Arbitrary heterogeneous bulk-density $\bm {\rho }$ }}}{25}{subfigure.9.2}}
\@writefile{toc}{\contentsline {subsubsection}{\numberline {5.4.5}Non-WADG vs WADG approach}{25}{subsubsection.5.4.5}}
\@writefile{toc}{\contentsline {subsubsection}{\numberline {5.4.6}Validation of numerical solution}{25}{subsubsection.5.4.6}}
\@writefile{lof}{\contentsline {figure}{\numberline {10}{\ignorespaces A comparison between the solutions obtained from non-WADG and WADG approach.\relax }}{26}{figure.caption.11}}
\@writefile{lof}{\contentsline {subfigure}{\numberline{(a)}{\ignorespaces {$N=2,\nobreakspace {}K_{1D}=64,$ and non-WADG }}}{26}{subfigure.10.1}}
\@writefile{lof}{\contentsline {subfigure}{\numberline{(b)}{\ignorespaces {$N=2,\nobreakspace {}K_{1D}=64,$ and WADG }}}{26}{subfigure.10.2}}
\@writefile{lof}{\contentsline {subfigure}{\numberline{(c)}{\ignorespaces {$N=4,\nobreakspace {}K_{1D}=32,$ and non-WADG }}}{26}{subfigure.10.3}}
\@writefile{lof}{\contentsline {subfigure}{\numberline{(d)}{\ignorespaces {$N=4,\nobreakspace {}K_{1D}=32,$ and WADG }}}{26}{subfigure.10.4}}
\@writefile{lof}{\contentsline {subfigure}{\numberline{(e)}{\ignorespaces {$N=8,\nobreakspace {}K_{1D}=16,$ and non-WADG }}}{26}{subfigure.10.5}}
\@writefile{lof}{\contentsline {subfigure}{\numberline{(f)}{\ignorespaces {$N=8,\nobreakspace {}K_{1D}=16,$ and WADG }}}{26}{subfigure.10.6}}
\citation{carcione1996}
\@writefile{lot}{\contentsline {table}{\numberline {2}{\ignorespaces Material properties used for comparison of solution with SPECFEM implementations \cite  {morency2008}\relax }}{27}{table.caption.12}}
\@writefile{toc}{\contentsline {subsubsection}{\numberline {5.4.7}3D models and computational results}{27}{subsubsection.5.4.7}}
\@writefile{toc}{\contentsline {section}{\numberline {6}Conclusions}{27}{section.6}}
\@writefile{toc}{\contentsline {section}{\numberline {7}Acknowledgments}{27}{section.7}}
\@writefile{lof}{\contentsline {figure}{\numberline {11}{\ignorespaces A comparison between the solutions obtained from the proposed DG method and spectral-element method in a homogeneous porous medium with (a) showing the snapshot of the solutions obtained from the DG method computed with polynomials of degree $N=4$. Figures (b) and (c) corresponds to comparison plots between the solutions obtained from DG method and spectral-element and DG method and pseudo-spectral method, respectively. The $\text  {P}_\text  {f}$ and $\text  {P}_\text  {s}$ represent fast and slow P wave, respectively\relax }}{28}{figure.caption.13}}
\@writefile{lof}{\contentsline {subfigure}{\numberline{(a)}{\ignorespaces {Snapshot of vertical solid particle velocity, $v_3$ at $t=0.14\nobreakspace {}\text {s}$ }}}{28}{subfigure.11.1}}
\@writefile{lof}{\contentsline {subfigure}{\numberline{(b)}{\ignorespaces {SPECFEM vs WADG}}}{28}{subfigure.11.2}}
\@writefile{lof}{\contentsline {subfigure}{\numberline{(c)}{\ignorespaces {Pseudo-spectral method vs WADG}}}{28}{subfigure.11.3}}
\@writefile{lof}{\contentsline {figure}{\numberline {12}{\ignorespaces A comparison between the solutions obtained from the proposed DG method and spectral-element method in a heterogeneous porous medium with (a) showing the snapshot of the solutions obtained from the DG method computed with polynomials of degree $N=4$. Figure (b) corresponds to comparison plot between the solutions obtained from DG method and spectral-element and DG method and pseudo-spectral method, respectively. Various transmitted wave modes are (i) Transmitted fast P wave (ii) converted fast P to S and fast P to slow P waves (iii) converted slow P to S waves, and (iv) converted slow P wave to fast P wave.\relax }}{29}{figure.caption.14}}
\@writefile{lof}{\contentsline {subfigure}{\numberline{(a)}{\ignorespaces {Snapshot of vertical solid particle velocity, $v_3$ at $t=0.73\nobreakspace {}\text {s}$ }}}{29}{subfigure.12.1}}
\@writefile{lof}{\contentsline {subfigure}{\numberline{(b)}{\ignorespaces {SPECFEM vs WADG}}}{29}{subfigure.12.2}}
\bibstyle{unsrt}
\bibdata{dg}
\bibcite{lemoine2013}{{1}{}{{}}{{}}}
\bibcite{lemoine2016}{{2}{}{{}}{{}}}
\bibcite{morency2008}{{3}{}{{}}{{}}}
\bibcite{biot1956}{{4}{}{{}}{{}}}
\bibcite{biot1962}{{5}{}{{}}{{}}}
\bibcite{carcione1995}{{6}{}{{}}{{}}}
\bibcite{ozdenvar1997}{{7}{}{{}}{{}}}
\bibcite{carcione1996}{{8}{}{{}}{{}}}
\bibcite{johnson1987}{{9}{}{{}}{{}}}
\bibcite{stern1985}{{10}{}{{}}{{}}}
\bibcite{yamamoto1988}{{11}{}{{}}{{}}}
\bibcite{rosenbaum1974}{{12}{}{{}}{{}}}
\bibcite{carcione2010}{{13}{}{{}}{{}}}
\bibcite{garg1974}{{14}{}{{}}{{}}}
\bibcite{dai1995}{{15}{}{{}}{{}}}
\bibcite{santos1986}{{16}{}{{}}{{}}}
\bibcite{hesthaven2007}{{17}{}{{}}{{}}}
\bibcite{klockner2009}{{18}{}{{}}{{}}}
\bibcite{ainsworth2004}{{19}{}{{}}{{}}}
\bibcite{wilcox2010}{{20}{}{{}}{{}}}
\bibcite{kaser2007}{{21}{}{{}}{{}}}
\bibcite{de2007}{{22}{}{{}}{{}}}
\bibcite{ye2016}{{23}{}{{}}{{}}}
\bibcite{de2008}{{24}{}{{}}{{}}}
\bibcite{ward2017}{{25}{}{{}}{{}}}
\bibcite{chan2017I}{{26}{}{{}}{{}}}
\bibcite{mercerat2015}{{27}{}{{}}{{}}}
\bibcite{biot1956I}{{28}{}{{}}{{}}}
\bibcite{biot1956II}{{29}{}{{}}{{}}}
\bibcite{carcione2014}{{30}{}{{}}{{}}}
\bibcite{deresiewicz1963}{{31}{}{{}}{{}}}
\bibcite{gurevich1999}{{32}{}{{}}{{}}}
\bibcite{chan2017II}{{33}{}{{}}{{}}}
\bibcite{zeng2001}{{34}{}{{}}{{}}}
\bibcite{hagstrom2004}{{35}{}{{}}{{}}}
\bibcite{modave2017}{{36}{}{{}}{{}}}
\bibcite{chan2017III}{{37}{}{{}}{{}}}
\bibcite{chan2017IV}{{38}{}{{}}{{}}}
\bibcite{carpenter1994}{{39}{}{{}}{{}}}
\bibcite{chan2016I}{{40}{}{{}}{{}}}
\bibcite{toro1999}{{41}{}{{}}{{}}}
\bibcite{strang1968}{{42}{}{{}}{{}}}
\bibcite{sahay1994}{{43}{}{{}}{{}}}
\bibcite{houston2002}{{44}{}{{}}{{}}}
\bibcite{warburton2013}{{45}{}{{}}{{}}}
\bibcite{warburton2003}{{46}{}{{}}{{}}}
\bibcite{dolejvsi2015}{{47}{}{{}}{{}}}
\citation{houston2002,chan2017IV,warburton2013}
\@writefile{toc}{\let\numberline\tmptocnumberline}
\@writefile{toc}{\contentsline {section}{\numberline {Appendix \nobreakspace  {}A}Convergence analysis of WADG scheme for poroelastic wave equations}{33}{appendix.A}}
\newlabel{appendix:A}{{Appendix \nobreakspace  {}A}{33}{Convergence analysis of WADG scheme for poroelastic wave equations}{appendix.A}{}}
\newlabel{eqdg}{{A.1}{33}{Convergence analysis of WADG scheme for poroelastic wave equations}{equation.A.1}{}}
\newlabel{eqwadg}{{A.2}{33}{Convergence analysis of WADG scheme for poroelastic wave equations}{equation.A.2}{}}
\newlabel{eq27}{{A.3}{33}{Convergence analysis of WADG scheme for poroelastic wave equations}{equation.A.3}{}}
\citation{warburton2003}
\citation{dolejvsi2015}
\newlabel{eq28}{{A.4}{34}{Convergence analysis of WADG scheme for poroelastic wave equations}{equation.A.4}{}}
\newlabel{eq28}{{A.5}{34}{Convergence analysis of WADG scheme for poroelastic wave equations}{equation.A.5}{}}
\providecommand\NAT@force@numbers{}\NAT@force@numbers
\@writefile{toc}{\contentsline {section}{\numberline {Appendix \nobreakspace  {}B}Analytical solution of diffusive part of the poroelastic system}{35}{appendix.B}}
\newlabel{appendix:B}{{Appendix \nobreakspace  {}B}{35}{Analytical solution of diffusive part of the poroelastic system}{appendix.B}{}}
\newlabel{B1}{{B.1}{35}{Analytical solution of diffusive part of the poroelastic system}{equation.B.1}{}}
