%!PS-Adobe-3.0 EPSF-3.0
%%Creator: (MATLAB, The Mathworks, Inc. Version 8.6.0.267246 \(R2015b\). Operating System: Mac OS X)
%%Title: ./roofline.eps
%%CreationDate: 2015-11-04T18:47:24
%%Pages: (atend)
%%BoundingBox:    19     0   536   411
%%LanguageLevel: 3
%%EndComments
%%BeginProlog
%%BeginResource: procset (Apache XML Graphics Std ProcSet) 1.2 0
%%Version: 1.2 0
%%Copyright: (Copyright 2001-2003,2010 The Apache Software Foundation. License terms: http://www.apache.org/licenses/LICENSE-2.0)
/bd{bind def}bind def
/ld{load def}bd
/GR/grestore ld
/M/moveto ld
/LJ/setlinejoin ld
/C/curveto ld
/f/fill ld
/LW/setlinewidth ld
/GC/setgray ld
/t/show ld
/N/newpath ld
/CT/concat ld
/cp/closepath ld
/S/stroke ld
/L/lineto ld
/CC/setcmykcolor ld
/A/ashow ld
/GS/gsave ld
/RC/setrgbcolor ld
/RM/rmoveto ld
/ML/setmiterlimit ld
/re {4 2 roll M
1 index 0 rlineto
0 exch rlineto
neg 0 rlineto
cp } bd
/_ctm matrix def
/_tm matrix def
/BT { _ctm currentmatrix pop matrix _tm copy pop 0 0 moveto } bd
/ET { _ctm setmatrix } bd
/iTm { _ctm setmatrix _tm concat } bd
/Tm { _tm astore pop iTm 0 0 moveto } bd
/ux 0.0 def
/uy 0.0 def
/F {
  /Tp exch def
  /Tf exch def
  Tf findfont Tp scalefont setfont
  /cf Tf def  /cs Tp def
} bd
/ULS {currentpoint /uy exch def /ux exch def} bd
/ULE {
  /Tcx currentpoint pop def
  gsave
  newpath
  cf findfont cs scalefont dup
  /FontMatrix get 0 get /Ts exch def /FontInfo get dup
  /UnderlinePosition get Ts mul /To exch def
  /UnderlineThickness get Ts mul /Tt exch def
  ux uy To add moveto  Tcx uy To add lineto
  Tt setlinewidth stroke
  grestore
} bd
/OLE {
  /Tcx currentpoint pop def
  gsave
  newpath
  cf findfont cs scalefont dup
  /FontMatrix get 0 get /Ts exch def /FontInfo get dup
  /UnderlinePosition get Ts mul /To exch def
  /UnderlineThickness get Ts mul /Tt exch def
  ux uy To add cs add moveto Tcx uy To add cs add lineto
  Tt setlinewidth stroke
  grestore
} bd
/SOE {
  /Tcx currentpoint pop def
  gsave
  newpath
  cf findfont cs scalefont dup
  /FontMatrix get 0 get /Ts exch def /FontInfo get dup
  /UnderlinePosition get Ts mul /To exch def
  /UnderlineThickness get Ts mul /Tt exch def
  ux uy To add cs 10 mul 26 idiv add moveto Tcx uy To add cs 10 mul 26 idiv add lineto
  Tt setlinewidth stroke
  grestore
} bd
/QT {
/Y22 exch store
/X22 exch store
/Y21 exch store
/X21 exch store
currentpoint
/Y21 load 2 mul add 3 div exch
/X21 load 2 mul add 3 div exch
/X21 load 2 mul /X22 load add 3 div
/Y21 load 2 mul /Y22 load add 3 div
/X22 load /Y22 load curveto
} bd
/SSPD {
dup length /d exch dict def
{
/v exch def
/k exch def
currentpagedevice k known {
/cpdv currentpagedevice k get def
v cpdv ne {
/upd false def
/nullv v type /nulltype eq def
/nullcpdv cpdv type /nulltype eq def
nullv nullcpdv or
{
/upd true def
} {
/sametype v type cpdv type eq def
sametype {
v type /arraytype eq {
/vlen v length def
/cpdvlen cpdv length def
vlen cpdvlen eq {
0 1 vlen 1 sub {
/i exch def
/obj v i get def
/cpdobj cpdv i get def
obj cpdobj ne {
/upd true def
exit
} if
} for
} {
/upd true def
} ifelse
} {
v type /dicttype eq {
v {
/dv exch def
/dk exch def
/cpddv cpdv dk get def
dv cpddv ne {
/upd true def
exit
} if
} forall
} {
/upd true def
} ifelse
} ifelse
} if
} ifelse
upd true eq {
d k v put
} if
} if
} if
} forall
d length 0 gt {
d setpagedevice
} if
} bd
%%EndResource
%%BeginResource: procset (Apache XML Graphics EPS ProcSet) 1.0 0
%%Version: 1.0 0
%%Copyright: (Copyright 2002-2003 The Apache Software Foundation. License terms: http://www.apache.org/licenses/LICENSE-2.0)
/BeginEPSF { %def
/b4_Inc_state save def         % Save state for cleanup
/dict_count countdictstack def % Count objects on dict stack
/op_count count 1 sub def      % Count objects on operand stack
userdict begin                 % Push userdict on dict stack
/showpage { } def              % Redefine showpage, { } = null proc
0 setgray 0 setlinecap         % Prepare graphics state
1 setlinewidth 0 setlinejoin
10 setmiterlimit [ ] 0 setdash newpath
/languagelevel where           % If level not equal to 1 then
{pop languagelevel             % set strokeadjust and
1 ne                           % overprint to their defaults.
{false setstrokeadjust false setoverprint
} if
} if
} bd
/EndEPSF { %def
count op_count sub {pop} repeat            % Clean up stacks
countdictstack dict_count sub {end} repeat
b4_Inc_state restore
} bd
%%EndResource
%FOPBeginFontDict
%%IncludeResource: font Courier-Bold
%%IncludeResource: font Helvetica
%%IncludeResource: font Courier-BoldOblique
%%IncludeResource: font Courier-Oblique
%%IncludeResource: font Times-Roman
%%IncludeResource: font Helvetica-BoldOblique
%%IncludeResource: font Helvetica-Bold
%%IncludeResource: font Helvetica-Oblique
%%IncludeResource: font Times-BoldItalic
%%IncludeResource: font Courier
%%IncludeResource: font Times-Italic
%%IncludeResource: font Times-Bold
%%IncludeResource: font Symbol
%%IncludeResource: font ZapfDingbats
%FOPEndFontDict
%%BeginResource: encoding WinAnsiEncoding
/WinAnsiEncoding [
/.notdef /.notdef /.notdef /.notdef /.notdef
/.notdef /.notdef /.notdef /.notdef /.notdef
/.notdef /.notdef /.notdef /.notdef /.notdef
/.notdef /.notdef /.notdef /.notdef /.notdef
/.notdef /.notdef /.notdef /.notdef /.notdef
/.notdef /.notdef /.notdef /.notdef /.notdef
/.notdef /.notdef /space /exclam /quotedbl
/numbersign /dollar /percent /ampersand /quotesingle
/parenleft /parenright /asterisk /plus /comma
/hyphen /period /slash /zero /one
/two /three /four /five /six
/seven /eight /nine /colon /semicolon
/less /equal /greater /question /at
/A /B /C /D /E
/F /G /H /I /J
/K /L /M /N /O
/P /Q /R /S /T
/U /V /W /X /Y
/Z /bracketleft /backslash /bracketright /asciicircum
/underscore /quoteleft /a /b /c
/d /e /f /g /h
/i /j /k /l /m
/n /o /p /q /r
/s /t /u /v /w
/x /y /z /braceleft /bar
/braceright /asciitilde /bullet /Euro /bullet
/quotesinglbase /florin /quotedblbase /ellipsis /dagger
/daggerdbl /circumflex /perthousand /Scaron /guilsinglleft
/OE /bullet /Zcaron /bullet /bullet
/quoteleft /quoteright /quotedblleft /quotedblright /bullet
/endash /emdash /asciitilde /trademark /scaron
/guilsinglright /oe /bullet /zcaron /Ydieresis
/space /exclamdown /cent /sterling /currency
/yen /brokenbar /section /dieresis /copyright
/ordfeminine /guillemotleft /logicalnot /sfthyphen /registered
/macron /degree /plusminus /twosuperior /threesuperior
/acute /mu /paragraph /middot /cedilla
/onesuperior /ordmasculine /guillemotright /onequarter /onehalf
/threequarters /questiondown /Agrave /Aacute /Acircumflex
/Atilde /Adieresis /Aring /AE /Ccedilla
/Egrave /Eacute /Ecircumflex /Edieresis /Igrave
/Iacute /Icircumflex /Idieresis /Eth /Ntilde
/Ograve /Oacute /Ocircumflex /Otilde /Odieresis
/multiply /Oslash /Ugrave /Uacute /Ucircumflex
/Udieresis /Yacute /Thorn /germandbls /agrave
/aacute /acircumflex /atilde /adieresis /aring
/ae /ccedilla /egrave /eacute /ecircumflex
/edieresis /igrave /iacute /icircumflex /idieresis
/eth /ntilde /ograve /oacute /ocircumflex
/otilde /odieresis /divide /oslash /ugrave
/uacute /ucircumflex /udieresis /yacute /thorn
/ydieresis
] def
%%EndResource
%FOPBeginFontReencode
/Courier-Bold findfont
dup length dict begin
  {1 index /FID ne {def} {pop pop} ifelse} forall
  /Encoding WinAnsiEncoding def
  currentdict
end
/Courier-Bold exch definefont pop
/Helvetica findfont
dup length dict begin
  {1 index /FID ne {def} {pop pop} ifelse} forall
  /Encoding WinAnsiEncoding def
  currentdict
end
/Helvetica exch definefont pop
/Courier-BoldOblique findfont
dup length dict begin
  {1 index /FID ne {def} {pop pop} ifelse} forall
  /Encoding WinAnsiEncoding def
  currentdict
end
/Courier-BoldOblique exch definefont pop
/Courier-Oblique findfont
dup length dict begin
  {1 index /FID ne {def} {pop pop} ifelse} forall
  /Encoding WinAnsiEncoding def
  currentdict
end
/Courier-Oblique exch definefont pop
/Times-Roman findfont
dup length dict begin
  {1 index /FID ne {def} {pop pop} ifelse} forall
  /Encoding WinAnsiEncoding def
  currentdict
end
/Times-Roman exch definefont pop
/Helvetica-BoldOblique findfont
dup length dict begin
  {1 index /FID ne {def} {pop pop} ifelse} forall
  /Encoding WinAnsiEncoding def
  currentdict
end
/Helvetica-BoldOblique exch definefont pop
/Helvetica-Bold findfont
dup length dict begin
  {1 index /FID ne {def} {pop pop} ifelse} forall
  /Encoding WinAnsiEncoding def
  currentdict
end
/Helvetica-Bold exch definefont pop
/Helvetica-Oblique findfont
dup length dict begin
  {1 index /FID ne {def} {pop pop} ifelse} forall
  /Encoding WinAnsiEncoding def
  currentdict
end
/Helvetica-Oblique exch definefont pop
/Times-BoldItalic findfont
dup length dict begin
  {1 index /FID ne {def} {pop pop} ifelse} forall
  /Encoding WinAnsiEncoding def
  currentdict
end
/Times-BoldItalic exch definefont pop
/Courier findfont
dup length dict begin
  {1 index /FID ne {def} {pop pop} ifelse} forall
  /Encoding WinAnsiEncoding def
  currentdict
end
/Courier exch definefont pop
/Times-Italic findfont
dup length dict begin
  {1 index /FID ne {def} {pop pop} ifelse} forall
  /Encoding WinAnsiEncoding def
  currentdict
end
/Times-Italic exch definefont pop
/Times-Bold findfont
dup length dict begin
  {1 index /FID ne {def} {pop pop} ifelse} forall
  /Encoding WinAnsiEncoding def
  currentdict
end
/Times-Bold exch definefont pop
%FOPEndFontReencode
%%EndProlog
%%Page: 1 1
%%PageBoundingBox: 0 0 576 432
%%BeginPageSetup
[1 0 0 -1 0 432] CT
%%EndPageSetup
GS
1 GC
N
0 0 576 432 re
f
GR
GS
1 GC
N
0 0 576 432 re
f
GR
GS
1 GC
N
75 382.5 M
521.5 382.5 L
521.5 32.5 L
75 32.5 L
cp
f
GR
GS
0.775 GC
[1 3] 0 setdash
2 LJ
0.5 LW
N
108.602 382.5 M
108.602 32.5 L
S
GR
GS
0.775 GC
[1 3] 0 setdash
2 LJ
0.5 LW
N
128.259 382.5 M
128.259 32.5 L
S
GR
GS
0.775 GC
[1 3] 0 setdash
2 LJ
0.5 LW
N
142.205 382.5 M
142.205 32.5 L
S
GR
GS
0.775 GC
[1 3] 0 setdash
2 LJ
0.5 LW
N
153.023 382.5 M
153.023 32.5 L
S
GR
GS
0.775 GC
[1 3] 0 setdash
2 LJ
0.5 LW
N
161.861 382.5 M
161.861 32.5 L
S
GR
GS
0.775 GC
[1 3] 0 setdash
2 LJ
0.5 LW
N
169.334 382.5 M
169.334 32.5 L
S
GR
GS
0.775 GC
[1 3] 0 setdash
2 LJ
0.5 LW
N
175.807 382.5 M
175.807 32.5 L
S
GR
GS
0.775 GC
[1 3] 0 setdash
2 LJ
0.5 LW
N
181.517 382.5 M
181.517 32.5 L
S
GR
GS
0.775 GC
[1 3] 0 setdash
2 LJ
0.5 LW
N
220.227 382.5 M
220.227 32.5 L
S
GR
GS
0.775 GC
[1 3] 0 setdash
2 LJ
0.5 LW
N
239.884 382.5 M
239.884 32.5 L
S
GR
GS
0.775 GC
[1 3] 0 setdash
2 LJ
0.5 LW
N
253.83 382.5 M
253.83 32.5 L
S
GR
GS
0.775 GC
[1 3] 0 setdash
2 LJ
0.5 LW
N
264.648 382.5 M
264.648 32.5 L
S
GR
GS
0.775 GC
[1 3] 0 setdash
2 LJ
0.5 LW
N
273.486 382.5 M
273.486 32.5 L
S
GR
GS
0.775 GC
[1 3] 0 setdash
2 LJ
0.5 LW
N
280.959 382.5 M
280.959 32.5 L
S
GR
GS
0.775 GC
[1 3] 0 setdash
2 LJ
0.5 LW
N
287.432 382.5 M
287.432 32.5 L
S
GR
GS
0.775 GC
[1 3] 0 setdash
2 LJ
0.5 LW
N
293.142 382.5 M
293.142 32.5 L
S
GR
GS
0.775 GC
[1 3] 0 setdash
2 LJ
0.5 LW
N
331.852 382.5 M
331.852 32.5 L
S
GR
GS
0.775 GC
[1 3] 0 setdash
2 LJ
0.5 LW
N
351.509 382.5 M
351.509 32.5 L
S
GR
GS
0.775 GC
[1 3] 0 setdash
2 LJ
0.5 LW
N
365.455 382.5 M
365.455 32.5 L
S
GR
GS
0.775 GC
[1 3] 0 setdash
2 LJ
0.5 LW
N
376.273 382.5 M
376.273 32.5 L
S
GR
GS
0.775 GC
[1 3] 0 setdash
2 LJ
0.5 LW
N
385.111 382.5 M
385.111 32.5 L
S
GR
GS
0.775 GC
[1 3] 0 setdash
2 LJ
0.5 LW
N
392.584 382.5 M
392.584 32.5 L
S
GR
GS
0.775 GC
[1 3] 0 setdash
2 LJ
0.5 LW
N
399.057 382.5 M
399.057 32.5 L
S
GR
GS
0.775 GC
[1 3] 0 setdash
2 LJ
0.5 LW
N
404.767 382.5 M
404.767 32.5 L
S
GR
GS
0.775 GC
[1 3] 0 setdash
2 LJ
0.5 LW
N
443.477 382.5 M
443.477 32.5 L
S
GR
GS
0.775 GC
[1 3] 0 setdash
2 LJ
0.5 LW
N
463.134 382.5 M
463.134 32.5 L
S
GR
GS
0.775 GC
[1 3] 0 setdash
2 LJ
0.5 LW
N
477.08 382.5 M
477.08 32.5 L
S
GR
GS
0.775 GC
[1 3] 0 setdash
2 LJ
0.5 LW
N
487.898 382.5 M
487.898 32.5 L
S
GR
GS
0.775 GC
[1 3] 0 setdash
2 LJ
0.5 LW
N
496.736 382.5 M
496.736 32.5 L
S
GR
GS
0.775 GC
[1 3] 0 setdash
2 LJ
0.5 LW
N
504.209 382.5 M
504.209 32.5 L
S
GR
GS
0.775 GC
[1 3] 0 setdash
2 LJ
0.5 LW
N
510.682 382.5 M
510.682 32.5 L
S
GR
GS
0.775 GC
[1 3] 0 setdash
2 LJ
0.5 LW
N
516.392 382.5 M
516.392 32.5 L
S
GR
GS
0.873 GC
1 LJ
0.5 LW
N
75 382.5 M
75 32.5 L
S
GR
GS
0.873 GC
1 LJ
0.5 LW
N
186.625 382.5 M
186.625 32.5 L
S
GR
GS
0.873 GC
1 LJ
0.5 LW
N
298.25 382.5 M
298.25 32.5 L
S
GR
GS
0.873 GC
1 LJ
0.5 LW
N
409.875 382.5 M
409.875 32.5 L
S
GR
GS
0.873 GC
1 LJ
0.5 LW
N
521.5 382.5 M
521.5 32.5 L
S
GR
GS
0.775 GC
[1 3] 0 setdash
2 LJ
0.5 LW
N
521.5 356.16 M
75 356.16 L
S
GR
GS
0.775 GC
[1 3] 0 setdash
2 LJ
0.5 LW
N
521.5 340.752 M
75 340.752 L
S
GR
GS
0.775 GC
[1 3] 0 setdash
2 LJ
0.5 LW
N
521.5 329.82 M
75 329.82 L
S
GR
GS
0.775 GC
[1 3] 0 setdash
2 LJ
0.5 LW
N
521.5 321.34 M
75 321.34 L
S
GR
GS
0.775 GC
[1 3] 0 setdash
2 LJ
0.5 LW
N
521.5 314.412 M
75 314.412 L
S
GR
GS
0.775 GC
[1 3] 0 setdash
2 LJ
0.5 LW
N
521.5 308.554 M
75 308.554 L
S
GR
GS
0.775 GC
[1 3] 0 setdash
2 LJ
0.5 LW
N
521.5 303.48 M
75 303.48 L
S
GR
GS
0.775 GC
[1 3] 0 setdash
2 LJ
0.5 LW
N
521.5 299.004 M
75 299.004 L
S
GR
GS
0.775 GC
[1 3] 0 setdash
2 LJ
0.5 LW
N
521.5 268.66 M
75 268.66 L
S
GR
GS
0.775 GC
[1 3] 0 setdash
2 LJ
0.5 LW
N
521.5 253.252 M
75 253.252 L
S
GR
GS
0.775 GC
[1 3] 0 setdash
2 LJ
0.5 LW
N
521.5 242.32 M
75 242.32 L
S
GR
GS
0.775 GC
[1 3] 0 setdash
2 LJ
0.5 LW
N
521.5 233.84 M
75 233.84 L
S
GR
GS
0.775 GC
[1 3] 0 setdash
2 LJ
0.5 LW
N
521.5 226.912 M
75 226.912 L
S
GR
GS
0.775 GC
[1 3] 0 setdash
2 LJ
0.5 LW
N
521.5 221.054 M
75 221.054 L
S
GR
GS
0.775 GC
[1 3] 0 setdash
2 LJ
0.5 LW
N
521.5 215.98 M
75 215.98 L
S
GR
GS
0.775 GC
[1 3] 0 setdash
2 LJ
0.5 LW
N
521.5 211.504 M
75 211.504 L
S
GR
GS
0.775 GC
[1 3] 0 setdash
2 LJ
0.5 LW
N
521.5 181.16 M
75 181.16 L
S
GR
GS
0.775 GC
[1 3] 0 setdash
2 LJ
0.5 LW
N
521.5 165.752 M
75 165.752 L
S
GR
GS
0.775 GC
[1 3] 0 setdash
2 LJ
0.5 LW
N
521.5 154.82 M
75 154.82 L
S
GR
GS
0.775 GC
[1 3] 0 setdash
2 LJ
0.5 LW
N
521.5 146.34 M
75 146.34 L
S
GR
GS
0.775 GC
[1 3] 0 setdash
2 LJ
0.5 LW
N
521.5 139.412 M
75 139.412 L
S
GR
GS
0.775 GC
[1 3] 0 setdash
2 LJ
0.5 LW
N
521.5 133.554 M
75 133.554 L
S
GR
GS
0.775 GC
[1 3] 0 setdash
2 LJ
0.5 LW
N
521.5 128.48 M
75 128.48 L
S
GR
GS
0.775 GC
[1 3] 0 setdash
2 LJ
0.5 LW
N
521.5 124.004 M
75 124.004 L
S
GR
GS
0.775 GC
[1 3] 0 setdash
2 LJ
0.5 LW
N
521.5 93.66 M
75 93.66 L
S
GR
GS
0.775 GC
[1 3] 0 setdash
2 LJ
0.5 LW
N
521.5 78.252 M
75 78.252 L
S
GR
GS
0.775 GC
[1 3] 0 setdash
2 LJ
0.5 LW
N
521.5 67.32 M
75 67.32 L
S
GR
GS
0.775 GC
[1 3] 0 setdash
2 LJ
0.5 LW
N
521.5 58.84 M
75 58.84 L
S
GR
GS
0.775 GC
[1 3] 0 setdash
2 LJ
0.5 LW
N
521.5 51.912 M
75 51.912 L
S
GR
GS
0.775 GC
[1 3] 0 setdash
2 LJ
0.5 LW
N
521.5 46.054 M
75 46.054 L
S
GR
GS
0.775 GC
[1 3] 0 setdash
2 LJ
0.5 LW
N
521.5 40.98 M
75 40.98 L
S
GR
GS
0.775 GC
[1 3] 0 setdash
2 LJ
0.5 LW
N
521.5 36.504 M
75 36.504 L
S
GR
GS
0.873 GC
1 LJ
0.5 LW
N
521.5 382.5 M
75 382.5 L
S
GR
GS
0.873 GC
1 LJ
0.5 LW
N
521.5 295 M
75 295 L
S
GR
GS
0.873 GC
1 LJ
0.5 LW
N
521.5 207.5 M
75 207.5 L
S
GR
GS
0.873 GC
1 LJ
0.5 LW
N
521.5 120 M
75 120 L
S
GR
GS
0.873 GC
1 LJ
0.5 LW
N
521.5 32.5 M
75 32.5 L
S
GR
GS
0.149 GC
2 setlinecap
1 LJ
0.5 LW
N
75 382.5 M
521.5 382.5 L
S
GR
GS
0.149 GC
2 setlinecap
1 LJ
0.5 LW
N
75 32.5 M
521.5 32.5 L
S
GR
GS
0.149 GC
2 setlinecap
1 LJ
0.5 LW
N
75 382.5 M
75 378.035 L
S
GR
GS
0.149 GC
2 setlinecap
1 LJ
0.5 LW
N
186.625 382.5 M
186.625 378.035 L
S
GR
GS
0.149 GC
2 setlinecap
1 LJ
0.5 LW
N
298.25 382.5 M
298.25 378.035 L
S
GR
GS
0.149 GC
2 setlinecap
1 LJ
0.5 LW
N
409.875 382.5 M
409.875 378.035 L
S
GR
GS
0.149 GC
2 setlinecap
1 LJ
0.5 LW
N
521.5 382.5 M
521.5 378.035 L
S
GR
GS
0.149 GC
2 setlinecap
1 LJ
0.5 LW
N
75 32.5 M
75 36.965 L
S
GR
GS
0.149 GC
2 setlinecap
1 LJ
0.5 LW
N
186.625 32.5 M
186.625 36.965 L
S
GR
GS
0.149 GC
2 setlinecap
1 LJ
0.5 LW
N
298.25 32.5 M
298.25 36.965 L
S
GR
GS
0.149 GC
2 setlinecap
1 LJ
0.5 LW
N
409.875 32.5 M
409.875 36.965 L
S
GR
GS
0.149 GC
2 setlinecap
1 LJ
0.5 LW
N
521.5 32.5 M
521.5 36.965 L
S
GR
GS
0.149 GC
2 setlinecap
1 LJ
0.5 LW
N
108.602 382.5 M
108.602 380.267 L
S
GR
GS
0.149 GC
2 setlinecap
1 LJ
0.5 LW
N
128.259 382.5 M
128.259 380.267 L
S
GR
GS
0.149 GC
2 setlinecap
1 LJ
0.5 LW
N
142.205 382.5 M
142.205 380.267 L
S
GR
GS
0.149 GC
2 setlinecap
1 LJ
0.5 LW
N
153.023 382.5 M
153.023 380.267 L
S
GR
GS
0.149 GC
2 setlinecap
1 LJ
0.5 LW
N
161.861 382.5 M
161.861 380.267 L
S
GR
GS
0.149 GC
2 setlinecap
1 LJ
0.5 LW
N
169.334 382.5 M
169.334 380.267 L
S
GR
GS
0.149 GC
2 setlinecap
1 LJ
0.5 LW
N
175.807 382.5 M
175.807 380.267 L
S
GR
GS
0.149 GC
2 setlinecap
1 LJ
0.5 LW
N
181.517 382.5 M
181.517 380.267 L
S
GR
GS
0.149 GC
2 setlinecap
1 LJ
0.5 LW
N
220.227 382.5 M
220.227 380.267 L
S
GR
GS
0.149 GC
2 setlinecap
1 LJ
0.5 LW
N
239.884 382.5 M
239.884 380.267 L
S
GR
GS
0.149 GC
2 setlinecap
1 LJ
0.5 LW
N
253.83 382.5 M
253.83 380.267 L
S
GR
GS
0.149 GC
2 setlinecap
1 LJ
0.5 LW
N
264.648 382.5 M
264.648 380.267 L
S
GR
GS
0.149 GC
2 setlinecap
1 LJ
0.5 LW
N
273.486 382.5 M
273.486 380.267 L
S
GR
GS
0.149 GC
2 setlinecap
1 LJ
0.5 LW
N
280.959 382.5 M
280.959 380.267 L
S
GR
GS
0.149 GC
2 setlinecap
1 LJ
0.5 LW
N
287.432 382.5 M
287.432 380.267 L
S
GR
GS
0.149 GC
2 setlinecap
1 LJ
0.5 LW
N
293.142 382.5 M
293.142 380.267 L
S
GR
GS
0.149 GC
2 setlinecap
1 LJ
0.5 LW
N
331.852 382.5 M
331.852 380.267 L
S
GR
GS
0.149 GC
2 setlinecap
1 LJ
0.5 LW
N
351.509 382.5 M
351.509 380.267 L
S
GR
GS
0.149 GC
2 setlinecap
1 LJ
0.5 LW
N
365.455 382.5 M
365.455 380.267 L
S
GR
GS
0.149 GC
2 setlinecap
1 LJ
0.5 LW
N
376.273 382.5 M
376.273 380.267 L
S
GR
GS
0.149 GC
2 setlinecap
1 LJ
0.5 LW
N
385.111 382.5 M
385.111 380.267 L
S
GR
GS
0.149 GC
2 setlinecap
1 LJ
0.5 LW
N
392.584 382.5 M
392.584 380.267 L
S
GR
GS
0.149 GC
2 setlinecap
1 LJ
0.5 LW
N
399.057 382.5 M
399.057 380.267 L
S
GR
GS
0.149 GC
2 setlinecap
1 LJ
0.5 LW
N
404.767 382.5 M
404.767 380.267 L
S
GR
GS
0.149 GC
2 setlinecap
1 LJ
0.5 LW
N
443.477 382.5 M
443.477 380.267 L
S
GR
GS
0.149 GC
2 setlinecap
1 LJ
0.5 LW
N
463.134 382.5 M
463.134 380.267 L
S
GR
GS
0.149 GC
2 setlinecap
1 LJ
0.5 LW
N
477.08 382.5 M
477.08 380.267 L
S
GR
GS
0.149 GC
2 setlinecap
1 LJ
0.5 LW
N
487.898 382.5 M
487.898 380.267 L
S
GR
GS
0.149 GC
2 setlinecap
1 LJ
0.5 LW
N
496.736 382.5 M
496.736 380.267 L
S
GR
GS
0.149 GC
2 setlinecap
1 LJ
0.5 LW
N
504.209 382.5 M
504.209 380.267 L
S
GR
GS
0.149 GC
2 setlinecap
1 LJ
0.5 LW
N
510.682 382.5 M
510.682 380.267 L
S
GR
GS
0.149 GC
2 setlinecap
1 LJ
0.5 LW
N
516.392 382.5 M
516.392 380.267 L
S
GR
GS
0.149 GC
2 setlinecap
1 LJ
0.5 LW
N
108.602 32.5 M
108.602 34.733 L
S
GR
GS
0.149 GC
2 setlinecap
1 LJ
0.5 LW
N
128.259 32.5 M
128.259 34.733 L
S
GR
GS
0.149 GC
2 setlinecap
1 LJ
0.5 LW
N
142.205 32.5 M
142.205 34.733 L
S
GR
GS
0.149 GC
2 setlinecap
1 LJ
0.5 LW
N
153.023 32.5 M
153.023 34.733 L
S
GR
GS
0.149 GC
2 setlinecap
1 LJ
0.5 LW
N
161.861 32.5 M
161.861 34.733 L
S
GR
GS
0.149 GC
2 setlinecap
1 LJ
0.5 LW
N
169.334 32.5 M
169.334 34.733 L
S
GR
GS
0.149 GC
2 setlinecap
1 LJ
0.5 LW
N
175.807 32.5 M
175.807 34.733 L
S
GR
GS
0.149 GC
2 setlinecap
1 LJ
0.5 LW
N
181.517 32.5 M
181.517 34.733 L
S
GR
GS
0.149 GC
2 setlinecap
1 LJ
0.5 LW
N
220.227 32.5 M
220.227 34.733 L
S
GR
GS
0.149 GC
2 setlinecap
1 LJ
0.5 LW
N
239.884 32.5 M
239.884 34.733 L
S
GR
GS
0.149 GC
2 setlinecap
1 LJ
0.5 LW
N
253.83 32.5 M
253.83 34.733 L
S
GR
GS
0.149 GC
2 setlinecap
1 LJ
0.5 LW
N
264.648 32.5 M
264.648 34.733 L
S
GR
GS
0.149 GC
2 setlinecap
1 LJ
0.5 LW
N
273.486 32.5 M
273.486 34.733 L
S
GR
GS
0.149 GC
2 setlinecap
1 LJ
0.5 LW
N
280.959 32.5 M
280.959 34.733 L
S
GR
GS
0.149 GC
2 setlinecap
1 LJ
0.5 LW
N
287.432 32.5 M
287.432 34.733 L
S
GR
GS
0.149 GC
2 setlinecap
1 LJ
0.5 LW
N
293.142 32.5 M
293.142 34.733 L
S
GR
GS
0.149 GC
2 setlinecap
1 LJ
0.5 LW
N
331.852 32.5 M
331.852 34.733 L
S
GR
GS
0.149 GC
2 setlinecap
1 LJ
0.5 LW
N
351.509 32.5 M
351.509 34.733 L
S
GR
GS
0.149 GC
2 setlinecap
1 LJ
0.5 LW
N
365.455 32.5 M
365.455 34.733 L
S
GR
GS
0.149 GC
2 setlinecap
1 LJ
0.5 LW
N
376.273 32.5 M
376.273 34.733 L
S
GR
GS
0.149 GC
2 setlinecap
1 LJ
0.5 LW
N
385.111 32.5 M
385.111 34.733 L
S
GR
GS
0.149 GC
2 setlinecap
1 LJ
0.5 LW
N
392.584 32.5 M
392.584 34.733 L
S
GR
GS
0.149 GC
2 setlinecap
1 LJ
0.5 LW
N
399.057 32.5 M
399.057 34.733 L
S
GR
GS
0.149 GC
2 setlinecap
1 LJ
0.5 LW
N
404.767 32.5 M
404.767 34.733 L
S
GR
GS
0.149 GC
2 setlinecap
1 LJ
0.5 LW
N
443.477 32.5 M
443.477 34.733 L
S
GR
GS
0.149 GC
2 setlinecap
1 LJ
0.5 LW
N
463.134 32.5 M
463.134 34.733 L
S
GR
GS
0.149 GC
2 setlinecap
1 LJ
0.5 LW
N
477.08 32.5 M
477.08 34.733 L
S
GR
GS
0.149 GC
2 setlinecap
1 LJ
0.5 LW
N
487.898 32.5 M
487.898 34.733 L
S
GR
GS
0.149 GC
2 setlinecap
1 LJ
0.5 LW
N
496.736 32.5 M
496.736 34.733 L
S
GR
GS
0.149 GC
2 setlinecap
1 LJ
0.5 LW
N
504.209 32.5 M
504.209 34.733 L
S
GR
GS
0.149 GC
2 setlinecap
1 LJ
0.5 LW
N
510.682 32.5 M
510.682 34.733 L
S
GR
GS
0.149 GC
2 setlinecap
1 LJ
0.5 LW
N
516.392 32.5 M
516.392 34.733 L
S
GR
GS
[1 0 0 1 58 408] CT
0.149 GC
/Helvetica 18 F
GS
[1 0 0 1 0 0] CT
0 0 moveto 
1 -1 scale
(10) t 
GR
GR
GS
[1 0 0 1 79 399] CT
0.149 GC
/Helvetica 14 F
GS
[1 0 0 1 0 0] CT
0 0 moveto 
1 -1 scale
(-2) t 
GR
GR
GS
[1 0 0 1 170 408] CT
0.149 GC
/Helvetica 18 F
GS
[1 0 0 1 0 0] CT
0 0 moveto 
1 -1 scale
(10) t 
GR
GR
GS
[1 0 0 1 191 399] CT
0.149 GC
/Helvetica 14 F
GS
[1 0 0 1 0 0] CT
0 0 moveto 
1 -1 scale
(-1) t 
GR
GR
GS
[1 0 0 1 283 408] CT
0.149 GC
/Helvetica 18 F
GS
[1 0 0 1 0 0] CT
0 0 moveto 
1 -1 scale
(10) t 
GR
GR
GS
[1 0 0 1 304 399] CT
0.149 GC
/Helvetica 14 F
GS
[1 0 0 1 0 0] CT
0 0 moveto 
1 -1 scale
(0) t 
GR
GR
GS
[1 0 0 1 395 408] CT
0.149 GC
/Helvetica 18 F
GS
[1 0 0 1 0 0] CT
0 0 moveto 
1 -1 scale
(10) t 
GR
GR
GS
[1 0 0 1 416 399] CT
0.149 GC
/Helvetica 14 F
GS
[1 0 0 1 0 0] CT
0 0 moveto 
1 -1 scale
(1) t 
GR
GR
GS
[1 0 0 1 507 408] CT
0.149 GC
/Helvetica 18 F
GS
[1 0 0 1 0 0] CT
0 0 moveto 
1 -1 scale
(10) t 
GR
GR
GS
[1 0 0 1 528 399] CT
0.149 GC
/Helvetica 14 F
GS
[1 0 0 1 0 0] CT
0 0 moveto 
1 -1 scale
(2) t 
GR
GR
GS
[1 0 0 1 298.25021 413.60001] CT
0.149 GC
/Helvetica 18 F
GS
[1 0 0 1 0 0] CT
-76 14 moveto 
1 -1 scale
(Arithmetic intensity) t 
GR
GR
GS
0.149 GC
2 setlinecap
1 LJ
0.5 LW
N
75 382.5 M
75 32.5 L
S
GR
GS
0.149 GC
2 setlinecap
1 LJ
0.5 LW
N
521.5 382.5 M
521.5 32.5 L
S
GR
GS
0.149 GC
2 setlinecap
1 LJ
0.5 LW
N
75 382.5 M
79.465 382.5 L
S
GR
GS
0.149 GC
2 setlinecap
1 LJ
0.5 LW
N
75 295 M
79.465 295 L
S
GR
GS
0.149 GC
2 setlinecap
1 LJ
0.5 LW
N
75 207.5 M
79.465 207.5 L
S
GR
GS
0.149 GC
2 setlinecap
1 LJ
0.5 LW
N
75 120 M
79.465 120 L
S
GR
GS
0.149 GC
2 setlinecap
1 LJ
0.5 LW
N
75 32.5 M
79.465 32.5 L
S
GR
GS
0.149 GC
2 setlinecap
1 LJ
0.5 LW
N
521.5 382.5 M
517.035 382.5 L
S
GR
GS
0.149 GC
2 setlinecap
1 LJ
0.5 LW
N
521.5 295 M
517.035 295 L
S
GR
GS
0.149 GC
2 setlinecap
1 LJ
0.5 LW
N
521.5 207.5 M
517.035 207.5 L
S
GR
GS
0.149 GC
2 setlinecap
1 LJ
0.5 LW
N
521.5 120 M
517.035 120 L
S
GR
GS
0.149 GC
2 setlinecap
1 LJ
0.5 LW
N
521.5 32.5 M
517.035 32.5 L
S
GR
GS
0.149 GC
2 setlinecap
1 LJ
0.5 LW
N
75 356.16 M
77.232 356.16 L
S
GR
GS
0.149 GC
2 setlinecap
1 LJ
0.5 LW
N
75 340.752 M
77.232 340.752 L
S
GR
GS
0.149 GC
2 setlinecap
1 LJ
0.5 LW
N
75 329.82 M
77.232 329.82 L
S
GR
GS
0.149 GC
2 setlinecap
1 LJ
0.5 LW
N
75 321.34 M
77.232 321.34 L
S
GR
GS
0.149 GC
2 setlinecap
1 LJ
0.5 LW
N
75 314.412 M
77.232 314.412 L
S
GR
GS
0.149 GC
2 setlinecap
1 LJ
0.5 LW
N
75 308.554 M
77.232 308.554 L
S
GR
GS
0.149 GC
2 setlinecap
1 LJ
0.5 LW
N
75 303.48 M
77.232 303.48 L
S
GR
GS
0.149 GC
2 setlinecap
1 LJ
0.5 LW
N
75 299.004 M
77.232 299.004 L
S
GR
GS
0.149 GC
2 setlinecap
1 LJ
0.5 LW
N
75 268.66 M
77.232 268.66 L
S
GR
GS
0.149 GC
2 setlinecap
1 LJ
0.5 LW
N
75 253.252 M
77.232 253.252 L
S
GR
GS
0.149 GC
2 setlinecap
1 LJ
0.5 LW
N
75 242.32 M
77.232 242.32 L
S
GR
GS
0.149 GC
2 setlinecap
1 LJ
0.5 LW
N
75 233.84 M
77.232 233.84 L
S
GR
GS
0.149 GC
2 setlinecap
1 LJ
0.5 LW
N
75 226.912 M
77.232 226.912 L
S
GR
GS
0.149 GC
2 setlinecap
1 LJ
0.5 LW
N
75 221.054 M
77.232 221.054 L
S
GR
GS
0.149 GC
2 setlinecap
1 LJ
0.5 LW
N
75 215.98 M
77.232 215.98 L
S
GR
GS
0.149 GC
2 setlinecap
1 LJ
0.5 LW
N
75 211.504 M
77.232 211.504 L
S
GR
GS
0.149 GC
2 setlinecap
1 LJ
0.5 LW
N
75 181.16 M
77.232 181.16 L
S
GR
GS
0.149 GC
2 setlinecap
1 LJ
0.5 LW
N
75 165.752 M
77.232 165.752 L
S
GR
GS
0.149 GC
2 setlinecap
1 LJ
0.5 LW
N
75 154.82 M
77.232 154.82 L
S
GR
GS
0.149 GC
2 setlinecap
1 LJ
0.5 LW
N
75 146.34 M
77.232 146.34 L
S
GR
GS
0.149 GC
2 setlinecap
1 LJ
0.5 LW
N
75 139.412 M
77.232 139.412 L
S
GR
GS
0.149 GC
2 setlinecap
1 LJ
0.5 LW
N
75 133.554 M
77.232 133.554 L
S
GR
GS
0.149 GC
2 setlinecap
1 LJ
0.5 LW
N
75 128.48 M
77.232 128.48 L
S
GR
GS
0.149 GC
2 setlinecap
1 LJ
0.5 LW
N
75 124.004 M
77.232 124.004 L
S
GR
GS
0.149 GC
2 setlinecap
1 LJ
0.5 LW
N
75 93.66 M
77.232 93.66 L
S
GR
GS
0.149 GC
2 setlinecap
1 LJ
0.5 LW
N
75 78.252 M
77.232 78.252 L
S
GR
GS
0.149 GC
2 setlinecap
1 LJ
0.5 LW
N
75 67.32 M
77.232 67.32 L
S
GR
GS
0.149 GC
2 setlinecap
1 LJ
0.5 LW
N
75 58.84 M
77.232 58.84 L
S
GR
GS
0.149 GC
2 setlinecap
1 LJ
0.5 LW
N
75 51.912 M
77.232 51.912 L
S
GR
GS
0.149 GC
2 setlinecap
1 LJ
0.5 LW
N
75 46.054 M
77.232 46.054 L
S
GR
GS
0.149 GC
2 setlinecap
1 LJ
0.5 LW
N
75 40.98 M
77.232 40.98 L
S
GR
GS
0.149 GC
2 setlinecap
1 LJ
0.5 LW
N
75 36.504 M
77.232 36.504 L
S
GR
GS
0.149 GC
2 setlinecap
1 LJ
0.5 LW
N
521.5 356.16 M
519.268 356.16 L
S
GR
GS
0.149 GC
2 setlinecap
1 LJ
0.5 LW
N
521.5 340.752 M
519.268 340.752 L
S
GR
GS
0.149 GC
2 setlinecap
1 LJ
0.5 LW
N
521.5 329.82 M
519.268 329.82 L
S
GR
GS
0.149 GC
2 setlinecap
1 LJ
0.5 LW
N
521.5 321.34 M
519.268 321.34 L
S
GR
GS
0.149 GC
2 setlinecap
1 LJ
0.5 LW
N
521.5 314.412 M
519.268 314.412 L
S
GR
GS
0.149 GC
2 setlinecap
1 LJ
0.5 LW
N
521.5 308.554 M
519.268 308.554 L
S
GR
GS
0.149 GC
2 setlinecap
1 LJ
0.5 LW
N
521.5 303.48 M
519.268 303.48 L
S
GR
GS
0.149 GC
2 setlinecap
1 LJ
0.5 LW
N
521.5 299.004 M
519.268 299.004 L
S
GR
GS
0.149 GC
2 setlinecap
1 LJ
0.5 LW
N
521.5 268.66 M
519.268 268.66 L
S
GR
GS
0.149 GC
2 setlinecap
1 LJ
0.5 LW
N
521.5 253.252 M
519.268 253.252 L
S
GR
GS
0.149 GC
2 setlinecap
1 LJ
0.5 LW
N
521.5 242.32 M
519.268 242.32 L
S
GR
GS
0.149 GC
2 setlinecap
1 LJ
0.5 LW
N
521.5 233.84 M
519.268 233.84 L
S
GR
GS
0.149 GC
2 setlinecap
1 LJ
0.5 LW
N
521.5 226.912 M
519.268 226.912 L
S
GR
GS
0.149 GC
2 setlinecap
1 LJ
0.5 LW
N
521.5 221.054 M
519.268 221.054 L
S
GR
GS
0.149 GC
2 setlinecap
1 LJ
0.5 LW
N
521.5 215.98 M
519.268 215.98 L
S
GR
GS
0.149 GC
2 setlinecap
1 LJ
0.5 LW
N
521.5 211.504 M
519.268 211.504 L
S
GR
GS
0.149 GC
2 setlinecap
1 LJ
0.5 LW
N
521.5 181.16 M
519.268 181.16 L
S
GR
GS
0.149 GC
2 setlinecap
1 LJ
0.5 LW
N
521.5 165.752 M
519.268 165.752 L
S
GR
GS
0.149 GC
2 setlinecap
1 LJ
0.5 LW
N
521.5 154.82 M
519.268 154.82 L
S
GR
GS
0.149 GC
2 setlinecap
1 LJ
0.5 LW
N
521.5 146.34 M
519.268 146.34 L
S
GR
GS
0.149 GC
2 setlinecap
1 LJ
0.5 LW
N
521.5 139.412 M
519.268 139.412 L
S
GR
GS
0.149 GC
2 setlinecap
1 LJ
0.5 LW
N
521.5 133.554 M
519.268 133.554 L
S
GR
GS
0.149 GC
2 setlinecap
1 LJ
0.5 LW
N
521.5 128.48 M
519.268 128.48 L
S
GR
GS
0.149 GC
2 setlinecap
1 LJ
0.5 LW
N
521.5 124.004 M
519.268 124.004 L
S
GR
GS
0.149 GC
2 setlinecap
1 LJ
0.5 LW
N
521.5 93.66 M
519.268 93.66 L
S
GR
GS
0.149 GC
2 setlinecap
1 LJ
0.5 LW
N
521.5 78.252 M
519.268 78.252 L
S
GR
GS
0.149 GC
2 setlinecap
1 LJ
0.5 LW
N
521.5 67.32 M
519.268 67.32 L
S
GR
GS
0.149 GC
2 setlinecap
1 LJ
0.5 LW
N
521.5 58.84 M
519.268 58.84 L
S
GR
GS
0.149 GC
2 setlinecap
1 LJ
0.5 LW
N
521.5 51.912 M
519.268 51.912 L
S
GR
GS
0.149 GC
2 setlinecap
1 LJ
0.5 LW
N
521.5 46.054 M
519.268 46.054 L
S
GR
GS
0.149 GC
2 setlinecap
1 LJ
0.5 LW
N
521.5 40.98 M
519.268 40.98 L
S
GR
GS
0.149 GC
2 setlinecap
1 LJ
0.5 LW
N
521.5 36.504 M
519.268 36.504 L
S
GR
GS
[1 0 0 1 40 391] CT
0.149 GC
/Helvetica 18 F
GS
[1 0 0 1 0 0] CT
0 0 moveto 
1 -1 scale
(10) t 
GR
GR
GS
[1 0 0 1 61 382] CT
0.149 GC
/Helvetica 14 F
GS
[1 0 0 1 0 0] CT
0 0 moveto 
1 -1 scale
(0) t 
GR
GR
GS
[1 0 0 1 40 303] CT
0.149 GC
/Helvetica 18 F
GS
[1 0 0 1 0 0] CT
0 0 moveto 
1 -1 scale
(10) t 
GR
GR
GS
[1 0 0 1 61 294] CT
0.149 GC
/Helvetica 14 F
GS
[1 0 0 1 0 0] CT
0 0 moveto 
1 -1 scale
(1) t 
GR
GR
GS
[1 0 0 1 40 216] CT
0.149 GC
/Helvetica 18 F
GS
[1 0 0 1 0 0] CT
0 0 moveto 
1 -1 scale
(10) t 
GR
GR
GS
[1 0 0 1 61 207] CT
0.149 GC
/Helvetica 14 F
GS
[1 0 0 1 0 0] CT
0 0 moveto 
1 -1 scale
(2) t 
GR
GR
GS
[1 0 0 1 40 128] CT
0.149 GC
/Helvetica 18 F
GS
[1 0 0 1 0 0] CT
0 0 moveto 
1 -1 scale
(10) t 
GR
GR
GS
[1 0 0 1 61 119] CT
0.149 GC
/Helvetica 14 F
GS
[1 0 0 1 0 0] CT
0 0 moveto 
1 -1 scale
(3) t 
GR
GR
GS
[1 0 0 1 40 41] CT
0.149 GC
/Helvetica 18 F
GS
[1 0 0 1 0 0] CT
0 0 moveto 
1 -1 scale
(10) t 
GR
GR
GS
[1 0 0 1 61 32] CT
0.149 GC
/Helvetica 14 F
GS
[1 0 0 1 0 0] CT
0 0 moveto 
1 -1 scale
(4) t 
GR
GR
GS
[0 -1 1 0 37.9 207.49983] CT
0.149 GC
/Helvetica 18 F
GS
[1 0 0 1 0 0] CT
-131 -5 moveto 
1 -1 scale
(Arithmetic throughput [GFLOP/s]) t 
GR
GR
GS
1 LJ
2 LW
N
75 351.853 M
444.885 61.91 L
521.5 61.91 L
S
GR
%%Trailer
%%Pages: 1
%%EOF
